[
	{
		"ID": 1
	},
	{
		"ID": 2
	},
	{
		"ID": 3
	},
	{
		"ID": 4
	},
	{
		"ID": 5
	},
	{
		"ID": 6
	},
	{
		"ID": 7
	},
	{
		"ID": 8
	},
	{
		"ID": 9
	},
	{
		"ID": 10
	},
	{
		"ID": 11
	},
	{
		"ID": 12
	},
	{
		"ID": 13
	},
	{
		"ID": 14
	},
	{
		"ID": 15
	},
	{
		"ID": 16
	},
	{
		"ID": 17
	},
	{
		"ID": 18
	},
	{
		"ID": 19
	},
	{
		"ID": 20
	},
	{
		"ID": 21
	},
	{
		"ID": 22
	},
	{
		"ID": 23
	},
	{
		"ID": 24
	},
	{
		"ID": 25
	},
	{
		"ID": 26
	},
	{
		"ID": 27
	},
	{
		"ID": 28
	},
	{
		"ID": 29
	},
	{
		"ID": 30
	},
	{
		"ID": 31
	},
	{
		"ID": 32
	},
	{
		"ID": 33
	},
	{
		"ID": 34
	},
	{
		"ID": 35
	},
	{
		"ID": 36
	},
	{
		"ID": 37
	},
	{
		"ID": 38
	},
	{
		"ID": 39
	},
	{
		"ID": 40
	},
	{
		"ID": 41
	},
	{
		"ID": 42
	},
	{
		"ID": 43
	},
	{
		"ID": 44
	},
	{
		"ID": 45
	},
	{
		"ID": 46
	},
	{
		"ID": 47
	},
	{
		"ID": 48
	},
	{
		"ID": 49
	},
	{
		"ID": 50
	},
	{
		"ID": 51
	},
	{
		"ID": 52
	},
	{
		"ID": 53
	},
	{
		"ID": 54
	},
	{
		"ID": 55
	},
	{
		"ID": 56
	},
	{
		"ID": 57
	},
	{
		"ID": 58
	},
	{
		"ID": 59
	},
	{
		"ID": 60
	},
	{
		"ID": 61
	},
	{
		"ID": 62
	},
	{
		"ID": 63
	},
	{
		"ID": 64
	},
	{
		"ID": 65
	},
	{
		"ID": 66
	},
	{
		"ID": 67
	},
	{
		"ID": 68
	},
	{
		"ID": 69
	},
	{
		"ID": 70
	},
	{
		"ID": 71
	},
	{
		"ID": 72
	},
	{
		"ID": 73
	},
	{
		"ID": 74
	},
	{
		"ID": 75
	},
	{
		"ID": 76
	},
	{
		"ID": 77
	},
	{
		"ID": 78
	},
	{
		"ID": 79
	},
	{
		"ID": 80
	},
	{
		"ID": 81
	},
	{
		"ID": 82
	},
	{
		"ID": 83
	},
	{
		"ID": 84
	},
	{
		"ID": 85
	},
	{
		"ID": 86
	},
	{
		"ID": 87
	},
	{
		"ID": 88
	},
	{
		"ID": 89
	},
	{
		"ID": 90
	},
	{
		"ID": 91
	},
	{
		"ID": 92
	},
	{
		"ID": 93
	},
	{
		"ID": 94
	},
	{
		"ID": 95
	},
	{
		"ID": 96
	},
	{
		"ID": 97
	},
	{
		"ID": 98
	},
	{
		"ID": 99
	},
	{
		"ID": 100
	},
	{
		"ID": 101
	},
	{
		"ID": 102
	},
	{
		"ID": 103
	},
	{
		"ID": 104
	},
	{
		"ID": 105
	},
	{
		"ID": 106
	},
	{
		"ID": 107
	},
	{
		"ID": 108
	},
	{
		"ID": 109
	},
	{
		"ID": 110
	},
	{
		"ID": 111
	},
	{
		"ID": 112
	},
	{
		"ID": 113
	},
	{
		"ID": 114
	},
	{
		"ID": 115
	},
	{
		"ID": 116
	},
	{
		"ID": 117
	},
	{
		"ID": 118
	},
	{
		"ID": 119
	},
	{
		"ID": 120
	},
	{
		"ID": 121
	},
	{
		"ID": 122
	},
	{
		"ID": 123
	},
	{
		"ID": 124
	},
	{
		"ID": 125
	},
	{
		"ID": 126
	},
	{
		"ID": 127
	},
	{
		"ID": 128
	},
	{
		"ID": 129
	},
	{
		"ID": 130
	},
	{
		"ID": 131
	},
	{
		"ID": 132
	},
	{
		"ID": 133
	},
	{
		"ID": 134
	},
	{
		"ID": 135
	},
	{
		"ID": 136
	},
	{
		"ID": 137
	},
	{
		"ID": 138
	},
	{
		"ID": 139
	},
	{
		"ID": 140
	},
	{
		"ID": 141
	},
	{
		"ID": 142
	},
	{
		"ID": 143
	},
	{
		"ID": 144
	},
	{
		"ID": 145
	},
	{
		"ID": 146
	},
	{
		"ID": 147
	},
	{
		"ID": 148
	},
	{
		"ID": 149
	},
	{
		"ID": 150
	},
	{
		"ID": 151
	},
	{
		"ID": 152
	},
	{
		"ID": 153
	},
	{
		"ID": 154
	},
	{
		"ID": 155
	},
	{
		"ID": 156
	},
	{
		"ID": 157
	},
	{
		"ID": 158
	},
	{
		"ID": 159
	},
	{
		"ID": 160
	},
	{
		"ID": 161
	},
	{
		"ID": 162
	},
	{
		"ID": 163
	},
	{
		"ID": 164
	},
	{
		"ID": 165
	},
	{
		"ID": 166
	},
	{
		"ID": 167
	},
	{
		"ID": 168
	},
	{
		"ID": 169
	},
	{
		"ID": 170
	},
	{
		"ID": 171
	},
	{
		"ID": 172
	},
	{
		"ID": 173
	},
	{
		"ID": 174
	},
	{
		"ID": 175
	},
	{
		"ID": 176
	},
	{
		"ID": 177
	},
	{
		"ID": 178
	},
	{
		"ID": 179
	},
	{
		"ID": 180
	},
	{
		"ID": 181
	},
	{
		"ID": 182
	},
	{
		"ID": 183
	},
	{
		"ID": 184
	},
	{
		"ID": 185
	},
	{
		"ID": 186
	},
	{
		"ID": 187
	},
	{
		"ID": 188
	},
	{
		"ID": 189
	},
	{
		"ID": 190
	},
	{
		"ID": 191
	},
	{
		"ID": 192
	},
	{
		"ID": 193
	},
	{
		"ID": 194
	},
	{
		"ID": 195
	},
	{
		"ID": 196
	},
	{
		"ID": 197
	},
	{
		"ID": 198
	},
	{
		"ID": 199
	},
	{
		"ID": 200
	},
	{
		"ID": 201
	},
	{
		"ID": 202
	},
	{
		"ID": 203
	},
	{
		"ID": 204
	},
	{
		"ID": 205
	},
	{
		"ID": 206
	},
	{
		"ID": 207
	},
	{
		"ID": 208
	},
	{
		"ID": 209
	},
	{
		"ID": 210
	},
	{
		"ID": 211
	},
	{
		"ID": 212
	},
	{
		"ID": 213
	},
	{
		"ID": 214
	},
	{
		"ID": 215
	},
	{
		"ID": 216
	},
	{
		"ID": 217
	},
	{
		"ID": 218
	},
	{
		"ID": 219
	},
	{
		"ID": 220
	},
	{
		"ID": 221
	},
	{
		"ID": 222
	},
	{
		"ID": 223
	},
	{
		"ID": 224
	},
	{
		"ID": 225
	},
	{
		"ID": 226
	},
	{
		"ID": 227
	},
	{
		"ID": 228
	},
	{
		"ID": 229
	},
	{
		"ID": 230
	},
	{
		"ID": 231
	},
	{
		"ID": 232
	},
	{
		"ID": 233
	},
	{
		"ID": 234
	},
	{
		"ID": 235
	},
	{
		"ID": 236
	},
	{
		"ID": 237
	},
	{
		"ID": 238
	},
	{
		"ID": 239
	},
	{
		"ID": 240
	},
	{
		"ID": 241
	},
	{
		"ID": 242
	},
	{
		"ID": 243
	},
	{
		"ID": 244
	},
	{
		"ID": 245
	},
	{
		"ID": 246
	},
	{
		"ID": 247
	},
	{
		"ID": 248
	},
	{
		"ID": 249
	},
	{
		"ID": 250
	},
	{
		"ID": 251
	},
	{
		"ID": 252
	},
	{
		"ID": 253
	},
	{
		"ID": 254
	},
	{
		"ID": 255
	},
	{
		"ID": 256
	},
	{
		"ID": 257
	},
	{
		"ID": 258
	},
	{
		"ID": 259
	},
	{
		"ID": 260
	},
	{
		"ID": 261
	},
	{
		"ID": 262
	},
	{
		"ID": 263
	},
	{
		"ID": 264
	},
	{
		"ID": 265
	},
	{
		"ID": 266
	},
	{
		"ID": 267
	},
	{
		"ID": 268
	},
	{
		"ID": 269
	},
	{
		"ID": 270
	},
	{
		"ID": 271
	},
	{
		"ID": 272
	},
	{
		"ID": 273
	},
	{
		"ID": 274
	},
	{
		"ID": 275
	},
	{
		"ID": 276
	},
	{
		"ID": 277
	},
	{
		"ID": 278
	},
	{
		"ID": 279
	},
	{
		"ID": 280
	},
	{
		"ID": 281
	},
	{
		"ID": 282
	},
	{
		"ID": 283
	},
	{
		"ID": 284
	},
	{
		"ID": 285
	},
	{
		"ID": 286
	},
	{
		"ID": 287
	},
	{
		"ID": 288
	},
	{
		"ID": 289
	},
	{
		"ID": 290
	},
	{
		"ID": 291
	},
	{
		"ID": 292
	},
	{
		"ID": 293
	},
	{
		"ID": 294
	},
	{
		"ID": 295
	},
	{
		"ID": 296
	},
	{
		"ID": 297
	},
	{
		"ID": 298
	},
	{
		"ID": 299
	},
	{
		"ID": 300
	},
	{
		"ID": 301
	},
	{
		"ID": 302
	},
	{
		"ID": 303
	},
	{
		"ID": 304
	},
	{
		"ID": 305
	},
	{
		"ID": 306
	},
	{
		"ID": 307
	},
	{
		"ID": 308
	},
	{
		"ID": 309
	},
	{
		"ID": 310
	},
	{
		"ID": 311
	},
	{
		"ID": 312
	},
	{
		"ID": 313
	},
	{
		"ID": 314
	},
	{
		"ID": 315
	},
	{
		"ID": 316
	},
	{
		"ID": 317
	},
	{
		"ID": 318
	},
	{
		"ID": 319
	},
	{
		"ID": 320
	},
	{
		"ID": 321
	},
	{
		"ID": 322
	},
	{
		"ID": 323
	},
	{
		"ID": 324
	},
	{
		"ID": 325
	},
	{
		"ID": 326
	},
	{
		"ID": 327
	},
	{
		"ID": 328
	},
	{
		"ID": 329
	},
	{
		"ID": 330
	},
	{
		"ID": 331
	},
	{
		"ID": 332
	},
	{
		"ID": 333
	},
	{
		"ID": 334
	},
	{
		"ID": 335
	},
	{
		"ID": 336
	},
	{
		"ID": 337
	},
	{
		"ID": 338
	},
	{
		"ID": 339
	},
	{
		"ID": 340
	},
	{
		"ID": 341
	},
	{
		"ID": 342
	},
	{
		"ID": 343
	},
	{
		"ID": 344
	},
	{
		"ID": 345
	},
	{
		"ID": 346
	},
	{
		"ID": 347
	},
	{
		"ID": 348
	},
	{
		"ID": 349
	},
	{
		"ID": 350
	},
	{
		"ID": 351
	},
	{
		"ID": 352
	},
	{
		"ID": 353
	},
	{
		"ID": 354
	},
	{
		"ID": 355
	},
	{
		"ID": 356
	},
	{
		"ID": 357
	},
	{
		"ID": 358
	},
	{
		"ID": 359
	},
	{
		"ID": 360
	},
	{
		"ID": 361
	},
	{
		"ID": 362
	},
	{
		"ID": 363
	},
	{
		"ID": 364
	},
	{
		"ID": 365
	},
	{
		"ID": 366
	},
	{
		"ID": 367
	},
	{
		"ID": 368
	},
	{
		"ID": 369
	},
	{
		"ID": 370
	},
	{
		"ID": 371
	},
	{
		"ID": 372
	},
	{
		"ID": 373
	},
	{
		"ID": 374
	},
	{
		"ID": 375
	},
	{
		"ID": 376
	},
	{
		"ID": 377
	},
	{
		"ID": 378
	},
	{
		"ID": 379
	},
	{
		"ID": 380
	},
	{
		"ID": 381
	},
	{
		"ID": 382
	},
	{
		"ID": 383
	},
	{
		"ID": 384
	},
	{
		"ID": 385
	},
	{
		"ID": 386
	},
	{
		"ID": 387
	},
	{
		"ID": 388
	},
	{
		"ID": 389
	},
	{
		"ID": 390
	},
	{
		"ID": 391
	},
	{
		"ID": 392
	},
	{
		"ID": 393
	},
	{
		"ID": 394
	},
	{
		"ID": 395
	},
	{
		"ID": 396
	},
	{
		"ID": 397
	},
	{
		"ID": 398
	},
	{
		"ID": 399
	},
	{
		"ID": 400
	},
	{
		"ID": 401
	},
	{
		"ID": 402
	},
	{
		"ID": 403
	},
	{
		"ID": 404
	},
	{
		"ID": 405
	},
	{
		"ID": 406
	},
	{
		"ID": 407
	},
	{
		"ID": 408
	},
	{
		"ID": 409
	},
	{
		"ID": 410
	},
	{
		"ID": 411
	},
	{
		"ID": 412
	},
	{
		"ID": 413
	},
	{
		"ID": 414
	},
	{
		"ID": 415
	},
	{
		"ID": 416
	},
	{
		"ID": 417
	},
	{
		"ID": 418
	},
	{
		"ID": 419
	},
	{
		"ID": 420
	},
	{
		"ID": 421
	},
	{
		"ID": 422
	},
	{
		"ID": 423
	},
	{
		"ID": 424
	},
	{
		"ID": 425
	},
	{
		"ID": 426
	},
	{
		"ID": 427
	},
	{
		"ID": 428
	},
	{
		"ID": 429
	},
	{
		"ID": 430
	},
	{
		"ID": 431
	},
	{
		"ID": 432
	},
	{
		"ID": 433
	},
	{
		"ID": 434
	},
	{
		"ID": 435
	},
	{
		"ID": 436
	},
	{
		"ID": 437
	},
	{
		"ID": 438
	},
	{
		"ID": 439
	},
	{
		"ID": 440
	},
	{
		"ID": 441
	},
	{
		"ID": 442
	},
	{
		"ID": 443
	},
	{
		"ID": 444
	},
	{
		"ID": 445
	},
	{
		"ID": 446
	},
	{
		"ID": 447
	},
	{
		"ID": 448
	},
	{
		"ID": 449
	},
	{
		"ID": 450
	},
	{
		"ID": 451
	},
	{
		"ID": 452
	},
	{
		"ID": 453
	},
	{
		"ID": 454
	},
	{
		"ID": 455
	},
	{
		"ID": 456
	},
	{
		"ID": 457
	},
	{
		"ID": 458
	},
	{
		"ID": 459
	},
	{
		"ID": 460
	},
	{
		"ID": 461
	},
	{
		"ID": 462
	},
	{
		"ID": 463
	},
	{
		"ID": 464
	},
	{
		"ID": 465
	},
	{
		"ID": 466
	},
	{
		"ID": 467
	},
	{
		"ID": 468
	},
	{
		"ID": 469
	},
	{
		"ID": 470
	},
	{
		"ID": 471
	},
	{
		"ID": 472
	},
	{
		"ID": 473
	},
	{
		"ID": 474
	},
	{
		"ID": 475
	},
	{
		"ID": 476
	},
	{
		"ID": 477
	},
	{
		"ID": 478
	},
	{
		"ID": 479
	},
	{
		"ID": 480
	},
	{
		"ID": 481
	},
	{
		"ID": 482
	},
	{
		"ID": 483
	},
	{
		"ID": 484
	},
	{
		"ID": 485
	},
	{
		"ID": 486
	},
	{
		"ID": 487
	},
	{
		"ID": 488
	},
	{
		"ID": 489
	},
	{
		"ID": 490
	},
	{
		"ID": 491
	},
	{
		"ID": 492
	},
	{
		"ID": 493
	},
	{
		"ID": 494
	},
	{
		"ID": 495
	},
	{
		"ID": 496
	},
	{
		"ID": 497
	},
	{
		"ID": 498
	},
	{
		"ID": 499
	},
	{
		"ID": 500
	},
	{
		"ID": 501
	},
	{
		"ID": 502
	},
	{
		"ID": 503
	},
	{
		"ID": 504
	},
	{
		"ID": 505
	},
	{
		"ID": 506
	},
	{
		"ID": 507
	},
	{
		"ID": 508
	},
	{
		"ID": 509
	},
	{
		"ID": 510
	},
	{
		"ID": 511
	},
	{
		"ID": 512
	},
	{
		"ID": 513
	},
	{
		"ID": 514
	},
	{
		"ID": 515
	},
	{
		"ID": 516
	},
	{
		"ID": 517
	},
	{
		"ID": 518
	},
	{
		"ID": 519
	},
	{
		"ID": 520
	},
	{
		"ID": 521
	},
	{
		"ID": 522
	},
	{
		"ID": 523
	},
	{
		"ID": 524
	},
	{
		"ID": 525
	},
	{
		"ID": 526
	},
	{
		"ID": 527
	},
	{
		"ID": 528
	},
	{
		"ID": 529
	},
	{
		"ID": 530
	},
	{
		"ID": 531
	},
	{
		"ID": 532
	},
	{
		"ID": 533
	},
	{
		"ID": 534
	},
	{
		"ID": 535
	},
	{
		"ID": 536
	},
	{
		"ID": 537
	},
	{
		"ID": 538
	},
	{
		"ID": 539
	},
	{
		"ID": 540
	},
	{
		"ID": 541
	},
	{
		"ID": 542
	},
	{
		"ID": 543
	},
	{
		"ID": 544
	},
	{
		"ID": 545
	},
	{
		"ID": 546
	},
	{
		"ID": 547
	},
	{
		"ID": 548
	},
	{
		"ID": 549
	},
	{
		"ID": 550
	},
	{
		"ID": 551
	},
	{
		"ID": 552
	},
	{
		"ID": 553
	},
	{
		"ID": 554
	},
	{
		"ID": 555
	},
	{
		"ID": 556
	},
	{
		"ID": 557
	},
	{
		"ID": 558
	},
	{
		"ID": 559
	},
	{
		"ID": 560
	},
	{
		"ID": 561
	},
	{
		"ID": 562
	},
	{
		"ID": 563
	},
	{
		"ID": 564
	},
	{
		"ID": 565
	},
	{
		"ID": 566
	},
	{
		"ID": 567
	},
	{
		"ID": 568
	},
	{
		"ID": 569
	},
	{
		"ID": 570
	},
	{
		"ID": 571
	},
	{
		"ID": 572
	},
	{
		"ID": 573
	},
	{
		"ID": 574
	},
	{
		"ID": 575
	},
	{
		"ID": 576
	},
	{
		"ID": 577
	},
	{
		"ID": 578
	},
	{
		"ID": 579
	},
	{
		"ID": 580
	},
	{
		"ID": 581
	},
	{
		"ID": 582
	},
	{
		"ID": 583
	},
	{
		"ID": 584
	},
	{
		"ID": 585
	},
	{
		"ID": 586
	},
	{
		"ID": 587
	},
	{
		"ID": 588
	},
	{
		"ID": 589
	},
	{
		"ID": 590
	},
	{
		"ID": 591
	},
	{
		"ID": 592
	},
	{
		"ID": 593
	},
	{
		"ID": 594
	},
	{
		"ID": 595
	},
	{
		"ID": 596
	},
	{
		"ID": 597
	},
	{
		"ID": 598
	},
	{
		"ID": 599
	},
	{
		"ID": 600
	},
	{
		"ID": 601
	},
	{
		"ID": 602
	},
	{
		"ID": 603
	},
	{
		"ID": 604
	},
	{
		"ID": 605
	},
	{
		"ID": 606
	},
	{
		"ID": 607
	},
	{
		"ID": 608
	},
	{
		"ID": 609
	},
	{
		"ID": 610
	},
	{
		"ID": 611
	},
	{
		"ID": 612
	},
	{
		"ID": 613
	},
	{
		"ID": 614
	},
	{
		"ID": 615
	},
	{
		"ID": 616
	},
	{
		"ID": 617
	},
	{
		"ID": 618
	},
	{
		"ID": 619
	},
	{
		"ID": 620
	},
	{
		"ID": 621
	},
	{
		"ID": 622
	},
	{
		"ID": 623
	},
	{
		"ID": 624
	},
	{
		"ID": 625
	},
	{
		"ID": 626
	},
	{
		"ID": 627
	},
	{
		"ID": 628
	},
	{
		"ID": 629
	},
	{
		"ID": 630
	},
	{
		"ID": 631
	},
	{
		"ID": 632
	},
	{
		"ID": 633
	},
	{
		"ID": 634
	},
	{
		"ID": 635
	},
	{
		"ID": 636
	},
	{
		"ID": 637
	},
	{
		"ID": 638
	},
	{
		"ID": 639
	},
	{
		"ID": 640
	},
	{
		"ID": 641
	},
	{
		"ID": 642
	},
	{
		"ID": 643
	},
	{
		"ID": 644
	},
	{
		"ID": 645
	},
	{
		"ID": 646
	},
	{
		"ID": 647
	},
	{
		"ID": 648
	},
	{
		"ID": 649
	},
	{
		"ID": 650
	},
	{
		"ID": 651
	},
	{
		"ID": 652
	},
	{
		"ID": 653
	},
	{
		"ID": 654
	},
	{
		"ID": 655
	},
	{
		"ID": 656
	},
	{
		"ID": 657
	},
	{
		"ID": 658
	},
	{
		"ID": 659
	},
	{
		"ID": 660
	},
	{
		"ID": 661
	},
	{
		"ID": 662
	},
	{
		"ID": 663
	},
	{
		"ID": 664
	},
	{
		"ID": 665
	},
	{
		"ID": 666
	},
	{
		"ID": 667
	},
	{
		"ID": 668
	},
	{
		"ID": 669
	},
	{
		"ID": 670
	},
	{
		"ID": 671
	},
	{
		"ID": 672
	},
	{
		"ID": 673
	},
	{
		"ID": 674
	},
	{
		"ID": 675
	},
	{
		"ID": 676
	},
	{
		"ID": 677
	},
	{
		"ID": 678
	},
	{
		"ID": 679
	},
	{
		"ID": 680
	},
	{
		"ID": 681
	},
	{
		"ID": 682
	},
	{
		"ID": 683
	},
	{
		"ID": 684
	},
	{
		"ID": 685
	},
	{
		"ID": 686
	},
	{
		"ID": 687
	},
	{
		"ID": 688
	},
	{
		"ID": 689
	},
	{
		"ID": 690
	},
	{
		"ID": 691
	},
	{
		"ID": 692
	},
	{
		"ID": 693
	},
	{
		"ID": 694
	},
	{
		"ID": 695
	},
	{
		"ID": 696
	},
	{
		"ID": 697
	},
	{
		"ID": 698
	},
	{
		"ID": 699
	},
	{
		"ID": 700
	},
	{
		"ID": 701
	},
	{
		"ID": 702
	},
	{
		"ID": 703
	},
	{
		"ID": 704
	},
	{
		"ID": 705
	},
	{
		"ID": 706
	},
	{
		"ID": 707
	},
	{
		"ID": 708
	},
	{
		"ID": 709
	},
	{
		"ID": 710
	},
	{
		"ID": 711
	},
	{
		"ID": 712
	},
	{
		"ID": 713
	},
	{
		"ID": 714
	},
	{
		"ID": 715
	},
	{
		"ID": 716
	},
	{
		"ID": 717
	},
	{
		"ID": 718
	},
	{
		"ID": 719
	},
	{
		"ID": 720
	},
	{
		"ID": 721
	},
	{
		"ID": 722
	},
	{
		"ID": 723
	},
	{
		"ID": 724
	},
	{
		"ID": 725
	},
	{
		"ID": 726
	},
	{
		"ID": 727
	},
	{
		"ID": 728
	},
	{
		"ID": 729
	},
	{
		"ID": 730
	},
	{
		"ID": 731
	},
	{
		"ID": 732
	},
	{
		"ID": 733
	},
	{
		"ID": 734
	},
	{
		"ID": 735
	},
	{
		"ID": 736
	},
	{
		"ID": 737
	},
	{
		"ID": 738
	},
	{
		"ID": 739
	},
	{
		"ID": 740
	},
	{
		"ID": 741
	},
	{
		"ID": 742
	},
	{
		"ID": 743
	},
	{
		"ID": 744
	},
	{
		"ID": 745
	},
	{
		"ID": 746
	},
	{
		"ID": 747
	},
	{
		"ID": 748
	},
	{
		"ID": 749
	},
	{
		"ID": 750
	},
	{
		"ID": 751
	},
	{
		"ID": 752
	},
	{
		"ID": 753
	},
	{
		"ID": 754
	},
	{
		"ID": 755
	},
	{
		"ID": 756
	},
	{
		"ID": 757
	},
	{
		"ID": 758
	},
	{
		"ID": 759
	},
	{
		"ID": 760
	},
	{
		"ID": 761
	},
	{
		"ID": 762
	},
	{
		"ID": 763
	},
	{
		"ID": 764
	},
	{
		"ID": 765
	},
	{
		"ID": 766
	},
	{
		"ID": 767
	},
	{
		"ID": 768
	},
	{
		"ID": 769
	},
	{
		"ID": 770
	},
	{
		"ID": 771
	},
	{
		"ID": 772
	},
	{
		"ID": 773
	},
	{
		"ID": 774
	},
	{
		"ID": 775
	},
	{
		"ID": 776
	},
	{
		"ID": 777
	},
	{
		"ID": 778
	},
	{
		"ID": 779
	},
	{
		"ID": 780
	},
	{
		"ID": 781
	},
	{
		"ID": 782
	},
	{
		"ID": 783
	},
	{
		"ID": 784
	},
	{
		"ID": 785
	},
	{
		"ID": 786
	},
	{
		"ID": 787
	},
	{
		"ID": 788
	},
	{
		"ID": 789
	},
	{
		"ID": 790
	},
	{
		"ID": 791
	},
	{
		"ID": 792
	},
	{
		"ID": 793
	},
	{
		"ID": 794
	},
	{
		"ID": 795
	},
	{
		"ID": 796
	},
	{
		"ID": 797
	},
	{
		"ID": 798
	},
	{
		"ID": 799
	},
	{
		"ID": 800
	},
	{
		"ID": 801
	},
	{
		"ID": 802
	},
	{
		"ID": 803
	},
	{
		"ID": 804
	},
	{
		"ID": 805
	},
	{
		"ID": 806
	},
	{
		"ID": 807
	},
	{
		"ID": 808
	},
	{
		"ID": 809
	},
	{
		"ID": 810
	},
	{
		"ID": 811
	},
	{
		"ID": 812
	},
	{
		"ID": 813
	},
	{
		"ID": 814
	},
	{
		"ID": 815
	},
	{
		"ID": 816
	},
	{
		"ID": 817
	},
	{
		"ID": 818
	},
	{
		"ID": 819
	},
	{
		"ID": 820
	},
	{
		"ID": 821
	},
	{
		"ID": 822
	},
	{
		"ID": 823
	},
	{
		"ID": 824
	},
	{
		"ID": 825
	},
	{
		"ID": 826
	},
	{
		"ID": 827
	},
	{
		"ID": 828
	},
	{
		"ID": 829
	},
	{
		"ID": 830
	},
	{
		"ID": 831
	},
	{
		"ID": 832
	},
	{
		"ID": 833
	},
	{
		"ID": 834
	},
	{
		"ID": 835
	},
	{
		"ID": 836
	},
	{
		"ID": 837
	},
	{
		"ID": 838
	},
	{
		"ID": 839
	},
	{
		"ID": 840
	},
	{
		"ID": 841
	},
	{
		"ID": 842
	},
	{
		"ID": 843
	},
	{
		"ID": 844
	},
	{
		"ID": 845
	},
	{
		"ID": 846
	},
	{
		"ID": 847
	},
	{
		"ID": 848
	},
	{
		"ID": 849
	},
	{
		"ID": 850
	},
	{
		"ID": 851
	},
	{
		"ID": 852
	},
	{
		"ID": 853
	},
	{
		"ID": 854
	},
	{
		"ID": 855
	},
	{
		"ID": 856
	},
	{
		"ID": 857
	},
	{
		"ID": 858
	},
	{
		"ID": 859
	},
	{
		"ID": 860
	},
	{
		"ID": 861
	},
	{
		"ID": 862
	},
	{
		"ID": 863
	},
	{
		"ID": 864
	},
	{
		"ID": 865
	},
	{
		"ID": 866
	},
	{
		"ID": 867
	},
	{
		"ID": 868
	},
	{
		"ID": 869
	},
	{
		"ID": 870
	},
	{
		"ID": 871
	},
	{
		"ID": 872
	},
	{
		"ID": 873
	},
	{
		"ID": 874
	},
	{
		"ID": 875
	},
	{
		"ID": 876
	},
	{
		"ID": 877
	},
	{
		"ID": 878
	},
	{
		"ID": 879
	},
	{
		"ID": 880
	},
	{
		"ID": 881
	},
	{
		"ID": 882
	},
	{
		"ID": 883
	},
	{
		"ID": 884
	},
	{
		"ID": 885
	},
	{
		"ID": 886
	},
	{
		"ID": 887
	},
	{
		"ID": 888
	},
	{
		"ID": 889
	},
	{
		"ID": 890
	},
	{
		"ID": 891
	},
	{
		"ID": 892
	},
	{
		"ID": 893
	},
	{
		"ID": 894
	},
	{
		"ID": 895
	},
	{
		"ID": 896
	},
	{
		"ID": 897
	},
	{
		"ID": 898
	},
	{
		"ID": 899
	},
	{
		"ID": 900
	},
	{
		"ID": 901
	},
	{
		"ID": 902
	},
	{
		"ID": 903
	},
	{
		"ID": 904
	},
	{
		"ID": 905
	},
	{
		"ID": 906
	},
	{
		"ID": 907
	},
	{
		"ID": 908
	},
	{
		"ID": 909
	},
	{
		"ID": 910
	},
	{
		"ID": 911
	},
	{
		"ID": 912
	},
	{
		"ID": 913
	},
	{
		"ID": 914
	},
	{
		"ID": 915
	},
	{
		"ID": 916
	},
	{
		"ID": 917
	},
	{
		"ID": 918
	},
	{
		"ID": 919
	},
	{
		"ID": 920
	},
	{
		"ID": 921
	},
	{
		"ID": 922
	},
	{
		"ID": 923
	},
	{
		"ID": 924
	},
	{
		"ID": 925
	},
	{
		"ID": 926
	},
	{
		"ID": 927
	},
	{
		"ID": 928
	},
	{
		"ID": 929
	},
	{
		"ID": 930
	},
	{
		"ID": 931
	},
	{
		"ID": 932
	},
	{
		"ID": 933
	},
	{
		"ID": 934
	},
	{
		"ID": 935
	},
	{
		"ID": 936
	},
	{
		"ID": 937
	},
	{
		"ID": 938
	},
	{
		"ID": 939
	},
	{
		"ID": 940
	},
	{
		"ID": 941
	},
	{
		"ID": 942
	},
	{
		"ID": 943
	},
	{
		"ID": 944
	},
	{
		"ID": 945
	},
	{
		"ID": 946
	},
	{
		"ID": 947
	},
	{
		"ID": 948
	},
	{
		"ID": 949
	},
	{
		"ID": 950
	},
	{
		"ID": 951
	},
	{
		"ID": 952
	},
	{
		"ID": 953
	},
	{
		"ID": 954
	},
	{
		"ID": 955
	},
	{
		"ID": 956
	},
	{
		"ID": 957
	},
	{
		"ID": 958
	},
	{
		"ID": 959
	},
	{
		"ID": 960
	},
	{
		"ID": 961
	},
	{
		"ID": 962
	},
	{
		"ID": 963
	},
	{
		"ID": 964
	},
	{
		"ID": 965
	},
	{
		"ID": 966
	},
	{
		"ID": 967
	},
	{
		"ID": 968
	},
	{
		"ID": 969
	},
	{
		"ID": 970
	},
	{
		"ID": 971
	},
	{
		"ID": 972
	},
	{
		"ID": 973
	},
	{
		"ID": 974
	},
	{
		"ID": 975
	},
	{
		"ID": 976
	},
	{
		"ID": 977
	},
	{
		"ID": 978
	},
	{
		"ID": 979
	},
	{
		"ID": 980
	},
	{
		"ID": 981
	},
	{
		"ID": 982
	},
	{
		"ID": 983
	},
	{
		"ID": 984
	},
	{
		"ID": 985
	},
	{
		"ID": 986
	},
	{
		"ID": 987
	},
	{
		"ID": 988
	},
	{
		"ID": 989
	},
	{
		"ID": 990
	},
	{
		"ID": 991
	},
	{
		"ID": 992
	},
	{
		"ID": 993
	},
	{
		"ID": 994
	},
	{
		"ID": 995
	},
	{
		"ID": 996
	},
	{
		"ID": 997
	},
	{
		"ID": 998
	},
	{
		"ID": 999
	},
	{
		"ID": 1000
	},
	{
		"ID": 1001
	},
	{
		"ID": 1002
	},
	{
		"ID": 1003
	},
	{
		"ID": 1004
	},
	{
		"ID": 1005
	},
	{
		"ID": 1006
	},
	{
		"ID": 1007
	},
	{
		"ID": 1008
	},
	{
		"ID": 1009
	},
	{
		"ID": 1010
	},
	{
		"ID": 1011
	},
	{
		"ID": 1012
	},
	{
		"ID": 1013
	},
	{
		"ID": 1014
	},
	{
		"ID": 1015
	},
	{
		"ID": 1016
	},
	{
		"ID": 1017
	},
	{
		"ID": 1018
	},
	{
		"ID": 1019
	},
	{
		"ID": 1020
	},
	{
		"ID": 1021
	},
	{
		"ID": 1022
	},
	{
		"ID": 1023
	},
	{
		"ID": 1024
	},
	{
		"ID": 1025
	},
	{
		"ID": 1026
	},
	{
		"ID": 1027
	},
	{
		"ID": 1028
	},
	{
		"ID": 1029
	},
	{
		"ID": 1030
	},
	{
		"ID": 1031
	},
	{
		"ID": 1032
	},
	{
		"ID": 1033
	},
	{
		"ID": 1034
	},
	{
		"ID": 1035
	},
	{
		"ID": 1036
	},
	{
		"ID": 1037
	},
	{
		"ID": 1038
	},
	{
		"ID": 1039
	},
	{
		"ID": 1040
	},
	{
		"ID": 1041
	},
	{
		"ID": 1042
	},
	{
		"ID": 1043
	},
	{
		"ID": 1044
	},
	{
		"ID": 1045
	},
	{
		"ID": 1046
	},
	{
		"ID": 1047
	},
	{
		"ID": 1048
	},
	{
		"ID": 1049
	},
	{
		"ID": 1050
	},
	{
		"ID": 1051
	},
	{
		"ID": 1052
	},
	{
		"ID": 1053
	},
	{
		"ID": 1054
	},
	{
		"ID": 1055
	},
	{
		"ID": 1056
	},
	{
		"ID": 1057
	},
	{
		"ID": 1058
	},
	{
		"ID": 1059
	},
	{
		"ID": 1060
	},
	{
		"ID": 1061
	},
	{
		"ID": 1062
	},
	{
		"ID": 1063
	},
	{
		"ID": 1064
	},
	{
		"ID": 1065
	},
	{
		"ID": 1066
	},
	{
		"ID": 1067
	},
	{
		"ID": 1068
	},
	{
		"ID": 1069
	},
	{
		"ID": 1070
	},
	{
		"ID": 1071
	},
	{
		"ID": 1072
	},
	{
		"ID": 1073
	},
	{
		"ID": 1074
	},
	{
		"ID": 1075
	},
	{
		"ID": 1076
	},
	{
		"ID": 1077
	},
	{
		"ID": 1078
	},
	{
		"ID": 1079
	},
	{
		"ID": 1080
	},
	{
		"ID": 1081
	},
	{
		"ID": 1082
	},
	{
		"ID": 1083
	},
	{
		"ID": 1084
	},
	{
		"ID": 1085
	},
	{
		"ID": 1086
	},
	{
		"ID": 1087
	},
	{
		"ID": 1088
	},
	{
		"ID": 1089
	},
	{
		"ID": 1090
	},
	{
		"ID": 1091
	},
	{
		"ID": 1092
	},
	{
		"ID": 1093
	},
	{
		"ID": 1094
	},
	{
		"ID": 1095
	},
	{
		"ID": 1096
	},
	{
		"ID": 1097
	},
	{
		"ID": 1098
	},
	{
		"ID": 1099
	},
	{
		"ID": 1100
	},
	{
		"ID": 1101
	},
	{
		"ID": 1102
	},
	{
		"ID": 1103
	},
	{
		"ID": 1104
	},
	{
		"ID": 1105
	},
	{
		"ID": 1106
	},
	{
		"ID": 1107
	},
	{
		"ID": 1108
	},
	{
		"ID": 1109
	},
	{
		"ID": 1110
	},
	{
		"ID": 1111
	},
	{
		"ID": 1112
	},
	{
		"ID": 1113
	},
	{
		"ID": 1114
	},
	{
		"ID": 1115
	},
	{
		"ID": 1116
	},
	{
		"ID": 1117
	},
	{
		"ID": 1118
	},
	{
		"ID": 1119
	},
	{
		"ID": 1120
	},
	{
		"ID": 1121
	},
	{
		"ID": 1122
	},
	{
		"ID": 1123
	},
	{
		"ID": 1124
	},
	{
		"ID": 1125
	},
	{
		"ID": 1126
	},
	{
		"ID": 1127
	},
	{
		"ID": 1128
	},
	{
		"ID": 1129
	},
	{
		"ID": 1130
	},
	{
		"ID": 1131
	},
	{
		"ID": 1132
	},
	{
		"ID": 1133
	},
	{
		"ID": 1134
	},
	{
		"ID": 1135
	},
	{
		"ID": 1136
	},
	{
		"ID": 1137
	},
	{
		"ID": 1138
	},
	{
		"ID": 1139
	},
	{
		"ID": 1140
	},
	{
		"ID": 1141
	},
	{
		"ID": 1142
	},
	{
		"ID": 1143
	},
	{
		"ID": 1144
	},
	{
		"ID": 1145
	},
	{
		"ID": 1146
	},
	{
		"ID": 1147
	},
	{
		"ID": 1148
	},
	{
		"ID": 1149
	},
	{
		"ID": 1150
	},
	{
		"ID": 1151
	},
	{
		"ID": 1152
	},
	{
		"ID": 1153
	},
	{
		"ID": 1154
	},
	{
		"ID": 1155
	},
	{
		"ID": 1156
	},
	{
		"ID": 1157
	},
	{
		"ID": 1158
	},
	{
		"ID": 1159
	},
	{
		"ID": 1160
	},
	{
		"ID": 1161
	},
	{
		"ID": 1162
	},
	{
		"ID": 1163
	},
	{
		"ID": 1164
	},
	{
		"ID": 1165
	},
	{
		"ID": 1166
	},
	{
		"ID": 1167
	},
	{
		"ID": 1168
	},
	{
		"ID": 1169
	},
	{
		"ID": 1170
	},
	{
		"ID": 1171
	},
	{
		"ID": 1172
	},
	{
		"ID": 1173
	},
	{
		"ID": 1174
	},
	{
		"ID": 1175
	},
	{
		"ID": 1176
	},
	{
		"ID": 1177
	},
	{
		"ID": 1178
	},
	{
		"ID": 1179
	},
	{
		"ID": 1180
	},
	{
		"ID": 1181
	},
	{
		"ID": 1182
	},
	{
		"ID": 1183
	},
	{
		"ID": 1184
	},
	{
		"ID": 1185
	},
	{
		"ID": 1186
	},
	{
		"ID": 1187
	},
	{
		"ID": 1188
	},
	{
		"ID": 1189
	},
	{
		"ID": 1190
	},
	{
		"ID": 1191
	},
	{
		"ID": 1192
	},
	{
		"ID": 1193
	},
	{
		"ID": 1194
	},
	{
		"ID": 1195
	},
	{
		"ID": 1196
	},
	{
		"ID": 1197
	},
	{
		"ID": 1198
	},
	{
		"ID": 1199
	},
	{
		"ID": 1200
	},
	{
		"ID": 1201
	},
	{
		"ID": 1202
	},
	{
		"ID": 1203
	},
	{
		"ID": 1204
	},
	{
		"ID": 1205
	},
	{
		"ID": 1206
	},
	{
		"ID": 1207
	},
	{
		"ID": 1208
	},
	{
		"ID": 1209
	},
	{
		"ID": 1210
	},
	{
		"ID": 1211
	},
	{
		"ID": 1212
	},
	{
		"ID": 1213
	},
	{
		"ID": 1214
	},
	{
		"ID": 1215
	},
	{
		"ID": 1216
	},
	{
		"ID": 1217
	},
	{
		"ID": 1218
	},
	{
		"ID": 1219
	},
	{
		"ID": 1220
	},
	{
		"ID": 1221
	},
	{
		"ID": 1222
	},
	{
		"ID": 1223
	},
	{
		"ID": 1224
	},
	{
		"ID": 1225
	},
	{
		"ID": 1226
	},
	{
		"ID": 1227
	},
	{
		"ID": 1228
	},
	{
		"ID": 1229
	},
	{
		"ID": 1230
	},
	{
		"ID": 1231
	},
	{
		"ID": 1232
	},
	{
		"ID": 1233
	},
	{
		"ID": 1234
	},
	{
		"ID": 1235
	},
	{
		"ID": 1236
	},
	{
		"ID": 1237
	},
	{
		"ID": 1238
	},
	{
		"ID": 1239
	},
	{
		"ID": 1240
	},
	{
		"ID": 1241
	},
	{
		"ID": 1242
	},
	{
		"ID": 1243
	},
	{
		"ID": 1244
	},
	{
		"ID": 1245
	},
	{
		"ID": 1246
	},
	{
		"ID": 1247
	},
	{
		"ID": 1248
	},
	{
		"ID": 1249
	},
	{
		"ID": 1250
	},
	{
		"ID": 1251
	},
	{
		"ID": 1252
	},
	{
		"ID": 1253
	},
	{
		"ID": 1254
	},
	{
		"ID": 1255
	},
	{
		"ID": 1256
	},
	{
		"ID": 1257
	},
	{
		"ID": 1258
	},
	{
		"ID": 1259
	},
	{
		"ID": 1260
	},
	{
		"ID": 1261
	},
	{
		"ID": 1262
	},
	{
		"ID": 1263
	},
	{
		"ID": 1264
	},
	{
		"ID": 1265
	},
	{
		"ID": 1266
	},
	{
		"ID": 1267
	},
	{
		"ID": 1268
	},
	{
		"ID": 1269
	},
	{
		"ID": 1270
	},
	{
		"ID": 1271
	},
	{
		"ID": 1272
	},
	{
		"ID": 1273
	},
	{
		"ID": 1274
	},
	{
		"ID": 1275
	},
	{
		"ID": 1276
	},
	{
		"ID": 1277
	},
	{
		"ID": 1278
	},
	{
		"ID": 1279
	},
	{
		"ID": 1280
	},
	{
		"ID": 1281
	},
	{
		"ID": 1282
	},
	{
		"ID": 1283
	},
	{
		"ID": 1284
	},
	{
		"ID": 1285
	},
	{
		"ID": 1286
	},
	{
		"ID": 1287
	},
	{
		"ID": 1288
	},
	{
		"ID": 1289
	},
	{
		"ID": 1290
	},
	{
		"ID": 1291
	},
	{
		"ID": 1292
	},
	{
		"ID": 1293
	},
	{
		"ID": 1294
	},
	{
		"ID": 1295
	},
	{
		"ID": 1296
	},
	{
		"ID": 1297
	},
	{
		"ID": 1298
	},
	{
		"ID": 1299
	},
	{
		"ID": 1300
	},
	{
		"ID": 1301
	},
	{
		"ID": 1302
	},
	{
		"ID": 1303
	},
	{
		"ID": 1304
	},
	{
		"ID": 1305
	},
	{
		"ID": 1306
	},
	{
		"ID": 1307
	},
	{
		"ID": 1308
	},
	{
		"ID": 1309
	},
	{
		"ID": 1310
	},
	{
		"ID": 1311
	},
	{
		"ID": 1312
	},
	{
		"ID": 1313
	},
	{
		"ID": 1314
	},
	{
		"ID": 1315
	},
	{
		"ID": 1316
	},
	{
		"ID": 1317
	},
	{
		"ID": 1318
	},
	{
		"ID": 1319
	},
	{
		"ID": 1320
	},
	{
		"ID": 1321
	},
	{
		"ID": 1322
	},
	{
		"ID": 1323
	},
	{
		"ID": 1324
	},
	{
		"ID": 1325
	},
	{
		"ID": 1326
	},
	{
		"ID": 1327
	},
	{
		"ID": 1328
	},
	{
		"ID": 1329
	},
	{
		"ID": 1330
	},
	{
		"ID": 1331
	},
	{
		"ID": 1332
	},
	{
		"ID": 1333
	},
	{
		"ID": 1334
	},
	{
		"ID": 1335
	},
	{
		"ID": 1336
	},
	{
		"ID": 1337
	},
	{
		"ID": 1338
	},
	{
		"ID": 1339
	},
	{
		"ID": 1340
	},
	{
		"ID": 1341
	},
	{
		"ID": 1342
	},
	{
		"ID": 1343
	},
	{
		"ID": 1344
	},
	{
		"ID": 1345
	},
	{
		"ID": 1346
	},
	{
		"ID": 1347
	},
	{
		"ID": 1348
	},
	{
		"ID": 1349
	},
	{
		"ID": 1350
	},
	{
		"ID": 1351
	},
	{
		"ID": 1352
	},
	{
		"ID": 1353
	},
	{
		"ID": 1354
	},
	{
		"ID": 1355
	},
	{
		"ID": 1356
	},
	{
		"ID": 1357
	},
	{
		"ID": 1358
	},
	{
		"ID": 1359
	},
	{
		"ID": 1360
	},
	{
		"ID": 1361
	},
	{
		"ID": 1362
	},
	{
		"ID": 1363
	},
	{
		"ID": 1364
	},
	{
		"ID": 1365
	},
	{
		"ID": 1366
	},
	{
		"ID": 1367
	},
	{
		"ID": 1368
	},
	{
		"ID": 1369
	},
	{
		"ID": 1370
	},
	{
		"ID": 1371
	},
	{
		"ID": 1372
	},
	{
		"ID": 1373
	},
	{
		"ID": 1374
	},
	{
		"ID": 1375
	},
	{
		"ID": 1376
	},
	{
		"ID": 1377
	},
	{
		"ID": 1378
	},
	{
		"ID": 1379
	},
	{
		"ID": 1380
	},
	{
		"ID": 1381
	},
	{
		"ID": 1382
	},
	{
		"ID": 1383
	},
	{
		"ID": 1384
	},
	{
		"ID": 1385
	},
	{
		"ID": 1386
	},
	{
		"ID": 1387
	},
	{
		"ID": 1388
	},
	{
		"ID": 1389
	},
	{
		"ID": 1390
	},
	{
		"ID": 1391
	},
	{
		"ID": 1392
	},
	{
		"ID": 1393
	},
	{
		"ID": 1394
	},
	{
		"ID": 1395
	},
	{
		"ID": 1396
	},
	{
		"ID": 1397
	},
	{
		"ID": 1398
	},
	{
		"ID": 1399
	},
	{
		"ID": 1400
	},
	{
		"ID": 1401
	},
	{
		"ID": 1402
	},
	{
		"ID": 1403
	},
	{
		"ID": 1404
	},
	{
		"ID": 1405
	},
	{
		"ID": 1406
	},
	{
		"ID": 1407
	},
	{
		"ID": 1408
	},
	{
		"ID": 1409
	},
	{
		"ID": 1410
	},
	{
		"ID": 1411
	},
	{
		"ID": 1412
	},
	{
		"ID": 1413
	},
	{
		"ID": 1414
	},
	{
		"ID": 1415
	},
	{
		"ID": 1416
	},
	{
		"ID": 1417
	},
	{
		"ID": 1418
	},
	{
		"ID": 1419
	},
	{
		"ID": 1420
	},
	{
		"ID": 1421
	},
	{
		"ID": 1422
	},
	{
		"ID": 1423
	},
	{
		"ID": 1424
	},
	{
		"ID": 1425
	},
	{
		"ID": 1426
	},
	{
		"ID": 1427
	},
	{
		"ID": 1428
	},
	{
		"ID": 1429
	},
	{
		"ID": 1430
	},
	{
		"ID": 1431
	},
	{
		"ID": 1432
	},
	{
		"ID": 1433
	},
	{
		"ID": 1434
	},
	{
		"ID": 1435
	},
	{
		"ID": 1436
	},
	{
		"ID": 1437
	},
	{
		"ID": 1438
	},
	{
		"ID": 1439
	},
	{
		"ID": 1440
	},
	{
		"ID": 1441
	},
	{
		"ID": 1442
	},
	{
		"ID": 1443
	},
	{
		"ID": 1444
	},
	{
		"ID": 1445
	},
	{
		"ID": 1446
	},
	{
		"ID": 1447
	},
	{
		"ID": 1448
	},
	{
		"ID": 1449
	},
	{
		"ID": 1450
	},
	{
		"ID": 1451
	},
	{
		"ID": 1452
	},
	{
		"ID": 1453
	},
	{
		"ID": 1454
	},
	{
		"ID": 1455
	},
	{
		"ID": 1456
	},
	{
		"ID": 1457
	},
	{
		"ID": 1458
	},
	{
		"ID": 1459
	},
	{
		"ID": 1460
	},
	{
		"ID": 1461
	},
	{
		"ID": 1462
	},
	{
		"ID": 1463
	},
	{
		"ID": 1464
	},
	{
		"ID": 1465
	},
	{
		"ID": 1466
	},
	{
		"ID": 1467
	},
	{
		"ID": 1468
	},
	{
		"ID": 1469
	},
	{
		"ID": 1470
	},
	{
		"ID": 1471
	},
	{
		"ID": 1472
	},
	{
		"ID": 1473
	},
	{
		"ID": 1474
	},
	{
		"ID": 1475
	},
	{
		"ID": 1476
	},
	{
		"ID": 1477
	},
	{
		"ID": 1478
	},
	{
		"ID": 1479
	},
	{
		"ID": 1480
	},
	{
		"ID": 1481
	},
	{
		"ID": 1482
	},
	{
		"ID": 1483
	},
	{
		"ID": 1484
	},
	{
		"ID": 1485
	},
	{
		"ID": 1486
	},
	{
		"ID": 1487
	},
	{
		"ID": 1488
	},
	{
		"ID": 1489
	},
	{
		"ID": 1490
	},
	{
		"ID": 1491
	},
	{
		"ID": 1492
	},
	{
		"ID": 1493
	},
	{
		"ID": 1494
	},
	{
		"ID": 1495
	},
	{
		"ID": 1496
	},
	{
		"ID": 1497
	},
	{
		"ID": 1498
	},
	{
		"ID": 1499
	},
	{
		"ID": 1500
	},
	{
		"ID": 1501
	},
	{
		"ID": 1502
	},
	{
		"ID": 1503
	},
	{
		"ID": 1504
	},
	{
		"ID": 1505
	},
	{
		"ID": 1506
	},
	{
		"ID": 1507
	},
	{
		"ID": 1508
	},
	{
		"ID": 1509
	},
	{
		"ID": 1510
	},
	{
		"ID": 1511
	},
	{
		"ID": 1512
	},
	{
		"ID": 1513
	},
	{
		"ID": 1514
	},
	{
		"ID": 1515
	},
	{
		"ID": 1516
	},
	{
		"ID": 1517
	},
	{
		"ID": 1518
	},
	{
		"ID": 1519
	},
	{
		"ID": 1520
	},
	{
		"ID": 1521
	},
	{
		"ID": 1522
	},
	{
		"ID": 1523
	},
	{
		"ID": 1524
	},
	{
		"ID": 1525
	},
	{
		"ID": 1526
	},
	{
		"ID": 1527
	},
	{
		"ID": 1528
	},
	{
		"ID": 1529
	},
	{
		"ID": 1530
	},
	{
		"ID": 1531
	},
	{
		"ID": 1532
	},
	{
		"ID": 1533
	},
	{
		"ID": 1534
	},
	{
		"ID": 1535
	},
	{
		"ID": 1536
	},
	{
		"ID": 1537
	},
	{
		"ID": 1538
	},
	{
		"ID": 1539
	},
	{
		"ID": 1540
	},
	{
		"ID": 1541
	},
	{
		"ID": 1542
	},
	{
		"ID": 1543
	},
	{
		"ID": 1544
	},
	{
		"ID": 1545
	},
	{
		"ID": 1546
	},
	{
		"ID": 1547
	},
	{
		"ID": 1548
	},
	{
		"ID": 1549
	},
	{
		"ID": 1550
	},
	{
		"ID": 1551
	},
	{
		"ID": 1552
	},
	{
		"ID": 1553
	},
	{
		"ID": 1554
	},
	{
		"ID": 1555
	},
	{
		"ID": 1556
	},
	{
		"ID": 1557
	},
	{
		"ID": 1558
	},
	{
		"ID": 1559
	},
	{
		"ID": 1560
	},
	{
		"ID": 1561
	},
	{
		"ID": 1562
	},
	{
		"ID": 1563
	},
	{
		"ID": 1564
	},
	{
		"ID": 1565
	},
	{
		"ID": 1566
	},
	{
		"ID": 1567
	},
	{
		"ID": 1568
	},
	{
		"ID": 1569
	},
	{
		"ID": 1570
	},
	{
		"ID": 1571
	},
	{
		"ID": 1572
	},
	{
		"ID": 1573
	},
	{
		"ID": 1574
	},
	{
		"ID": 1575
	},
	{
		"ID": 1576
	},
	{
		"ID": 1577
	},
	{
		"ID": 1578
	},
	{
		"ID": 1579
	},
	{
		"ID": 1580
	},
	{
		"ID": 1581
	},
	{
		"ID": 1582
	},
	{
		"ID": 1583
	},
	{
		"ID": 1584
	},
	{
		"ID": 1585
	},
	{
		"ID": 1586
	},
	{
		"ID": 1587
	},
	{
		"ID": 1588
	},
	{
		"ID": 1589
	},
	{
		"ID": 1590
	},
	{
		"ID": 1591
	},
	{
		"ID": 1592
	},
	{
		"ID": 1593
	},
	{
		"ID": 1594
	},
	{
		"ID": 1595
	},
	{
		"ID": 1596
	},
	{
		"ID": 1597
	},
	{
		"ID": 1598
	},
	{
		"ID": 1599
	},
	{
		"ID": 1600
	},
	{
		"ID": 1601
	},
	{
		"ID": 1602
	},
	{
		"ID": 1603
	},
	{
		"ID": 1604
	},
	{
		"ID": 1605
	},
	{
		"ID": 1606
	},
	{
		"ID": 1607
	},
	{
		"ID": 1608
	},
	{
		"ID": 1609
	},
	{
		"ID": 1610
	},
	{
		"ID": 1611
	},
	{
		"ID": 1612
	},
	{
		"ID": 1613
	},
	{
		"ID": 1614
	},
	{
		"ID": 1615
	},
	{
		"ID": 1616
	},
	{
		"ID": 1617
	},
	{
		"ID": 1618
	},
	{
		"ID": 1619
	},
	{
		"ID": 1620
	},
	{
		"ID": 1621
	},
	{
		"ID": 1622
	},
	{
		"ID": 1623
	},
	{
		"ID": 1624
	},
	{
		"ID": 1625
	},
	{
		"ID": 1626
	},
	{
		"ID": 1627
	},
	{
		"ID": 1628
	},
	{
		"ID": 1629
	},
	{
		"ID": 1630
	},
	{
		"ID": 1631
	},
	{
		"ID": 1632
	},
	{
		"ID": 1633
	},
	{
		"ID": 1634
	},
	{
		"ID": 1635
	},
	{
		"ID": 1636
	},
	{
		"ID": 1637
	},
	{
		"ID": 1638
	},
	{
		"ID": 1639
	},
	{
		"ID": 1640
	},
	{
		"ID": 1641
	},
	{
		"ID": 1642
	},
	{
		"ID": 1643
	},
	{
		"ID": 1644
	},
	{
		"ID": 1645
	},
	{
		"ID": 1646
	},
	{
		"ID": 1647
	},
	{
		"ID": 1648
	},
	{
		"ID": 1649
	},
	{
		"ID": 1650
	},
	{
		"ID": 1651
	},
	{
		"ID": 1652
	},
	{
		"ID": 1653
	},
	{
		"ID": 1654
	},
	{
		"ID": 1655
	},
	{
		"ID": 1656
	},
	{
		"ID": 1657
	},
	{
		"ID": 1658
	},
	{
		"ID": 1659
	},
	{
		"ID": 1660
	},
	{
		"ID": 1661
	},
	{
		"ID": 1662
	},
	{
		"ID": 1663
	},
	{
		"ID": 1664
	},
	{
		"ID": 1665
	},
	{
		"ID": 1666
	},
	{
		"ID": 1667
	},
	{
		"ID": 1668
	},
	{
		"ID": 1669
	},
	{
		"ID": 1670
	},
	{
		"ID": 1671
	},
	{
		"ID": 1672
	},
	{
		"ID": 1673
	},
	{
		"ID": 1674
	},
	{
		"ID": 1675
	},
	{
		"ID": 1676
	},
	{
		"ID": 1677
	},
	{
		"ID": 1678
	},
	{
		"ID": 1679
	},
	{
		"ID": 1680
	},
	{
		"ID": 1681
	},
	{
		"ID": 1682
	},
	{
		"ID": 1683
	},
	{
		"ID": 1684
	},
	{
		"ID": 1685
	},
	{
		"ID": 1686
	},
	{
		"ID": 1687
	},
	{
		"ID": 1688
	},
	{
		"ID": 1689
	},
	{
		"ID": 1690
	},
	{
		"ID": 1691
	},
	{
		"ID": 1692
	},
	{
		"ID": 1693
	},
	{
		"ID": 1694
	},
	{
		"ID": 1695
	},
	{
		"ID": 1696
	},
	{
		"ID": 1697
	},
	{
		"ID": 1698
	},
	{
		"ID": 1699
	},
	{
		"ID": 1700
	},
	{
		"ID": 1701
	},
	{
		"ID": 1702
	},
	{
		"ID": 1703
	},
	{
		"ID": 1704
	},
	{
		"ID": 1705
	},
	{
		"ID": 1706
	},
	{
		"ID": 1707
	},
	{
		"ID": 1708
	},
	{
		"ID": 1709
	},
	{
		"ID": 1710
	},
	{
		"ID": 1711
	},
	{
		"ID": 1712
	},
	{
		"ID": 1713
	},
	{
		"ID": 1714
	},
	{
		"ID": 1715
	},
	{
		"ID": 1716
	},
	{
		"ID": 1717
	},
	{
		"ID": 1718
	},
	{
		"ID": 1719
	},
	{
		"ID": 1720
	},
	{
		"ID": 1721
	},
	{
		"ID": 1722
	},
	{
		"ID": 1723
	},
	{
		"ID": 1724
	},
	{
		"ID": 1725
	},
	{
		"ID": 1726
	},
	{
		"ID": 1727
	},
	{
		"ID": 1728
	},
	{
		"ID": 1729
	},
	{
		"ID": 1730
	},
	{
		"ID": 1731
	},
	{
		"ID": 1732
	},
	{
		"ID": 1733
	},
	{
		"ID": 1734
	},
	{
		"ID": 1735
	},
	{
		"ID": 1736
	},
	{
		"ID": 1737
	},
	{
		"ID": 1738
	},
	{
		"ID": 1739
	},
	{
		"ID": 1740
	},
	{
		"ID": 1741
	},
	{
		"ID": 1742
	},
	{
		"ID": 1743
	},
	{
		"ID": 1744
	},
	{
		"ID": 1745
	},
	{
		"ID": 1746
	},
	{
		"ID": 1747
	},
	{
		"ID": 1748
	},
	{
		"ID": 1749
	},
	{
		"ID": 1750
	},
	{
		"ID": 1751
	},
	{
		"ID": 1752
	},
	{
		"ID": 1753
	},
	{
		"ID": 1754
	},
	{
		"ID": 1755
	},
	{
		"ID": 1756
	},
	{
		"ID": 1757
	},
	{
		"ID": 1758
	},
	{
		"ID": 1759
	},
	{
		"ID": 1760
	},
	{
		"ID": 1761
	},
	{
		"ID": 1762
	},
	{
		"ID": 1763
	},
	{
		"ID": 1764
	},
	{
		"ID": 1765
	},
	{
		"ID": 1766
	},
	{
		"ID": 1767
	},
	{
		"ID": 1768
	},
	{
		"ID": 1769
	},
	{
		"ID": 1770
	},
	{
		"ID": 1771
	},
	{
		"ID": 1772
	},
	{
		"ID": 1773
	},
	{
		"ID": 1774
	},
	{
		"ID": 1775
	},
	{
		"ID": 1776
	},
	{
		"ID": 1777
	},
	{
		"ID": 1778
	},
	{
		"ID": 1779
	},
	{
		"ID": 1780
	},
	{
		"ID": 1781
	},
	{
		"ID": 1782
	},
	{
		"ID": 1783
	},
	{
		"ID": 1784
	},
	{
		"ID": 1785
	},
	{
		"ID": 1786
	},
	{
		"ID": 1787
	},
	{
		"ID": 1788
	},
	{
		"ID": 1789
	},
	{
		"ID": 1790
	},
	{
		"ID": 1791
	},
	{
		"ID": 1792
	},
	{
		"ID": 1793
	},
	{
		"ID": 1794
	},
	{
		"ID": 1795
	},
	{
		"ID": 1796
	},
	{
		"ID": 1797
	},
	{
		"ID": 1798
	},
	{
		"ID": 1799
	},
	{
		"ID": 1800
	},
	{
		"ID": 1801
	},
	{
		"ID": 1802
	},
	{
		"ID": 1803
	},
	{
		"ID": 1804
	},
	{
		"ID": 1805
	},
	{
		"ID": 1806
	},
	{
		"ID": 1807
	},
	{
		"ID": 1808
	},
	{
		"ID": 1809
	},
	{
		"ID": 1810
	},
	{
		"ID": 1811
	},
	{
		"ID": 1812
	},
	{
		"ID": 1813
	},
	{
		"ID": 1814
	},
	{
		"ID": 1815
	},
	{
		"ID": 1816
	},
	{
		"ID": 1817
	},
	{
		"ID": 1818
	},
	{
		"ID": 1819
	},
	{
		"ID": 1820
	},
	{
		"ID": 1821
	},
	{
		"ID": 1822
	},
	{
		"ID": 1823
	},
	{
		"ID": 1824
	},
	{
		"ID": 1825
	},
	{
		"ID": 1826
	},
	{
		"ID": 1827
	},
	{
		"ID": 1828
	},
	{
		"ID": 1829
	},
	{
		"ID": 1830
	},
	{
		"ID": 1831
	},
	{
		"ID": 1832
	},
	{
		"ID": 1833
	},
	{
		"ID": 1834
	},
	{
		"ID": 1835
	},
	{
		"ID": 1836
	},
	{
		"ID": 1837
	},
	{
		"ID": 1838
	},
	{
		"ID": 1839
	},
	{
		"ID": 1840
	},
	{
		"ID": 1841
	},
	{
		"ID": 1842
	},
	{
		"ID": 1843
	},
	{
		"ID": 1844
	},
	{
		"ID": 1845
	},
	{
		"ID": 1846
	},
	{
		"ID": 1847
	},
	{
		"ID": 1848
	},
	{
		"ID": 1849
	},
	{
		"ID": 1850
	},
	{
		"ID": 1851
	},
	{
		"ID": 1852
	},
	{
		"ID": 1853
	},
	{
		"ID": 1854
	},
	{
		"ID": 1855
	},
	{
		"ID": 1856
	},
	{
		"ID": 1857
	},
	{
		"ID": 1858
	},
	{
		"ID": 1859
	},
	{
		"ID": 1860
	},
	{
		"ID": 1861
	},
	{
		"ID": 1862
	},
	{
		"ID": 1863
	},
	{
		"ID": 1864
	},
	{
		"ID": 1865
	},
	{
		"ID": 1866
	},
	{
		"ID": 1867
	},
	{
		"ID": 1868
	},
	{
		"ID": 1869
	},
	{
		"ID": 1870
	},
	{
		"ID": 1871
	},
	{
		"ID": 1872
	},
	{
		"ID": 1873
	},
	{
		"ID": 1874
	},
	{
		"ID": 1875
	},
	{
		"ID": 1876
	},
	{
		"ID": 1877
	},
	{
		"ID": 1878
	},
	{
		"ID": 1879
	},
	{
		"ID": 1880
	},
	{
		"ID": 1881
	},
	{
		"ID": 1882
	},
	{
		"ID": 1883
	},
	{
		"ID": 1884
	},
	{
		"ID": 1885
	},
	{
		"ID": 1886
	},
	{
		"ID": 1887
	},
	{
		"ID": 1888
	},
	{
		"ID": 1889
	},
	{
		"ID": 1890
	},
	{
		"ID": 1891
	},
	{
		"ID": 1892
	},
	{
		"ID": 1893
	},
	{
		"ID": 1894
	},
	{
		"ID": 1895
	},
	{
		"ID": 1896
	},
	{
		"ID": 1897
	},
	{
		"ID": 1898
	},
	{
		"ID": 1899
	},
	{
		"ID": 1900
	},
	{
		"ID": 1901
	},
	{
		"ID": 1902
	},
	{
		"ID": 1903
	},
	{
		"ID": 1904
	},
	{
		"ID": 1905
	},
	{
		"ID": 1906
	},
	{
		"ID": 1907
	},
	{
		"ID": 1908
	},
	{
		"ID": 1909
	},
	{
		"ID": 1910
	},
	{
		"ID": 1911
	},
	{
		"ID": 1912
	},
	{
		"ID": 1913
	},
	{
		"ID": 1914
	},
	{
		"ID": 1915
	},
	{
		"ID": 1916
	},
	{
		"ID": 1917
	},
	{
		"ID": 1918
	},
	{
		"ID": 1919
	},
	{
		"ID": 1920
	},
	{
		"ID": 1921
	},
	{
		"ID": 1922
	},
	{
		"ID": 1923
	},
	{
		"ID": 1924
	},
	{
		"ID": 1925
	},
	{
		"ID": 1926
	},
	{
		"ID": 1927
	},
	{
		"ID": 1928
	},
	{
		"ID": 1929
	},
	{
		"ID": 1930
	},
	{
		"ID": 1931
	},
	{
		"ID": 1932
	},
	{
		"ID": 1933
	},
	{
		"ID": 1934
	},
	{
		"ID": 1935
	},
	{
		"ID": 1936
	},
	{
		"ID": 1937
	},
	{
		"ID": 1938
	},
	{
		"ID": 1939
	},
	{
		"ID": 1940
	},
	{
		"ID": 1941
	},
	{
		"ID": 1942
	},
	{
		"ID": 1943
	},
	{
		"ID": 1944
	},
	{
		"ID": 1945
	},
	{
		"ID": 1946
	},
	{
		"ID": 1947
	},
	{
		"ID": 1948
	},
	{
		"ID": 1949
	},
	{
		"ID": 1950
	},
	{
		"ID": 1951
	},
	{
		"ID": 1952
	},
	{
		"ID": 1953
	},
	{
		"ID": 1954
	},
	{
		"ID": 1955
	},
	{
		"ID": 1956
	},
	{
		"ID": 1957
	},
	{
		"ID": 1958
	},
	{
		"ID": 1959
	},
	{
		"ID": 1960
	},
	{
		"ID": 1961
	},
	{
		"ID": 1962
	},
	{
		"ID": 1963
	},
	{
		"ID": 1964
	},
	{
		"ID": 1965
	},
	{
		"ID": 1966
	},
	{
		"ID": 1967
	},
	{
		"ID": 1968
	},
	{
		"ID": 1969
	},
	{
		"ID": 1970
	},
	{
		"ID": 1971
	},
	{
		"ID": 1972
	},
	{
		"ID": 1973
	},
	{
		"ID": 1974
	},
	{
		"ID": 1975
	},
	{
		"ID": 1976
	},
	{
		"ID": 1977
	},
	{
		"ID": 1978
	},
	{
		"ID": 1979
	},
	{
		"ID": 1980
	},
	{
		"ID": 1981
	},
	{
		"ID": 1982
	},
	{
		"ID": 1983
	},
	{
		"ID": 1984
	},
	{
		"ID": 1985
	},
	{
		"ID": 1986
	},
	{
		"ID": 1987
	},
	{
		"ID": 1988
	},
	{
		"ID": 1989
	},
	{
		"ID": 1990
	},
	{
		"ID": 1991
	},
	{
		"ID": 1992
	},
	{
		"ID": 1993
	},
	{
		"ID": 1994
	},
	{
		"ID": 1995
	},
	{
		"ID": 1996
	},
	{
		"ID": 1997
	},
	{
		"ID": 1998
	},
	{
		"ID": 1999
	},
	{
		"ID": 2000
	},
	{
		"ID": 2001
	},
	{
		"ID": 2002
	},
	{
		"ID": 2003
	},
	{
		"ID": 2004
	},
	{
		"ID": 2005
	},
	{
		"ID": 2006
	},
	{
		"ID": 2007
	},
	{
		"ID": 2008
	},
	{
		"ID": 2009
	},
	{
		"ID": 2010
	},
	{
		"ID": 2011
	},
	{
		"ID": 2012
	},
	{
		"ID": 2013
	},
	{
		"ID": 2014
	},
	{
		"ID": 2015
	},
	{
		"ID": 2016
	},
	{
		"ID": 2017
	},
	{
		"ID": 2018
	},
	{
		"ID": 2019
	},
	{
		"ID": 2020
	},
	{
		"ID": 2021
	},
	{
		"ID": 2022
	},
	{
		"ID": 2023
	},
	{
		"ID": 2024
	},
	{
		"ID": 2025
	},
	{
		"ID": 2026
	},
	{
		"ID": 2027
	},
	{
		"ID": 2028
	},
	{
		"ID": 2029
	},
	{
		"ID": 2030
	},
	{
		"ID": 2031
	},
	{
		"ID": 2032
	},
	{
		"ID": 2033
	},
	{
		"ID": 2034
	},
	{
		"ID": 2035
	},
	{
		"ID": 2036
	},
	{
		"ID": 2037
	},
	{
		"ID": 2038
	},
	{
		"ID": 2039
	},
	{
		"ID": 2040
	},
	{
		"ID": 2041
	},
	{
		"ID": 2042
	},
	{
		"ID": 2043
	},
	{
		"ID": 2044
	},
	{
		"ID": 2045
	},
	{
		"ID": 2046
	},
	{
		"ID": 2047
	},
	{
		"ID": 2048
	},
	{
		"ID": 2049
	},
	{
		"ID": 2050
	},
	{
		"ID": 2051
	},
	{
		"ID": 2052
	},
	{
		"ID": 2053
	},
	{
		"ID": 2054
	},
	{
		"ID": 2055
	},
	{
		"ID": 2056
	},
	{
		"ID": 2057
	},
	{
		"ID": 2058
	},
	{
		"ID": 2059
	},
	{
		"ID": 2060
	},
	{
		"ID": 2061
	},
	{
		"ID": 2062
	},
	{
		"ID": 2063
	},
	{
		"ID": 2064
	},
	{
		"ID": 2065
	},
	{
		"ID": 2066
	},
	{
		"ID": 2067
	},
	{
		"ID": 2068
	},
	{
		"ID": 2069
	},
	{
		"ID": 2070
	},
	{
		"ID": 2071
	},
	{
		"ID": 2072
	},
	{
		"ID": 2073
	},
	{
		"ID": 2074
	},
	{
		"ID": 2075
	},
	{
		"ID": 2076
	},
	{
		"ID": 2077
	},
	{
		"ID": 2078
	},
	{
		"ID": 2079
	},
	{
		"ID": 2080
	},
	{
		"ID": 2081
	},
	{
		"ID": 2082
	},
	{
		"ID": 2083
	},
	{
		"ID": 2084
	},
	{
		"ID": 2085
	},
	{
		"ID": 2086
	},
	{
		"ID": 2087
	},
	{
		"ID": 2088
	},
	{
		"ID": 2089
	},
	{
		"ID": 2090
	},
	{
		"ID": 2091
	},
	{
		"ID": 2092
	},
	{
		"ID": 2093
	},
	{
		"ID": 2094
	},
	{
		"ID": 2095
	},
	{
		"ID": 2096
	},
	{
		"ID": 2097
	},
	{
		"ID": 2098
	},
	{
		"ID": 2099
	},
	{
		"ID": 2100
	},
	{
		"ID": 2101
	},
	{
		"ID": 2102
	},
	{
		"ID": 2103
	},
	{
		"ID": 2104
	},
	{
		"ID": 2105
	},
	{
		"ID": 2106
	},
	{
		"ID": 2107
	},
	{
		"ID": 2108
	},
	{
		"ID": 2109
	},
	{
		"ID": 2110
	},
	{
		"ID": 2111
	},
	{
		"ID": 2112
	},
	{
		"ID": 2113
	},
	{
		"ID": 2114
	},
	{
		"ID": 2115
	},
	{
		"ID": 2116
	},
	{
		"ID": 2117
	},
	{
		"ID": 2118
	},
	{
		"ID": 2119
	},
	{
		"ID": 2120
	},
	{
		"ID": 2121
	},
	{
		"ID": 2122
	},
	{
		"ID": 2123
	},
	{
		"ID": 2124
	},
	{
		"ID": 2125
	},
	{
		"ID": 2126
	},
	{
		"ID": 2127
	},
	{
		"ID": 2128
	},
	{
		"ID": 2129
	},
	{
		"ID": 2130
	},
	{
		"ID": 2131
	},
	{
		"ID": 2132
	},
	{
		"ID": 2133
	},
	{
		"ID": 2134
	},
	{
		"ID": 2135
	},
	{
		"ID": 2136
	},
	{
		"ID": 2137
	},
	{
		"ID": 2138
	},
	{
		"ID": 2139
	},
	{
		"ID": 2140
	},
	{
		"ID": 2141
	},
	{
		"ID": 2142
	},
	{
		"ID": 2143
	},
	{
		"ID": 2144
	},
	{
		"ID": 2145
	},
	{
		"ID": 2146
	},
	{
		"ID": 2147
	},
	{
		"ID": 2148
	},
	{
		"ID": 2149
	},
	{
		"ID": 2150
	},
	{
		"ID": 2151
	},
	{
		"ID": 2152
	},
	{
		"ID": 2153
	},
	{
		"ID": 2154
	},
	{
		"ID": 2155
	},
	{
		"ID": 2156
	},
	{
		"ID": 2157
	},
	{
		"ID": 2158
	},
	{
		"ID": 2159
	},
	{
		"ID": 2160
	},
	{
		"ID": 2161
	},
	{
		"ID": 2162
	},
	{
		"ID": 2163
	},
	{
		"ID": 2164
	},
	{
		"ID": 2165
	},
	{
		"ID": 2166
	},
	{
		"ID": 2167
	},
	{
		"ID": 2168
	},
	{
		"ID": 2169
	},
	{
		"ID": 2170
	},
	{
		"ID": 2171
	},
	{
		"ID": 2172
	},
	{
		"ID": 2173
	},
	{
		"ID": 2174
	},
	{
		"ID": 2175
	},
	{
		"ID": 2176
	},
	{
		"ID": 2177
	},
	{
		"ID": 2178
	},
	{
		"ID": 2179
	},
	{
		"ID": 2180
	},
	{
		"ID": 2181
	},
	{
		"ID": 2182
	},
	{
		"ID": 2183
	},
	{
		"ID": 2184
	},
	{
		"ID": 2185
	},
	{
		"ID": 2186
	},
	{
		"ID": 2187
	},
	{
		"ID": 2188
	},
	{
		"ID": 2189
	},
	{
		"ID": 2190
	},
	{
		"ID": 2191
	},
	{
		"ID": 2192
	},
	{
		"ID": 2193
	},
	{
		"ID": 2194
	},
	{
		"ID": 2195
	},
	{
		"ID": 2196
	},
	{
		"ID": 2197
	},
	{
		"ID": 2198
	},
	{
		"ID": 2199
	},
	{
		"ID": 2200
	},
	{
		"ID": 2201
	},
	{
		"ID": 2202
	},
	{
		"ID": 2203
	},
	{
		"ID": 2204
	},
	{
		"ID": 2205
	},
	{
		"ID": 2206
	},
	{
		"ID": 2207
	},
	{
		"ID": 2208
	},
	{
		"ID": 2209
	},
	{
		"ID": 2210
	},
	{
		"ID": 2211
	},
	{
		"ID": 2212
	},
	{
		"ID": 2213
	},
	{
		"ID": 2214
	},
	{
		"ID": 2215
	},
	{
		"ID": 2216
	},
	{
		"ID": 2217
	},
	{
		"ID": 2218
	},
	{
		"ID": 2219
	},
	{
		"ID": 2220
	},
	{
		"ID": 2221
	},
	{
		"ID": 2222
	},
	{
		"ID": 2223
	},
	{
		"ID": 2224
	},
	{
		"ID": 2225
	},
	{
		"ID": 2226
	},
	{
		"ID": 2227
	},
	{
		"ID": 2228
	},
	{
		"ID": 2229
	},
	{
		"ID": 2230
	},
	{
		"ID": 2231
	},
	{
		"ID": 2232
	},
	{
		"ID": 2233
	},
	{
		"ID": 2234
	},
	{
		"ID": 2235
	},
	{
		"ID": 2236
	},
	{
		"ID": 2237
	},
	{
		"ID": 2238
	},
	{
		"ID": 2239
	},
	{
		"ID": 2240
	},
	{
		"ID": 2241
	},
	{
		"ID": 2242
	},
	{
		"ID": 2243
	},
	{
		"ID": 2244
	},
	{
		"ID": 2245
	},
	{
		"ID": 2246
	},
	{
		"ID": 2247
	},
	{
		"ID": 2248
	},
	{
		"ID": 2249
	},
	{
		"ID": 2250
	},
	{
		"ID": 2251
	},
	{
		"ID": 2252
	},
	{
		"ID": 2253
	},
	{
		"ID": 2254
	},
	{
		"ID": 2255
	},
	{
		"ID": 2256
	},
	{
		"ID": 2257
	},
	{
		"ID": 2258
	},
	{
		"ID": 2259
	},
	{
		"ID": 2260
	},
	{
		"ID": 2261
	},
	{
		"ID": 2262
	},
	{
		"ID": 2263
	},
	{
		"ID": 2264
	},
	{
		"ID": 2265
	},
	{
		"ID": 2266
	},
	{
		"ID": 2267
	},
	{
		"ID": 2268
	},
	{
		"ID": 2269
	},
	{
		"ID": 2270
	},
	{
		"ID": 2271
	},
	{
		"ID": 2272
	},
	{
		"ID": 2273
	},
	{
		"ID": 2274
	},
	{
		"ID": 2275
	},
	{
		"ID": 2276
	},
	{
		"ID": 2277
	},
	{
		"ID": 2278
	},
	{
		"ID": 2279
	},
	{
		"ID": 2280
	},
	{
		"ID": 2281
	},
	{
		"ID": 2282
	},
	{
		"ID": 2283
	},
	{
		"ID": 2284
	},
	{
		"ID": 2285
	},
	{
		"ID": 2286
	},
	{
		"ID": 2287
	},
	{
		"ID": 2288
	},
	{
		"ID": 2289
	},
	{
		"ID": 2290
	},
	{
		"ID": 2291
	},
	{
		"ID": 2292
	},
	{
		"ID": 2293
	},
	{
		"ID": 2294
	},
	{
		"ID": 2295
	},
	{
		"ID": 2296
	},
	{
		"ID": 2297
	},
	{
		"ID": 2298
	},
	{
		"ID": 2299
	},
	{
		"ID": 2300
	},
	{
		"ID": 2301
	},
	{
		"ID": 2302
	}
]