[
	{
		"ID": 1,
		"Name": "60lbs Muscles ♂ Rip",
		"TeamName": "Lv.15",
		"PreLevel": 0,
		"TicketCost": 0,
		"EnergySuccess": 20,
		"EnergyFail": 4,
		"TeamEnergyCost": 16,
		"MonsterLevel": 15,
		"BattleID": 900,
		"PlayerExp": 20,
		"HeroExp": 74,
		"Gold": 530,
		"DropID": 5512,
		"TeamDropID": 8060,
		"OperationalActivityDropID": 10027,
		"DayBonusDropID": 5501,
		"DayBonusExtraDropID": 4007,
		"DisplayRewardCount": 3,
		"Icon1": "UI/Uncharted_ABS/Occupation_Monster.png",
		"Icon2": "UI/Uncharted_ABS/Occupation_Infantryman.png",
		"Strategy": ""
	},
	{
		"ID": 2,
		"Name": "80lbs Strength ♂ Breakthrough",
		"TeamName": "Lv.20",
		"PreLevel": 1,
		"TicketCost": 0,
		"EnergySuccess": 20,
		"EnergyFail": 4,
		"TeamEnergyCost": 16,
		"MonsterLevel": 20,
		"BattleID": 901,
		"PlayerExp": 20,
		"HeroExp": 80,
		"Gold": 688,
		"DropID": 5513,
		"TeamDropID": 8061,
		"OperationalActivityDropID": 10027,
		"DayBonusDropID": 5502,
		"DayBonusExtraDropID": 4007,
		"DisplayRewardCount": 3,
		"Icon1": "UI/Uncharted_ABS/Occupation_Monster.png",
		"Icon2": "UI/Uncharted_ABS/Occupation_Infantryman.png",
		"Strategy": ""
	},
	{
		"ID": 3,
		"Name": "100lbs Barehand ♂ Explode",
		"TeamName": "Lv.25",
		"PreLevel": 2,
		"TicketCost": 0,
		"EnergySuccess": 20,
		"EnergyFail": 4,
		"TeamEnergyCost": 16,
		"MonsterLevel": 25,
		"BattleID": 902,
		"PlayerExp": 20,
		"HeroExp": 90,
		"Gold": 866,
		"DropID": 5514,
		"TeamDropID": 8062,
		"OperationalActivityDropID": 10027,
		"DayBonusDropID": 5503,
		"DayBonusExtraDropID": 4007,
		"DisplayRewardCount": 4,
		"Icon1": "UI/Uncharted_ABS/Occupation_Infantryman.png",
		"Icon2": "UI/Uncharted_ABS/Occupation_Cavalry.png",
		"Strategy": ""
	},
	{
		"ID": 4,
		"Name": "120lbs Upper Limb ♂ Breakthrough",
		"TeamName": "Lv.30",
		"PreLevel": 3,
		"TicketCost": 0,
		"EnergySuccess": 20,
		"EnergyFail": 4,
		"TeamEnergyCost": 16,
		"MonsterLevel": 30,
		"BattleID": 902,
		"PlayerExp": 20,
		"HeroExp": 100,
		"Gold": 1062,
		"DropID": 5515,
		"TeamDropID": 8063,
		"OperationalActivityDropID": 10027,
		"DayBonusDropID": 5504,
		"DayBonusExtraDropID": 4007,
		"DisplayRewardCount": 4,
		"Icon1": "UI/Uncharted_ABS/Occupation_Infantryman.png",
		"Icon2": "UI/Uncharted_ABS/Occupation_Cavalry.png",
		"Strategy": ""
	},
	{
		"ID": 5,
		"Name": "140lbs Bicycle ♂ Burn Fat",
		"TeamName": "Lv.35",
		"PreLevel": 4,
		"TicketCost": 0,
		"EnergySuccess": 20,
		"EnergyFail": 4,
		"TeamEnergyCost": 16,
		"MonsterLevel": 35,
		"BattleID": 903,
		"PlayerExp": 20,
		"HeroExp": 110,
		"Gold": 1276,
		"DropID": 5516,
		"TeamDropID": 8064,
		"OperationalActivityDropID": 10027,
		"DayBonusDropID": 5505,
		"DayBonusExtraDropID": 4007,
		"DisplayRewardCount": 4,
		"Icon1": "UI/Uncharted_ABS/Occupation_Monk.png",
		"Icon2": "UI/Uncharted_ABS/Occupation_Infantryman.png",
		"Strategy": ""
	},
	{
		"ID": 6,
		"Name": "160lbs Muscles ♂ Thrive",
		"TeamName": "Lv.40",
		"PreLevel": 5,
		"TicketCost": 0,
		"EnergySuccess": 20,
		"EnergyFail": 4,
		"TeamEnergyCost": 16,
		"MonsterLevel": 40,
		"BattleID": 904,
		"PlayerExp": 20,
		"HeroExp": 120,
		"Gold": 1504,
		"DropID": 5517,
		"TeamDropID": 8065,
		"OperationalActivityDropID": 10027,
		"DayBonusDropID": 5506,
		"DayBonusExtraDropID": 4007,
		"DisplayRewardCount": 4,
		"Icon1": "UI/Uncharted_ABS/Occupation_Monk.png",
		"Icon2": "UI/Uncharted_ABS/Occupation_Infantryman.png",
		"Strategy": ""
	},
	{
		"ID": 7,
		"Name": "180lbs Back Muscles ♂ Burst",
		"TeamName": "Lv.45",
		"PreLevel": 6,
		"TicketCost": 0,
		"EnergySuccess": 20,
		"EnergyFail": 4,
		"TeamEnergyCost": 16,
		"MonsterLevel": 45,
		"BattleID": 905,
		"PlayerExp": 20,
		"HeroExp": 130,
		"Gold": 1750,
		"DropID": 5518,
		"TeamDropID": 8066,
		"OperationalActivityDropID": 10027,
		"DayBonusDropID": 5507,
		"DayBonusExtraDropID": 4007,
		"DisplayRewardCount": 4,
		"Icon1": "UI/Uncharted_ABS/Occupation_Infantryman.png",
		"Icon2": "UI/Uncharted_ABS/Occupation_Archer.png",
		"Strategy": ""
	},
	{
		"ID": 8,
		"Name": "200lbs Devil ♂ Dynamic",
		"TeamName": "Lv.50",
		"PreLevel": 7,
		"TicketCost": 0,
		"EnergySuccess": 20,
		"EnergyFail": 4,
		"TeamEnergyCost": 16,
		"MonsterLevel": 50,
		"BattleID": 906,
		"PlayerExp": 20,
		"HeroExp": 140,
		"Gold": 2008,
		"DropID": 5519,
		"TeamDropID": 8067,
		"OperationalActivityDropID": 10027,
		"DayBonusDropID": 5508,
		"DayBonusExtraDropID": 4007,
		"DisplayRewardCount": 4,
		"Icon1": "UI/Uncharted_ABS/Occupation_Infantryman.png",
		"Icon2": "UI/Uncharted_ABS/Occupation_Archer.png",
		"Strategy": ""
	},
	{
		"ID": 9,
		"Name": "220lbs Hell ♂ Stretch",
		"TeamName": "Lv.55",
		"PreLevel": 8,
		"TicketCost": 0,
		"EnergySuccess": 20,
		"EnergyFail": 4,
		"TeamEnergyCost": 16,
		"MonsterLevel": 55,
		"BattleID": 907,
		"PlayerExp": 20,
		"HeroExp": 150,
		"Gold": 2280,
		"DropID": 5520,
		"TeamDropID": 8068,
		"OperationalActivityDropID": 10027,
		"DayBonusDropID": 5509,
		"DayBonusExtraDropID": 4007,
		"DisplayRewardCount": 4,
		"Icon1": "UI/Uncharted_ABS/Occupation_Marines.png",
		"Icon2": "UI/Uncharted_ABS/Occupation_Infantryman.png",
		"Strategy": ""
	},
	{
		"ID": 10,
		"Name": "240lbs Dark Meditation",
		"TeamName": "Lv.60",
		"PreLevel": 9,
		"TicketCost": 0,
		"EnergySuccess": 20,
		"EnergyFail": 4,
		"TeamEnergyCost": 16,
		"MonsterLevel": 60,
		"BattleID": 908,
		"PlayerExp": 20,
		"HeroExp": 160,
		"Gold": 2564,
		"DropID": 5521,
		"TeamDropID": 8069,
		"OperationalActivityDropID": 10027,
		"DayBonusDropID": 5510,
		"DayBonusExtraDropID": 4007,
		"DisplayRewardCount": 4,
		"Icon1": "UI/Uncharted_ABS/Occupation_Marines.png",
		"Icon2": "UI/Uncharted_ABS/Occupation_Infantryman.png",
		"Strategy": ""
	},
	{
		"ID": 11,
		"Name": "300lbs Lethal Light",
		"TeamName": "Lv.65",
		"PreLevel": 10,
		"TicketCost": 0,
		"EnergySuccess": 20,
		"EnergyFail": 4,
		"TeamEnergyCost": 16,
		"MonsterLevel": 65,
		"BattleID": 909,
		"PlayerExp": 20,
		"HeroExp": 160,
		"Gold": 2564,
		"DropID": 5522,
		"TeamDropID": 8070,
		"OperationalActivityDropID": 10027,
		"DayBonusDropID": 5511,
		"DayBonusExtraDropID": 4007,
		"DisplayRewardCount": 4,
		"Icon1": "UI/Uncharted_ABS/Occupation_Infantryman.png",
		"Icon2": "UI/Uncharted_ABS/Occupation_Fly.png",
		"Strategy": ""
	},
	{
		"ID": 21,
		"Name": "60lbs Muscles ♂ Rip",
		"TeamName": "Lv.15",
		"PreLevel": 0,
		"TicketCost": 0,
		"EnergySuccess": 20,
		"EnergyFail": 4,
		"TeamEnergyCost": 16,
		"MonsterLevel": 15,
		"BattleID": 930,
		"PlayerExp": 20,
		"HeroExp": 74,
		"Gold": 530,
		"DropID": 5534,
		"TeamDropID": 8071,
		"OperationalActivityDropID": 10027,
		"DayBonusDropID": 5523,
		"DayBonusExtraDropID": 0,
		"DisplayRewardCount": 3,
		"Icon1": "UI/Uncharted_ABS/Occupation_Marines.png",
		"Icon2": "UI/Uncharted_ABS/Occupation_Archer.png",
		"Strategy": ""
	},
	{
		"ID": 22,
		"Name": "80lbs Strength ♂ Breakthrough",
		"TeamName": "Lv.20",
		"PreLevel": 21,
		"TicketCost": 0,
		"EnergySuccess": 20,
		"EnergyFail": 4,
		"TeamEnergyCost": 16,
		"MonsterLevel": 20,
		"BattleID": 931,
		"PlayerExp": 20,
		"HeroExp": 80,
		"Gold": 688,
		"DropID": 5535,
		"TeamDropID": 8072,
		"OperationalActivityDropID": 10027,
		"DayBonusDropID": 5524,
		"DayBonusExtraDropID": 0,
		"DisplayRewardCount": 3,
		"Icon1": "UI/Uncharted_ABS/Occupation_Marines.png",
		"Icon2": "UI/Uncharted_ABS/Occupation_Archer.png",
		"Strategy": ""
	},
	{
		"ID": 23,
		"Name": "100lbs Barehand ♂ Explode",
		"TeamName": "Lv.25",
		"PreLevel": 22,
		"TicketCost": 0,
		"EnergySuccess": 20,
		"EnergyFail": 4,
		"TeamEnergyCost": 16,
		"MonsterLevel": 25,
		"BattleID": 932,
		"PlayerExp": 20,
		"HeroExp": 90,
		"Gold": 866,
		"DropID": 5536,
		"TeamDropID": 8073,
		"OperationalActivityDropID": 10027,
		"DayBonusDropID": 5525,
		"DayBonusExtraDropID": 0,
		"DisplayRewardCount": 4,
		"Icon1": "UI/Uncharted_ABS/Occupation_Fly.png",
		"Icon2": "UI/Uncharted_ABS/Occupation_Assassin.png",
		"Strategy": ""
	},
	{
		"ID": 24,
		"Name": "120lbs Upper Limb ♂ Breakthrough",
		"TeamName": "Lv.30",
		"PreLevel": 23,
		"TicketCost": 0,
		"EnergySuccess": 20,
		"EnergyFail": 4,
		"TeamEnergyCost": 16,
		"MonsterLevel": 30,
		"BattleID": 932,
		"PlayerExp": 20,
		"HeroExp": 100,
		"Gold": 1062,
		"DropID": 5537,
		"TeamDropID": 8074,
		"OperationalActivityDropID": 10027,
		"DayBonusDropID": 5526,
		"DayBonusExtraDropID": 0,
		"DisplayRewardCount": 4,
		"Icon1": "UI/Uncharted_ABS/Occupation_Fly.png",
		"Icon2": "UI/Uncharted_ABS/Occupation_Assassin.png",
		"Strategy": ""
	},
	{
		"ID": 25,
		"Name": "140lbs Bicycle ♂ Burn Fat",
		"TeamName": "Lv.35",
		"PreLevel": 24,
		"TicketCost": 0,
		"EnergySuccess": 20,
		"EnergyFail": 4,
		"TeamEnergyCost": 16,
		"MonsterLevel": 35,
		"BattleID": 933,
		"PlayerExp": 20,
		"HeroExp": 110,
		"Gold": 1276,
		"DropID": 5538,
		"TeamDropID": 8075,
		"OperationalActivityDropID": 10027,
		"DayBonusDropID": 5527,
		"DayBonusExtraDropID": 0,
		"DisplayRewardCount": 4,
		"Icon1": "UI/Uncharted_ABS/Occupation_Cavalry.png",
		"Icon2": "UI/Uncharted_ABS/Occupation_Archer.png",
		"Strategy": ""
	},
	{
		"ID": 26,
		"Name": "160lbs Muscles ♂ Thrive",
		"TeamName": "Lv.40",
		"PreLevel": 25,
		"TicketCost": 0,
		"EnergySuccess": 20,
		"EnergyFail": 4,
		"TeamEnergyCost": 16,
		"MonsterLevel": 40,
		"BattleID": 934,
		"PlayerExp": 20,
		"HeroExp": 120,
		"Gold": 1504,
		"DropID": 5539,
		"TeamDropID": 8076,
		"OperationalActivityDropID": 10027,
		"DayBonusDropID": 5528,
		"DayBonusExtraDropID": 0,
		"DisplayRewardCount": 4,
		"Icon1": "UI/Uncharted_ABS/Occupation_Cavalry.png",
		"Icon2": "UI/Uncharted_ABS/Occupation_Archer.png",
		"Strategy": ""
	},
	{
		"ID": 27,
		"Name": "180lbs Back Muscles ♂ Burst",
		"TeamName": "Lv.45",
		"PreLevel": 26,
		"TicketCost": 0,
		"EnergySuccess": 20,
		"EnergyFail": 4,
		"TeamEnergyCost": 16,
		"MonsterLevel": 45,
		"BattleID": 935,
		"PlayerExp": 20,
		"HeroExp": 130,
		"Gold": 1750,
		"DropID": 5540,
		"TeamDropID": 8077,
		"OperationalActivityDropID": 10027,
		"DayBonusDropID": 5529,
		"DayBonusExtraDropID": 0,
		"DisplayRewardCount": 4,
		"Icon1": "UI/Uncharted_ABS/Occupation_Assassin.png",
		"Icon2": "UI/Uncharted_ABS/Occupation_Fly.png",
		"Strategy": ""
	},
	{
		"ID": 28,
		"Name": "200lbs Devil ♂ Dynamic",
		"TeamName": "Lv.50",
		"PreLevel": 27,
		"TicketCost": 0,
		"EnergySuccess": 20,
		"EnergyFail": 4,
		"TeamEnergyCost": 16,
		"MonsterLevel": 50,
		"BattleID": 936,
		"PlayerExp": 20,
		"HeroExp": 140,
		"Gold": 2008,
		"DropID": 5541,
		"TeamDropID": 8078,
		"OperationalActivityDropID": 10027,
		"DayBonusDropID": 5530,
		"DayBonusExtraDropID": 0,
		"DisplayRewardCount": 4,
		"Icon1": "UI/Uncharted_ABS/Occupation_Assassin.png",
		"Icon2": "UI/Uncharted_ABS/Occupation_Marines.png",
		"Strategy": ""
	},
	{
		"ID": 29,
		"Name": "220lbs Hell ♂ Stretch",
		"TeamName": "Lv.55",
		"PreLevel": 28,
		"TicketCost": 0,
		"EnergySuccess": 20,
		"EnergyFail": 4,
		"TeamEnergyCost": 16,
		"MonsterLevel": 55,
		"BattleID": 937,
		"PlayerExp": 20,
		"HeroExp": 150,
		"Gold": 2280,
		"DropID": 5542,
		"TeamDropID": 8079,
		"OperationalActivityDropID": 10027,
		"DayBonusDropID": 5531,
		"DayBonusExtraDropID": 0,
		"DisplayRewardCount": 4,
		"Icon1": "UI/Uncharted_ABS/Occupation_Archer.png",
		"Icon2": "UI/Uncharted_ABS/Occupation_Infantryman.png",
		"Strategy": ""
	},
	{
		"ID": 30,
		"Name": "240lbs Dark Meditation",
		"TeamName": "Lv.60",
		"PreLevel": 29,
		"TicketCost": 0,
		"EnergySuccess": 20,
		"EnergyFail": 4,
		"TeamEnergyCost": 16,
		"MonsterLevel": 60,
		"BattleID": 938,
		"PlayerExp": 20,
		"HeroExp": 160,
		"Gold": 2564,
		"DropID": 5543,
		"TeamDropID": 8080,
		"OperationalActivityDropID": 10027,
		"DayBonusDropID": 5532,
		"DayBonusExtraDropID": 0,
		"DisplayRewardCount": 4,
		"Icon1": "UI/Uncharted_ABS/Occupation_Assassin.png",
		"Icon2": "UI/Uncharted_ABS/Occupation_Water.png",
		"Strategy": ""
	},
	{
		"ID": 31,
		"Name": "300lbs Lethal Light",
		"TeamName": "Lv.65",
		"PreLevel": 30,
		"TicketCost": 0,
		"EnergySuccess": 20,
		"EnergyFail": 4,
		"TeamEnergyCost": 16,
		"MonsterLevel": 65,
		"BattleID": 939,
		"PlayerExp": 20,
		"HeroExp": 160,
		"Gold": 2564,
		"DropID": 5544,
		"TeamDropID": 8081,
		"OperationalActivityDropID": 10027,
		"DayBonusDropID": 5533,
		"DayBonusExtraDropID": 0,
		"DisplayRewardCount": 4,
		"Icon1": "UI/Uncharted_ABS/Occupation_Archer.png",
		"Icon2": "UI/Uncharted_ABS/Occupation_Monster.png",
		"Strategy": ""
	},
	{
		"ID": 41,
		"Name": "60lbs Muscles ♂ Rip",
		"TeamName": "Lv.15",
		"PreLevel": 0,
		"TicketCost": 0,
		"EnergySuccess": 20,
		"EnergyFail": 4,
		"TeamEnergyCost": 16,
		"MonsterLevel": 15,
		"BattleID": 910,
		"PlayerExp": 20,
		"HeroExp": 74,
		"Gold": 530,
		"DropID": 5556,
		"TeamDropID": 8082,
		"OperationalActivityDropID": 10027,
		"DayBonusDropID": 5545,
		"DayBonusExtraDropID": 0,
		"DisplayRewardCount": 3,
		"Icon1": "UI/Uncharted_ABS/Occupation_Cavalry.png",
		"Icon2": "UI/Uncharted_ABS/Occupation_Marines.png",
		"Strategy": ""
	},
	{
		"ID": 42,
		"Name": "80lbs Strength ♂ Breakthrough",
		"TeamName": "Lv.20",
		"PreLevel": 41,
		"TicketCost": 0,
		"EnergySuccess": 20,
		"EnergyFail": 4,
		"TeamEnergyCost": 16,
		"MonsterLevel": 20,
		"BattleID": 911,
		"PlayerExp": 20,
		"HeroExp": 80,
		"Gold": 688,
		"DropID": 5557,
		"TeamDropID": 8083,
		"OperationalActivityDropID": 10027,
		"DayBonusDropID": 5546,
		"DayBonusExtraDropID": 0,
		"DisplayRewardCount": 3,
		"Icon1": "UI/Uncharted_ABS/Occupation_Cavalry.png",
		"Icon2": "UI/Uncharted_ABS/Occupation_Marines.png",
		"Strategy": ""
	},
	{
		"ID": 43,
		"Name": "100lbs Barehand ♂ Explode",
		"TeamName": "Lv.25",
		"PreLevel": 42,
		"TicketCost": 0,
		"EnergySuccess": 20,
		"EnergyFail": 4,
		"TeamEnergyCost": 16,
		"MonsterLevel": 25,
		"BattleID": 912,
		"PlayerExp": 20,
		"HeroExp": 90,
		"Gold": 866,
		"DropID": 5558,
		"TeamDropID": 8084,
		"OperationalActivityDropID": 10027,
		"DayBonusDropID": 5547,
		"DayBonusExtraDropID": 0,
		"DisplayRewardCount": 4,
		"Icon1": "UI/Uncharted_ABS/Occupation_Marines.png",
		"Icon2": "UI/Uncharted_ABS/Occupation_Assassin.png",
		"Strategy": ""
	},
	{
		"ID": 44,
		"Name": "120lbs Upper Limb ♂ Breakthrough",
		"TeamName": "Lv.30",
		"PreLevel": 43,
		"TicketCost": 0,
		"EnergySuccess": 20,
		"EnergyFail": 4,
		"TeamEnergyCost": 16,
		"MonsterLevel": 30,
		"BattleID": 912,
		"PlayerExp": 20,
		"HeroExp": 100,
		"Gold": 1062,
		"DropID": 5559,
		"TeamDropID": 8085,
		"OperationalActivityDropID": 10027,
		"DayBonusDropID": 5548,
		"DayBonusExtraDropID": 0,
		"DisplayRewardCount": 4,
		"Icon1": "UI/Uncharted_ABS/Occupation_Marines.png",
		"Icon2": "UI/Uncharted_ABS/Occupation_Assassin.png",
		"Strategy": ""
	},
	{
		"ID": 45,
		"Name": "140lbs Bicycle ♂ Burn Fat",
		"TeamName": "Lv.35",
		"PreLevel": 44,
		"TicketCost": 0,
		"EnergySuccess": 20,
		"EnergyFail": 4,
		"TeamEnergyCost": 16,
		"MonsterLevel": 35,
		"BattleID": 913,
		"PlayerExp": 20,
		"HeroExp": 110,
		"Gold": 1276,
		"DropID": 5560,
		"TeamDropID": 8086,
		"OperationalActivityDropID": 10027,
		"DayBonusDropID": 5549,
		"DayBonusExtraDropID": 0,
		"DisplayRewardCount": 4,
		"Icon1": "UI/Uncharted_ABS/Occupation_Fly.png",
		"Icon2": "UI/Uncharted_ABS/Occupation_Marines.png",
		"Strategy": ""
	},
	{
		"ID": 46,
		"Name": "160lbs Muscles ♂ Thrive",
		"TeamName": "Lv.40",
		"PreLevel": 45,
		"TicketCost": 0,
		"EnergySuccess": 20,
		"EnergyFail": 4,
		"TeamEnergyCost": 16,
		"MonsterLevel": 40,
		"BattleID": 914,
		"PlayerExp": 20,
		"HeroExp": 120,
		"Gold": 1504,
		"DropID": 5561,
		"TeamDropID": 8087,
		"OperationalActivityDropID": 10027,
		"DayBonusDropID": 5550,
		"DayBonusExtraDropID": 0,
		"DisplayRewardCount": 4,
		"Icon1": "UI/Uncharted_ABS/Occupation_Fly.png",
		"Icon2": "UI/Uncharted_ABS/Occupation_Marines.png",
		"Strategy": ""
	},
	{
		"ID": 47,
		"Name": "180lbs Back Muscles ♂ Burst",
		"TeamName": "Lv.45",
		"PreLevel": 46,
		"TicketCost": 0,
		"EnergySuccess": 20,
		"EnergyFail": 4,
		"TeamEnergyCost": 16,
		"MonsterLevel": 45,
		"BattleID": 915,
		"PlayerExp": 20,
		"HeroExp": 130,
		"Gold": 1750,
		"DropID": 5562,
		"TeamDropID": 8088,
		"OperationalActivityDropID": 10027,
		"DayBonusDropID": 5551,
		"DayBonusExtraDropID": 0,
		"DisplayRewardCount": 4,
		"Icon1": "UI/Uncharted_ABS/Occupation_Marines.png",
		"Icon2": "UI/Uncharted_ABS/Occupation_Monster.png",
		"Strategy": ""
	},
	{
		"ID": 48,
		"Name": "200lbs Devil ♂ Dynamic",
		"TeamName": "Lv.50",
		"PreLevel": 47,
		"TicketCost": 0,
		"EnergySuccess": 20,
		"EnergyFail": 4,
		"TeamEnergyCost": 16,
		"MonsterLevel": 50,
		"BattleID": 916,
		"PlayerExp": 20,
		"HeroExp": 140,
		"Gold": 2008,
		"DropID": 5563,
		"TeamDropID": 8089,
		"OperationalActivityDropID": 10027,
		"DayBonusDropID": 5552,
		"DayBonusExtraDropID": 0,
		"DisplayRewardCount": 4,
		"Icon1": "UI/Uncharted_ABS/Occupation_Marines.png",
		"Icon2": "UI/Uncharted_ABS/Occupation_Monster.png",
		"Strategy": ""
	},
	{
		"ID": 49,
		"Name": "220lbs Hell ♂ Stretch",
		"TeamName": "Lv.55",
		"PreLevel": 48,
		"TicketCost": 0,
		"EnergySuccess": 20,
		"EnergyFail": 4,
		"TeamEnergyCost": 16,
		"MonsterLevel": 55,
		"BattleID": 917,
		"PlayerExp": 20,
		"HeroExp": 150,
		"Gold": 2280,
		"DropID": 5564,
		"TeamDropID": 8090,
		"OperationalActivityDropID": 10027,
		"DayBonusDropID": 5553,
		"DayBonusExtraDropID": 0,
		"DisplayRewardCount": 4,
		"Icon1": "UI/Uncharted_ABS/Occupation_Cavalry.png",
		"Icon2": "UI/Uncharted_ABS/Occupation_Marines.png",
		"Strategy": ""
	},
	{
		"ID": 50,
		"Name": "240lbs Dark Meditation",
		"TeamName": "Lv.60",
		"PreLevel": 49,
		"TicketCost": 0,
		"EnergySuccess": 20,
		"EnergyFail": 4,
		"TeamEnergyCost": 16,
		"MonsterLevel": 60,
		"BattleID": 918,
		"PlayerExp": 20,
		"HeroExp": 160,
		"Gold": 2564,
		"DropID": 5565,
		"TeamDropID": 8091,
		"OperationalActivityDropID": 10027,
		"DayBonusDropID": 5554,
		"DayBonusExtraDropID": 0,
		"DisplayRewardCount": 4,
		"Icon1": "UI/Uncharted_ABS/Occupation_Cavalry.png",
		"Icon2": "UI/Uncharted_ABS/Occupation_Marines.png",
		"Strategy": ""
	},
	{
		"ID": 51,
		"Name": "300lbs Lethal Light",
		"TeamName": "Lv.65",
		"PreLevel": 50,
		"TicketCost": 0,
		"EnergySuccess": 20,
		"EnergyFail": 4,
		"TeamEnergyCost": 16,
		"MonsterLevel": 65,
		"BattleID": 919,
		"PlayerExp": 20,
		"HeroExp": 160,
		"Gold": 2564,
		"DropID": 5566,
		"TeamDropID": 8092,
		"OperationalActivityDropID": 10027,
		"DayBonusDropID": 5555,
		"DayBonusExtraDropID": 0,
		"DisplayRewardCount": 4,
		"Icon1": "UI/Uncharted_ABS/Occupation_Marines.png",
		"Icon2": "UI/Uncharted_ABS/Occupation_Archer.png",
		"Strategy": ""
	},
	{
		"ID": 61,
		"Name": "60lbs Muscles ♂ Rip",
		"TeamName": "Lv.15",
		"PreLevel": 0,
		"TicketCost": 0,
		"EnergySuccess": 20,
		"EnergyFail": 4,
		"TeamEnergyCost": 16,
		"MonsterLevel": 15,
		"BattleID": 940,
		"PlayerExp": 20,
		"HeroExp": 74,
		"Gold": 530,
		"DropID": 5578,
		"TeamDropID": 8093,
		"OperationalActivityDropID": 10027,
		"DayBonusDropID": 5567,
		"DayBonusExtraDropID": 0,
		"DisplayRewardCount": 3,
		"Icon1": "UI/Uncharted_ABS/Occupation_Fly.png",
		"Icon2": "UI/Uncharted_ABS/Occupation_Infantryman.png",
		"Strategy": ""
	},
	{
		"ID": 62,
		"Name": "80lbs Strength ♂ Breakthrough",
		"TeamName": "Lv.20",
		"PreLevel": 61,
		"TicketCost": 0,
		"EnergySuccess": 20,
		"EnergyFail": 4,
		"TeamEnergyCost": 16,
		"MonsterLevel": 20,
		"BattleID": 941,
		"PlayerExp": 20,
		"HeroExp": 80,
		"Gold": 688,
		"DropID": 5579,
		"TeamDropID": 8094,
		"OperationalActivityDropID": 10027,
		"DayBonusDropID": 5568,
		"DayBonusExtraDropID": 0,
		"DisplayRewardCount": 3,
		"Icon1": "UI/Uncharted_ABS/Occupation_Fly.png",
		"Icon2": "UI/Uncharted_ABS/Occupation_Infantryman.png",
		"Strategy": ""
	},
	{
		"ID": 63,
		"Name": "100lbs Barehand ♂ Explode",
		"TeamName": "Lv.25",
		"PreLevel": 62,
		"TicketCost": 0,
		"EnergySuccess": 20,
		"EnergyFail": 4,
		"TeamEnergyCost": 16,
		"MonsterLevel": 25,
		"BattleID": 942,
		"PlayerExp": 20,
		"HeroExp": 90,
		"Gold": 866,
		"DropID": 5580,
		"TeamDropID": 8095,
		"OperationalActivityDropID": 10027,
		"DayBonusDropID": 5569,
		"DayBonusExtraDropID": 0,
		"DisplayRewardCount": 4,
		"Icon1": "UI/Uncharted_ABS/Occupation_Water.png",
		"Icon2": "UI/Uncharted_ABS/Occupation_Monster.png",
		"Strategy": ""
	},
	{
		"ID": 64,
		"Name": "120lbs Upper Limb ♂ Breakthrough",
		"TeamName": "Lv.30",
		"PreLevel": 63,
		"TicketCost": 0,
		"EnergySuccess": 20,
		"EnergyFail": 4,
		"TeamEnergyCost": 16,
		"MonsterLevel": 30,
		"BattleID": 942,
		"PlayerExp": 20,
		"HeroExp": 100,
		"Gold": 1062,
		"DropID": 5581,
		"TeamDropID": 8096,
		"OperationalActivityDropID": 10027,
		"DayBonusDropID": 5570,
		"DayBonusExtraDropID": 0,
		"DisplayRewardCount": 4,
		"Icon1": "UI/Uncharted_ABS/Occupation_Water.png",
		"Icon2": "UI/Uncharted_ABS/Occupation_Monster.png",
		"Strategy": ""
	},
	{
		"ID": 65,
		"Name": "140lbs Bicycle ♂ Burn Fat",
		"TeamName": "Lv.35",
		"PreLevel": 64,
		"TicketCost": 0,
		"EnergySuccess": 20,
		"EnergyFail": 4,
		"TeamEnergyCost": 16,
		"MonsterLevel": 35,
		"BattleID": 943,
		"PlayerExp": 20,
		"HeroExp": 110,
		"Gold": 1276,
		"DropID": 5582,
		"TeamDropID": 8097,
		"OperationalActivityDropID": 10027,
		"DayBonusDropID": 5571,
		"DayBonusExtraDropID": 0,
		"DisplayRewardCount": 4,
		"Icon1": "UI/Uncharted_ABS/Occupation_Fly.png",
		"Icon2": "UI/Uncharted_ABS/Occupation_Monk.png",
		"Strategy": ""
	},
	{
		"ID": 66,
		"Name": "160lbs Muscles ♂ Thrive",
		"TeamName": "Lv.40",
		"PreLevel": 65,
		"TicketCost": 0,
		"EnergySuccess": 20,
		"EnergyFail": 4,
		"TeamEnergyCost": 16,
		"MonsterLevel": 40,
		"BattleID": 944,
		"PlayerExp": 20,
		"HeroExp": 120,
		"Gold": 1504,
		"DropID": 5583,
		"TeamDropID": 8098,
		"OperationalActivityDropID": 10027,
		"DayBonusDropID": 5572,
		"DayBonusExtraDropID": 0,
		"DisplayRewardCount": 4,
		"Icon1": "UI/Uncharted_ABS/Occupation_Fly.png",
		"Icon2": "UI/Uncharted_ABS/Occupation_Monk.png",
		"Strategy": ""
	},
	{
		"ID": 67,
		"Name": "180lbs Back Muscles ♂ Burst",
		"TeamName": "Lv.45",
		"PreLevel": 66,
		"TicketCost": 0,
		"EnergySuccess": 20,
		"EnergyFail": 4,
		"TeamEnergyCost": 16,
		"MonsterLevel": 45,
		"BattleID": 945,
		"PlayerExp": 20,
		"HeroExp": 130,
		"Gold": 1750,
		"DropID": 5584,
		"TeamDropID": 8099,
		"OperationalActivityDropID": 10027,
		"DayBonusDropID": 5573,
		"DayBonusExtraDropID": 0,
		"DisplayRewardCount": 4,
		"Icon1": "UI/Uncharted_ABS/Occupation_Water.png",
		"Icon2": "UI/Uncharted_ABS/Occupation_Marines.png",
		"Strategy": ""
	},
	{
		"ID": 68,
		"Name": "200lbs Devil ♂ Dynamic",
		"TeamName": "Lv.50",
		"PreLevel": 67,
		"TicketCost": 0,
		"EnergySuccess": 20,
		"EnergyFail": 4,
		"TeamEnergyCost": 16,
		"MonsterLevel": 50,
		"BattleID": 946,
		"PlayerExp": 20,
		"HeroExp": 140,
		"Gold": 2008,
		"DropID": 5585,
		"TeamDropID": 8100,
		"OperationalActivityDropID": 10027,
		"DayBonusDropID": 5574,
		"DayBonusExtraDropID": 0,
		"DisplayRewardCount": 4,
		"Icon1": "UI/Uncharted_ABS/Occupation_Water.png",
		"Icon2": "UI/Uncharted_ABS/Occupation_Marines.png",
		"Strategy": ""
	},
	{
		"ID": 69,
		"Name": "220lbs Hell ♂ Stretch",
		"TeamName": "Lv.55",
		"PreLevel": 68,
		"TicketCost": 0,
		"EnergySuccess": 20,
		"EnergyFail": 4,
		"TeamEnergyCost": 16,
		"MonsterLevel": 55,
		"BattleID": 947,
		"PlayerExp": 20,
		"HeroExp": 150,
		"Gold": 2280,
		"DropID": 5586,
		"TeamDropID": 8101,
		"OperationalActivityDropID": 10027,
		"DayBonusDropID": 5575,
		"DayBonusExtraDropID": 0,
		"DisplayRewardCount": 4,
		"Icon1": "UI/Uncharted_ABS/Occupation_Fly.png",
		"Icon2": "UI/Uncharted_ABS/Occupation_Archer.png",
		"Strategy": ""
	},
	{
		"ID": 70,
		"Name": "240lbs Dark Meditation",
		"TeamName": "Lv.60",
		"PreLevel": 69,
		"TicketCost": 0,
		"EnergySuccess": 20,
		"EnergyFail": 4,
		"TeamEnergyCost": 16,
		"MonsterLevel": 60,
		"BattleID": 948,
		"PlayerExp": 20,
		"HeroExp": 160,
		"Gold": 2564,
		"DropID": 5587,
		"TeamDropID": 8102,
		"OperationalActivityDropID": 10027,
		"DayBonusDropID": 5576,
		"DayBonusExtraDropID": 0,
		"DisplayRewardCount": 4,
		"Icon1": "UI/Uncharted_ABS/Occupation_Water.png",
		"Icon2": "UI/Uncharted_ABS/Occupation_Assassin.png",
		"Strategy": ""
	},
	{
		"ID": 71,
		"Name": "300lbs Lethal Light",
		"TeamName": "Lv.65",
		"PreLevel": 70,
		"TicketCost": 0,
		"EnergySuccess": 20,
		"EnergyFail": 4,
		"TeamEnergyCost": 16,
		"MonsterLevel": 65,
		"BattleID": 949,
		"PlayerExp": 20,
		"HeroExp": 160,
		"Gold": 2564,
		"DropID": 5588,
		"TeamDropID": 8103,
		"OperationalActivityDropID": 10027,
		"DayBonusDropID": 5577,
		"DayBonusExtraDropID": 0,
		"DisplayRewardCount": 4,
		"Icon1": "UI/Uncharted_ABS/Occupation_Fly.png",
		"Icon2": "UI/Uncharted_ABS/Occupation_Water.png",
		"Strategy": ""
	},
	{
		"ID": 81,
		"Name": "60lbs Muscles ♂ Rip",
		"TeamName": "Lv.15",
		"PreLevel": 0,
		"TicketCost": 0,
		"EnergySuccess": 20,
		"EnergyFail": 4,
		"TeamEnergyCost": 16,
		"MonsterLevel": 15,
		"BattleID": 920,
		"PlayerExp": 20,
		"HeroExp": 74,
		"Gold": 530,
		"DropID": 5600,
		"TeamDropID": 8104,
		"OperationalActivityDropID": 10027,
		"DayBonusDropID": 5589,
		"DayBonusExtraDropID": 0,
		"DisplayRewardCount": 3,
		"Icon1": "UI/Uncharted_ABS/Occupation_Marines.png",
		"Icon2": "UI/Uncharted_ABS/Occupation_Cavalry.png",
		"Strategy": ""
	},
	{
		"ID": 82,
		"Name": "80lbs Strength ♂ Breakthrough",
		"TeamName": "Lv.20",
		"PreLevel": 81,
		"TicketCost": 0,
		"EnergySuccess": 20,
		"EnergyFail": 4,
		"TeamEnergyCost": 16,
		"MonsterLevel": 20,
		"BattleID": 921,
		"PlayerExp": 20,
		"HeroExp": 80,
		"Gold": 688,
		"DropID": 5601,
		"TeamDropID": 8105,
		"OperationalActivityDropID": 10027,
		"DayBonusDropID": 5590,
		"DayBonusExtraDropID": 0,
		"DisplayRewardCount": 3,
		"Icon1": "UI/Uncharted_ABS/Occupation_Marines.png",
		"Icon2": "UI/Uncharted_ABS/Occupation_Cavalry.png",
		"Strategy": ""
	},
	{
		"ID": 83,
		"Name": "100lbs Barehand ♂ Explode",
		"TeamName": "Lv.25",
		"PreLevel": 82,
		"TicketCost": 0,
		"EnergySuccess": 20,
		"EnergyFail": 4,
		"TeamEnergyCost": 16,
		"MonsterLevel": 25,
		"BattleID": 922,
		"PlayerExp": 20,
		"HeroExp": 90,
		"Gold": 866,
		"DropID": 5602,
		"TeamDropID": 8106,
		"OperationalActivityDropID": 10027,
		"DayBonusDropID": 5591,
		"DayBonusExtraDropID": 0,
		"DisplayRewardCount": 4,
		"Icon1": "UI/Uncharted_ABS/Occupation_Cavalry.png",
		"Icon2": "UI/Uncharted_ABS/Occupation_Fly.png",
		"Strategy": ""
	},
	{
		"ID": 84,
		"Name": "120lbs Upper Limb ♂ Breakthrough",
		"TeamName": "Lv.30",
		"PreLevel": 83,
		"TicketCost": 0,
		"EnergySuccess": 20,
		"EnergyFail": 4,
		"TeamEnergyCost": 16,
		"MonsterLevel": 30,
		"BattleID": 922,
		"PlayerExp": 20,
		"HeroExp": 100,
		"Gold": 1062,
		"DropID": 5603,
		"TeamDropID": 8107,
		"OperationalActivityDropID": 10027,
		"DayBonusDropID": 5592,
		"DayBonusExtraDropID": 0,
		"DisplayRewardCount": 4,
		"Icon1": "UI/Uncharted_ABS/Occupation_Cavalry.png",
		"Icon2": "UI/Uncharted_ABS/Occupation_Fly.png",
		"Strategy": ""
	},
	{
		"ID": 85,
		"Name": "140lbs Bicycle ♂ Burn Fat",
		"TeamName": "Lv.35",
		"PreLevel": 84,
		"TicketCost": 0,
		"EnergySuccess": 20,
		"EnergyFail": 4,
		"TeamEnergyCost": 16,
		"MonsterLevel": 35,
		"BattleID": 923,
		"PlayerExp": 20,
		"HeroExp": 110,
		"Gold": 1276,
		"DropID": 5604,
		"TeamDropID": 8108,
		"OperationalActivityDropID": 10027,
		"DayBonusDropID": 5593,
		"DayBonusExtraDropID": 0,
		"DisplayRewardCount": 4,
		"Icon1": "UI/Uncharted_ABS/Occupation_Cavalry.png",
		"Icon2": "UI/Uncharted_ABS/Occupation_Cavalry.png",
		"Strategy": ""
	},
	{
		"ID": 86,
		"Name": "160lbs Muscles ♂ Thrive",
		"TeamName": "Lv.40",
		"PreLevel": 85,
		"TicketCost": 0,
		"EnergySuccess": 20,
		"EnergyFail": 4,
		"TeamEnergyCost": 16,
		"MonsterLevel": 40,
		"BattleID": 924,
		"PlayerExp": 20,
		"HeroExp": 120,
		"Gold": 1504,
		"DropID": 5605,
		"TeamDropID": 8109,
		"OperationalActivityDropID": 10027,
		"DayBonusDropID": 5594,
		"DayBonusExtraDropID": 0,
		"DisplayRewardCount": 4,
		"Icon1": "UI/Uncharted_ABS/Occupation_Cavalry.png",
		"Icon2": "UI/Uncharted_ABS/Occupation_Cavalry.png",
		"Strategy": ""
	},
	{
		"ID": 87,
		"Name": "180lbs Back Muscles ♂ Burst",
		"TeamName": "Lv.45",
		"PreLevel": 86,
		"TicketCost": 0,
		"EnergySuccess": 20,
		"EnergyFail": 4,
		"TeamEnergyCost": 16,
		"MonsterLevel": 45,
		"BattleID": 925,
		"PlayerExp": 20,
		"HeroExp": 130,
		"Gold": 1750,
		"DropID": 5606,
		"TeamDropID": 8110,
		"OperationalActivityDropID": 10027,
		"DayBonusDropID": 5595,
		"DayBonusExtraDropID": 0,
		"DisplayRewardCount": 4,
		"Icon1": "UI/Uncharted_ABS/Occupation_Cavalry.png",
		"Icon2": "UI/Uncharted_ABS/Occupation_Assassin.png",
		"Strategy": ""
	},
	{
		"ID": 88,
		"Name": "200lbs Devil ♂ Dynamic",
		"TeamName": "Lv.50",
		"PreLevel": 87,
		"TicketCost": 0,
		"EnergySuccess": 20,
		"EnergyFail": 4,
		"TeamEnergyCost": 16,
		"MonsterLevel": 50,
		"BattleID": 926,
		"PlayerExp": 20,
		"HeroExp": 140,
		"Gold": 2008,
		"DropID": 5607,
		"TeamDropID": 8111,
		"OperationalActivityDropID": 10027,
		"DayBonusDropID": 5596,
		"DayBonusExtraDropID": 0,
		"DisplayRewardCount": 4,
		"Icon1": "UI/Uncharted_ABS/Occupation_Cavalry.png",
		"Icon2": "UI/Uncharted_ABS/Occupation_Assassin.png",
		"Strategy": ""
	},
	{
		"ID": 89,
		"Name": "220lbs Hell ♂ Stretch",
		"TeamName": "Lv.55",
		"PreLevel": 88,
		"TicketCost": 0,
		"EnergySuccess": 20,
		"EnergyFail": 4,
		"TeamEnergyCost": 16,
		"MonsterLevel": 55,
		"BattleID": 927,
		"PlayerExp": 20,
		"HeroExp": 150,
		"Gold": 2280,
		"DropID": 5608,
		"TeamDropID": 8112,
		"OperationalActivityDropID": 10027,
		"DayBonusDropID": 5597,
		"DayBonusExtraDropID": 0,
		"DisplayRewardCount": 4,
		"Icon1": "UI/Uncharted_ABS/Occupation_Infantryman.png",
		"Icon2": "UI/Uncharted_ABS/Occupation_Cavalry.png",
		"Strategy": ""
	},
	{
		"ID": 90,
		"Name": "240lbs Dark Meditation",
		"TeamName": "Lv.60",
		"PreLevel": 89,
		"TicketCost": 0,
		"EnergySuccess": 20,
		"EnergyFail": 4,
		"TeamEnergyCost": 16,
		"MonsterLevel": 60,
		"BattleID": 928,
		"PlayerExp": 20,
		"HeroExp": 160,
		"Gold": 2564,
		"DropID": 5609,
		"TeamDropID": 8113,
		"OperationalActivityDropID": 10027,
		"DayBonusDropID": 5598,
		"DayBonusExtraDropID": 0,
		"DisplayRewardCount": 4,
		"Icon1": "UI/Uncharted_ABS/Occupation_Infantryman.png",
		"Icon2": "UI/Uncharted_ABS/Occupation_Cavalry.png",
		"Strategy": ""
	},
	{
		"ID": 91,
		"Name": "300lbs Lethal Light",
		"TeamName": "Lv.65",
		"PreLevel": 90,
		"TicketCost": 0,
		"EnergySuccess": 20,
		"EnergyFail": 4,
		"TeamEnergyCost": 16,
		"MonsterLevel": 65,
		"BattleID": 929,
		"PlayerExp": 20,
		"HeroExp": 160,
		"Gold": 2564,
		"DropID": 5610,
		"TeamDropID": 8114,
		"OperationalActivityDropID": 10027,
		"DayBonusDropID": 5599,
		"DayBonusExtraDropID": 0,
		"DisplayRewardCount": 4,
		"Icon1": "UI/Uncharted_ABS/Occupation_Cavalry.png",
		"Icon2": "UI/Uncharted_ABS/Occupation_Magician.png",
		"Strategy": ""
	},
	{
		"ID": 101,
		"Name": "60lbs Muscles ♂ Rip",
		"TeamName": "Lv.15",
		"PreLevel": 0,
		"TicketCost": 0,
		"EnergySuccess": 20,
		"EnergyFail": 4,
		"TeamEnergyCost": 16,
		"MonsterLevel": 15,
		"BattleID": 950,
		"PlayerExp": 20,
		"HeroExp": 74,
		"Gold": 530,
		"DropID": 5622,
		"TeamDropID": 8115,
		"OperationalActivityDropID": 10027,
		"DayBonusDropID": 5611,
		"DayBonusExtraDropID": 0,
		"DisplayRewardCount": 3,
		"Icon1": "UI/Uncharted_ABS/Occupation_Monk.png",
		"Icon2": "UI/Uncharted_ABS/Occupation_Archer.png",
		"Strategy": ""
	},
	{
		"ID": 102,
		"Name": "80lbs Strength ♂ Breakthrough",
		"TeamName": "Lv.20",
		"PreLevel": 101,
		"TicketCost": 0,
		"EnergySuccess": 20,
		"EnergyFail": 4,
		"TeamEnergyCost": 16,
		"MonsterLevel": 20,
		"BattleID": 951,
		"PlayerExp": 20,
		"HeroExp": 80,
		"Gold": 688,
		"DropID": 5623,
		"TeamDropID": 8116,
		"OperationalActivityDropID": 10027,
		"DayBonusDropID": 5612,
		"DayBonusExtraDropID": 0,
		"DisplayRewardCount": 3,
		"Icon1": "UI/Uncharted_ABS/Occupation_Monk.png",
		"Icon2": "UI/Uncharted_ABS/Occupation_Archer.png",
		"Strategy": ""
	},
	{
		"ID": 103,
		"Name": "100lbs Barehand ♂ Explode",
		"TeamName": "Lv.25",
		"PreLevel": 102,
		"TicketCost": 0,
		"EnergySuccess": 20,
		"EnergyFail": 4,
		"TeamEnergyCost": 16,
		"MonsterLevel": 25,
		"BattleID": 952,
		"PlayerExp": 20,
		"HeroExp": 90,
		"Gold": 866,
		"DropID": 5624,
		"TeamDropID": 8117,
		"OperationalActivityDropID": 10027,
		"DayBonusDropID": 5613,
		"DayBonusExtraDropID": 0,
		"DisplayRewardCount": 4,
		"Icon1": "UI/Uncharted_ABS/Occupation_Monster.png",
		"Icon2": "UI/Uncharted_ABS/Occupation_Cavalry.png",
		"Strategy": ""
	},
	{
		"ID": 104,
		"Name": "120lbs Upper Limb ♂ Breakthrough",
		"TeamName": "Lv.30",
		"PreLevel": 103,
		"TicketCost": 0,
		"EnergySuccess": 20,
		"EnergyFail": 4,
		"TeamEnergyCost": 16,
		"MonsterLevel": 30,
		"BattleID": 952,
		"PlayerExp": 20,
		"HeroExp": 100,
		"Gold": 1062,
		"DropID": 5625,
		"TeamDropID": 8118,
		"OperationalActivityDropID": 10027,
		"DayBonusDropID": 5614,
		"DayBonusExtraDropID": 0,
		"DisplayRewardCount": 4,
		"Icon1": "UI/Uncharted_ABS/Occupation_Monster.png",
		"Icon2": "UI/Uncharted_ABS/Occupation_Cavalry.png",
		"Strategy": ""
	},
	{
		"ID": 105,
		"Name": "140lbs Bicycle ♂ Burn Fat",
		"TeamName": "Lv.35",
		"PreLevel": 104,
		"TicketCost": 0,
		"EnergySuccess": 20,
		"EnergyFail": 4,
		"TeamEnergyCost": 16,
		"MonsterLevel": 35,
		"BattleID": 953,
		"PlayerExp": 20,
		"HeroExp": 110,
		"Gold": 1276,
		"DropID": 5626,
		"TeamDropID": 8119,
		"OperationalActivityDropID": 10027,
		"DayBonusDropID": 5615,
		"DayBonusExtraDropID": 0,
		"DisplayRewardCount": 4,
		"Icon1": "UI/Uncharted_ABS/Occupation_Monk.png",
		"Icon2": "UI/Uncharted_ABS/Occupation_Marines.png",
		"Strategy": ""
	},
	{
		"ID": 106,
		"Name": "160lbs Muscles ♂ Thrive",
		"TeamName": "Lv.40",
		"PreLevel": 105,
		"TicketCost": 0,
		"EnergySuccess": 20,
		"EnergyFail": 4,
		"TeamEnergyCost": 16,
		"MonsterLevel": 40,
		"BattleID": 954,
		"PlayerExp": 20,
		"HeroExp": 120,
		"Gold": 1504,
		"DropID": 5627,
		"TeamDropID": 8120,
		"OperationalActivityDropID": 10027,
		"DayBonusDropID": 5616,
		"DayBonusExtraDropID": 0,
		"DisplayRewardCount": 4,
		"Icon1": "UI/Uncharted_ABS/Occupation_Monk.png",
		"Icon2": "UI/Uncharted_ABS/Occupation_Marines.png",
		"Strategy": ""
	},
	{
		"ID": 107,
		"Name": "180lbs Back Muscles ♂ Burst",
		"TeamName": "Lv.45",
		"PreLevel": 106,
		"TicketCost": 0,
		"EnergySuccess": 20,
		"EnergyFail": 4,
		"TeamEnergyCost": 16,
		"MonsterLevel": 45,
		"BattleID": 955,
		"PlayerExp": 20,
		"HeroExp": 130,
		"Gold": 1750,
		"DropID": 5628,
		"TeamDropID": 8121,
		"OperationalActivityDropID": 10027,
		"DayBonusDropID": 5617,
		"DayBonusExtraDropID": 0,
		"DisplayRewardCount": 4,
		"Icon1": "UI/Uncharted_ABS/Occupation_Monster.png",
		"Icon2": "UI/Uncharted_ABS/Occupation_Infantryman.png",
		"Strategy": ""
	},
	{
		"ID": 108,
		"Name": "200lbs Devil ♂ Dynamic",
		"TeamName": "Lv.50",
		"PreLevel": 107,
		"TicketCost": 0,
		"EnergySuccess": 20,
		"EnergyFail": 4,
		"TeamEnergyCost": 16,
		"MonsterLevel": 50,
		"BattleID": 956,
		"PlayerExp": 20,
		"HeroExp": 140,
		"Gold": 2008,
		"DropID": 5629,
		"TeamDropID": 8122,
		"OperationalActivityDropID": 10027,
		"DayBonusDropID": 5618,
		"DayBonusExtraDropID": 0,
		"DisplayRewardCount": 4,
		"Icon1": "UI/Uncharted_ABS/Occupation_Monster.png",
		"Icon2": "UI/Uncharted_ABS/Occupation_Infantryman.png",
		"Strategy": ""
	},
	{
		"ID": 109,
		"Name": "220lbs Hell ♂ Stretch",
		"TeamName": "Lv.55",
		"PreLevel": 108,
		"TicketCost": 0,
		"EnergySuccess": 20,
		"EnergyFail": 4,
		"TeamEnergyCost": 16,
		"MonsterLevel": 55,
		"BattleID": 957,
		"PlayerExp": 20,
		"HeroExp": 150,
		"Gold": 2280,
		"DropID": 5630,
		"TeamDropID": 8123,
		"OperationalActivityDropID": 10027,
		"DayBonusDropID": 5619,
		"DayBonusExtraDropID": 0,
		"DisplayRewardCount": 4,
		"Icon1": "UI/Uncharted_ABS/Occupation_Monk.png",
		"Icon2": "UI/Uncharted_ABS/Occupation_Fly.png",
		"Strategy": ""
	},
	{
		"ID": 110,
		"Name": "240lbs Dark Meditation",
		"TeamName": "Lv.60",
		"PreLevel": 109,
		"TicketCost": 0,
		"EnergySuccess": 20,
		"EnergyFail": 4,
		"TeamEnergyCost": 16,
		"MonsterLevel": 60,
		"BattleID": 958,
		"PlayerExp": 20,
		"HeroExp": 160,
		"Gold": 2564,
		"DropID": 5631,
		"TeamDropID": 8124,
		"OperationalActivityDropID": 10027,
		"DayBonusDropID": 5620,
		"DayBonusExtraDropID": 0,
		"DisplayRewardCount": 4,
		"Icon1": "UI/Uncharted_ABS/Occupation_Monster.png",
		"Icon2": "UI/Uncharted_ABS/Occupation_Assassin.png",
		"Strategy": ""
	},
	{
		"ID": 111,
		"Name": "300lbs Lethal Light",
		"TeamName": "Lv.65",
		"PreLevel": 110,
		"TicketCost": 0,
		"EnergySuccess": 20,
		"EnergyFail": 4,
		"TeamEnergyCost": 16,
		"MonsterLevel": 65,
		"BattleID": 959,
		"PlayerExp": 20,
		"HeroExp": 160,
		"Gold": 2564,
		"DropID": 5632,
		"TeamDropID": 8125,
		"OperationalActivityDropID": 10027,
		"DayBonusDropID": 5621,
		"DayBonusExtraDropID": 0,
		"DisplayRewardCount": 4,
		"Icon1": "UI/Uncharted_ABS/Occupation_Monster.png",
		"Icon2": "UI/Uncharted_ABS/Occupation_Monk.png",
		"Strategy": ""
	}
]