[
	{
		"ID": 801,
		"Name": "Lana - Question",
		"NextWordID": 802,
		"FrameType": 0,
		"Animation": "idle_Normal",
		"Word": "{NAME}, right? N..no! It's not like I'm having trouble remembering your name at a time like this. Don't be so embarassing.",
		"Voice": ""
	},
	{
		"ID": 802,
		"Name": "Lana - Question",
		"NextWordID": 0,
		"FrameType": 0,
		"Animation": "idle_Shy",
		"Word": "Say, do you still remember the day we made our first memory together?",
		"Voice": ""
	},
	{
		"ID": 803,
		"Name": "Lana - Correct Response",
		"NextWordID": 804,
		"FrameType": 0,
		"Animation": "idle_Shy",
		"Word": "Of course you were right. Hmph. There's no way you'd lose to someone like me. Uhm so about that... you feel the same way, right?",
		"Voice": ""
	},
	{
		"ID": 804,
		"Name": "Lana - Correct Response",
		"NextWordID": 0,
		"FrameType": 0,
		"Animation": "idle_Angry",
		"Word": "It's not like I went out of my way or anything, but why do I have to take the initiative? Just open this letter stupid.",
		"Voice": ""
	},
	{
		"ID": 805,
		"Name": "Lana - Wrong Response",
		"NextWordID": 806,
		"FrameType": 0,
		"Animation": "idle_Angry",
		"Word": "You're way off! Why did I even hope you'd remember… idiot! You must not even care?",
		"Voice": ""
	},
	{
		"ID": 806,
		"Name": "Lana - Wrong Response",
		"NextWordID": 0,
		"FrameType": 0,
		"Animation": "idle_Normal",
		"Word": "Just as expected of my servant. Don't disappoint your master now, go on… open my letter. …Please?",
		"Voice": ""
	},
	{
		"ID": 807,
		"Name": "Lana - Forgotten Response",
		"NextWordID": 808,
		"FrameType": 0,
		"Animation": "idle_Sad",
		"Word": "Must we humans always forget the important things? Just like how our history will be forgotten by our descendants through time…",
		"Voice": ""
	},
	{
		"ID": 808,
		"Name": "Lana - Forgotten Response",
		"NextWordID": 0,
		"FrameType": 0,
		"Animation": "idle_Smile",
		"Word": "Oh? It doesn't matter then. When it comes to unrequieted love, I seem to be the expert…",
		"Voice": ""
	},
	{
		"ID": 809,
		"Name": "Lana - Confession",
		"NextWordID": 0,
		"FrameType": 0,
		"Animation": "",
		"Word": "I lost my way when my soul was taken by Bozel and the Darkness. I vowed to never be led astray again. After meeting you, {NAME}... my heart… it's yours now. You better take responsibility!",
		"Voice": "Gaobai004_04"
	},
	{
		"ID": 1401,
		"Name": "Cherie - Question",
		"NextWordID": 1402,
		"FrameType": 0,
		"Animation": "idle_Normal",
		"Word": "Hey! I have something for you to look at, but...you have to answer my question!",
		"Voice": ""
	},
	{
		"ID": 1402,
		"Name": "Cherie Question",
		"NextWordID": 0,
		"FrameType": 0,
		"Animation": "idle_Shy",
		"Word": "Do you remember our first memory together?",
		"Voice": ""
	},
	{
		"ID": 1403,
		"Name": "Cherie - Correct Response",
		"NextWordID": 1404,
		"FrameType": 0,
		"Animation": "idle_Smile",
		"Word": "Really? C'mon, you've got to remember! Think harder!",
		"Voice": ""
	},
	{
		"ID": 1404,
		"Name": "Cherie - Correct Response",
		"NextWordID": 0,
		"FrameType": 0,
		"Animation": "idle_Normal",
		"Word": "I knew my instincts were correct! You're the best partner I could ask for, {NAME}!",
		"Voice": ""
	},
	{
		"ID": 1405,
		"Name": "Cherie - Wrong Response",
		"NextWordID": 1406,
		"FrameType": 0,
		"Animation": "idle_Smile",
		"Word": "Are you sure about that? That seems a bit fishy… Hey why are you asking me to remember? This is my question!",
		"Voice": ""
	},
	{
		"ID": 1406,
		"Name": "Cherie - Wrong Response",
		"NextWordID": 0,
		"FrameType": 0,
		"Animation": "idle_Normal",
		"Word": "Look at you, scratching your head -- you're so adorable! I'll pretend you got it right!",
		"Voice": ""
	},
	{
		"ID": 1407,
		"Name": "Cherie - Forgotten Response",
		"NextWordID": 1408,
		"FrameType": 0,
		"Animation": "idle_Smile",
		"Word": "Aww, you really did forget, didn't you? You're just like me… the thrill of battle filling up what precious space we have in our brain.",
		"Voice": ""
	},
	{
		"ID": 1408,
		"Name": "Cherie - Forgotten Response",
		"NextWordID": 0,
		"FrameType": 0,
		"Animation": "idle_Shy",
		"Word": "Then...Do you still want to read this letter I wrote?",
		"Voice": ""
	},
	{
		"ID": 1409,
		"Name": "Cherie - Confession",
		"NextWordID": 0,
		"FrameType": 0,
		"Animation": "",
		"Word": "{NAME}, I find myself attached to you… You understand me at a level no one else can. How we both hate being tied down, and love our freedom. Take my hand, let's run away, together!",
		"Voice": "Gaobai013_04"
	},
	{
		"ID": 2601,
		"Name": "Luna - Question",
		"NextWordID": 2602,
		"FrameType": 0,
		"Animation": "idle_Normal",
		"Word": "Young Master {NAME}, pardon my bluntness… But I have served you for a long time, and I am wondering… Am I a good strategist for our forces? Do I please you, commander?",
		"Voice": ""
	},
	{
		"ID": 2602,
		"Name": "Luna Question",
		"NextWordID": 0,
		"FrameType": 0,
		"Animation": "idle_Smile",
		"Word": "This is a bit sudden, but do you recall the day we first bonded? When was it?",
		"Voice": ""
	},
	{
		"ID": 2603,
		"Name": "Luna - Correct Response",
		"NextWordID": 2604,
		"FrameType": 0,
		"Animation": "idle_Smile",
		"Word": "Oh ho, you really aren't lacking in memory. I am quite lucky to be your personal strategist.",
		"Voice": ""
	},
	{
		"ID": 2604,
		"Name": "Luna - Correct Response",
		"NextWordID": 0,
		"FrameType": 0,
		"Animation": "idle_Shy",
		"Word": "I wish I could have more personal time with you, it brings me great joy… I find myself happy to be on your side.",
		"Voice": ""
	},
	{
		"ID": 2605,
		"Name": "Luna - Wrong Response",
		"NextWordID": 2606,
		"FrameType": 0,
		"Animation": "idle_Normal",
		"Word": "Ah, you can't answer? Oh, no don't take that as an insult, I am merely disappointed somewhat…",
		"Voice": ""
	},
	{
		"ID": 2606,
		"Name": "Luna - Wrong Response",
		"NextWordID": 0,
		"FrameType": 0,
		"Animation": "idle_Normal",
		"Word": "These private moments should naturally be chronicled, {NAME}. I am an astute author myself. Let me be your personal writer. We can catalogue our favorite strategies together.",
		"Voice": ""
	},
	{
		"ID": 2607,
		"Name": "Luna - Forgotten Response",
		"NextWordID": 2608,
		"FrameType": 0,
		"Animation": "idle_Normal",
		"Word": "Hmph. Maybe I should've thought twice before bothering you with such trifling matters…",
		"Voice": ""
	},
	{
		"ID": 2608,
		"Name": "Luna - Forgotten Response",
		"NextWordID": 0,
		"FrameType": 0,
		"Animation": "idle_Normal",
		"Word": "Regardless, I've penned a letter for you, Young Master {NAME}, please read it…",
		"Voice": ""
	},
	{
		"ID": 2609,
		"Name": "Luna - Confession",
		"NextWordID": 0,
		"FrameType": 0,
		"Animation": "",
		"Word": "I've failed you as a military advisor, {NAME}… try as I might, my heart's frontlines were broken by your charging cavalry, and my rear guard flanked on both sides. I've been overwhelmed by your sheer skill…",
		"Voice": "Gaobai010_04"
	},
	{
		"ID": 2901,
		"Name": "Tiaris - Question",
		"NextWordID": 2902,
		"FrameType": 0,
		"Animation": "idle_Smile",
		"Word": "{NAME}, can I ask you a question? Hee-hee…",
		"Voice": ""
	},
	{
		"ID": 2902,
		"Name": "Tiaris Questions",
		"NextWordID": 0,
		"FrameType": 0,
		"Animation": "idle_Normal",
		"Word": "You know... When did this \"bond\" begin between us? Huh? Why do you look so nervous?",
		"Voice": ""
	},
	{
		"ID": 2903,
		"Name": "Tiaris - Correct reaction",
		"NextWordID": 2904,
		"FrameType": 0,
		"Animation": "idle_Smile",
		"Word": "Every single day, it seems like... You really do like me!",
		"Voice": ""
	},
	{
		"ID": 2904,
		"Name": "Tiaris - Correct reaction",
		"NextWordID": 0,
		"FrameType": 0,
		"Animation": "idle_Shy",
		"Word": "I don't want to be so obvious. I don't want everyone to know about it... I'll be embarrassed!",
		"Voice": ""
	},
	{
		"ID": 2905,
		"Name": "Tiaris - Wrong reaction",
		"NextWordID": 2906,
		"FrameType": 0,
		"Animation": "idle_Angry",
		"Word": "No! It wasn't that day! No matter how you insist, it's still not right!",
		"Voice": ""
	},
	{
		"ID": 2906,
		"Name": "Tiaris - Wrong reaction",
		"NextWordID": 0,
		"FrameType": 0,
		"Animation": "idle_Smile",
		"Word": "Heh-heh-heh, I'm not some kind of demon... Anyway, this time you passed!",
		"Voice": ""
	},
	{
		"ID": 2907,
		"Name": "Tiaris - Forgot reaction",
		"NextWordID": 2908,
		"FrameType": 0,
		"Animation": "idle_Smile",
		"Word": "People say that those in relationships find it easier to forget things! Sounds about right, hee-hee...",
		"Voice": ""
	},
	{
		"ID": 2908,
		"Name": "Tiaris - Forgot reaction",
		"NextWordID": 0,
		"FrameType": 0,
		"Animation": "idle_Normal",
		"Word": "Let's forget about what happened before. {NAME}, let's make today our anniversary. You'd better remember this date, or else I'll be really angry with you!",
		"Voice": ""
	},
	{
		"ID": 2909,
		"Name": "Tiaris - Confession",
		"NextWordID": 0,
		"FrameType": 0,
		"Animation": "",
		"Word": "Shh! This is a secret between us -- don't tell anyone else! I'll treasure this relationship! I'm still young, but please be by my side when I grow up!",
		"Voice": "Gaobai018_04"
	},
	{
		"ID": 501,
		"Name": "Chris - Question",
		"NextWordID": 502,
		"FrameType": 0,
		"Animation": "idle_Normal",
		"Word": "Hey, {NAME}! Do you still remember when \"that day\" was?",
		"Voice": ""
	},
	{
		"ID": 502,
		"Name": "Chris Questions",
		"NextWordID": 0,
		"FrameType": 0,
		"Animation": "idle_Normal",
		"Word": "If you answer correctly, I will give you a special gift!",
		"Voice": ""
	},
	{
		"ID": 503,
		"Name": "Chris - Correct reaction",
		"NextWordID": 504,
		"FrameType": 0,
		"Animation": "idle_Smile",
		"Word": "Ah! {NAME}, you remembered! You are so sweet! I feel so lucky to have you!",
		"Voice": ""
	},
	{
		"ID": 504,
		"Name": "Chris - Correct reaction",
		"NextWordID": 0,
		"FrameType": 0,
		"Animation": "idle_Shy",
		"Word": "Ah, I was so excited, I almost forgot something important! Here, this letter... It's for you...",
		"Voice": ""
	},
	{
		"ID": 505,
		"Name": "Chris - Wrong reaction",
		"NextWordID": 506,
		"FrameType": 0,
		"Animation": "idle_Smile",
		"Word": "Ha-ha, nope! I lied! Even if you can't answer that question...",
		"Voice": ""
	},
	{
		"ID": 506,
		"Name": "Chris - Wrong reaction",
		"NextWordID": 0,
		"FrameType": 0,
		"Animation": "idle_Normal",
		"Word": "My most precious gift... I've decided to give it to you! Please take a look!",
		"Voice": ""
	},
	{
		"ID": 507,
		"Name": "Chris - Forgot reaction",
		"NextWordID": 508,
		"FrameType": 0,
		"Animation": "idle_Angry",
		"Word": "What... Even if you chose a random day, I don't mind. {NAME}, you don't have to be so honest!",
		"Voice": ""
	},
	{
		"ID": 508,
		"Name": "Chris - Forgot reaction",
		"NextWordID": 0,
		"FrameType": 0,
		"Animation": "idle_Sad",
		"Word": "What place do I, Chris, hold in your heart... Think about it, {NAME}!",
		"Voice": ""
	},
	{
		"ID": 509,
		"Name": "Chris - Confession",
		"NextWordID": 0,
		"FrameType": 0,
		"Animation": "",
		"Word": "You are so perfect in my eyes. I can't find any gifts that are suitable for you! Hee-hee... I can only give myself to you, {NAME}!",
		"Voice": "Gaobai007_04"
	},
	{
		"ID": 1501,
		"Name": "Liana - Question",
		"NextWordID": 1502,
		"FrameType": 0,
		"Animation": "idle_Normal",
		"Word": "Today is a big day. Although there are innumerable thoughts and fears in my mind... I finally made up my mind.",
		"Voice": ""
	},
	{
		"ID": 1502,
		"Name": "Liana Questions",
		"NextWordID": 0,
		"FrameType": 0,
		"Animation": "idle_Normal",
		"Word": "Can I... Ask you one question first? Can you still remember the day we crossed time and... made those \"bonds\"?",
		"Voice": ""
	},
	{
		"ID": 1503,
		"Name": "Liana - Correct reaction",
		"NextWordID": 1504,
		"FrameType": 0,
		"Animation": "idle_Shy",
		"Word": "You remember!? I'm so happy...",
		"Voice": ""
	},
	{
		"ID": 1504,
		"Name": "Liana - Correct reaction",
		"NextWordID": 0,
		"FrameType": 0,
		"Animation": "idle_Normal",
		"Word": "I always think about that first day, and without realizing, I'm here now today, with you.",
		"Voice": ""
	},
	{
		"ID": 1505,
		"Name": "Liana - Wrong reaction",
		"NextWordID": 1506,
		"FrameType": 0,
		"Animation": "idle_Smile",
		"Word": "That's wrong. Ugh, that's kind of a hard question. I'm sorry!",
		"Voice": ""
	},
	{
		"ID": 1506,
		"Name": "Liana - Wrong reaction",
		"NextWordID": 0,
		"FrameType": 0,
		"Animation": "idle_Normal",
		"Word": "Actually, you don't need to remember -- I will remember for the both of us! I... I'll keep it in my mind forever.",
		"Voice": ""
	},
	{
		"ID": 1507,
		"Name": "Liana - Forgot reaction",
		"NextWordID": 1508,
		"FrameType": 0,
		"Animation": "idle_Smile",
		"Word": "Ha-ha... That's wrong. What a terrible answer. No girl will ever like you if you go on like this!",
		"Voice": ""
	},
	{
		"ID": 1508,
		"Name": "Liana - Forgot reaction",
		"NextWordID": 0,
		"FrameType": 0,
		"Animation": "idle_Normal",
		"Word": "I didn't expect I'd become so reckless. Is it because you're always spoiling me...?",
		"Voice": ""
	},
	{
		"ID": 1509,
		"Name": "Liana - Confession",
		"NextWordID": 0,
		"FrameType": 0,
		"Animation": "",
		"Word": "My first and last wish is that everyone in this world can live happily... And in this life, I want to spend all my time making you happy, {NAME}!",
		"Voice": "Gaobai005_04"
	},
	{
		"ID": 5101,
		"Name": "Shelfaniel - Question",
		"NextWordID": 5102,
		"FrameType": 0,
		"Animation": "idle_Shy",
		"Word": "Excuse me, today's wind is really noisy... No, I'm not trying to chat, it's just I have something on my mind...",
		"Voice": ""
	},
	{
		"ID": 5102,
		"Name": "Shelfaniel Questions",
		"NextWordID": 0,
		"FrameType": 0,
		"Animation": "idle_Smile",
		"Word": "...Ah, let's talk about something else! Do you still remember the day we started the heart bond between us?",
		"Voice": ""
	},
	{
		"ID": 5103,
		"Name": "Shelfaniel - Correct reaction",
		"NextWordID": 5104,
		"FrameType": 0,
		"Animation": "idle_Surprise",
		"Word": "Uh? Really? {NAME}, was that an important day for you?",
		"Voice": ""
	},
	{
		"ID": 5104,
		"Name": "Shelfaniel - Correct reaction",
		"NextWordID": 0,
		"FrameType": 0,
		"Animation": "idle_Shy",
		"Word": "Well, it's the same for me... Every adventure with you changed my life...",
		"Voice": ""
	},
	{
		"ID": 5105,
		"Name": "Shelfaniel - Wrong reaction",
		"NextWordID": 5106,
		"FrameType": 0,
		"Animation": "idle_Sad",
		"Word": "Oops, you're wrong... But it's ok, time is just a number.",
		"Voice": ""
	},
	{
		"ID": 5106,
		"Name": "Shelfaniel - Wrong reaction",
		"NextWordID": 0,
		"FrameType": 0,
		"Animation": "idle_Smile",
		"Word": "I can remember these little things for Lord {NAME}...",
		"Voice": ""
	},
	{
		"ID": 5107,
		"Name": "Shelfaniel - Forget reaction",
		"NextWordID": 5108,
		"FrameType": 0,
		"Animation": "idle_Sad",
		"Word": "You forgot... There's nothing more to say then...",
		"Voice": ""
	},
	{
		"ID": 5108,
		"Name": "Shelfaniel - Forget reaction",
		"NextWordID": 0,
		"FrameType": 0,
		"Animation": "idle_Angry",
		"Word": "Lord {NAME}, please treasure me from now on! Otherwise, there'll be trouble!",
		"Voice": ""
	},
	{
		"ID": 5109,
		"Name": "Shelfaniel - Confession",
		"NextWordID": 0,
		"FrameType": 0,
		"Animation": "",
		"Word": "Lord {NAME}, it is often said that \"escape, though shameful, lets you fight another day\"... But I can't put up with it any longer. Please stand beside me...",
		"Voice": "Gaobai553_05"
	},
	{
		"ID": 2801,
		"Name": "Zerida - Question",
		"NextWordID": 2802,
		"FrameType": 0,
		"Animation": "idle_Smile",
		"Word": "Lord {NAME}, let me come bite you! Heh-heh...",
		"Voice": ""
	},
	{
		"ID": 2802,
		"Name": "Zerida Questions",
		"NextWordID": 0,
		"FrameType": 0,
		"Animation": "idle_Normal",
		"Word": "Do you remember the day we started the heart bond between us? Heh-heh-heh... I remember that!",
		"Voice": ""
	},
	{
		"ID": 2803,
		"Name": "Zerida - Correct reaction",
		"NextWordID": 2804,
		"FrameType": 0,
		"Animation": "idle_Surprise",
		"Word": "Eeek! You remember it! Is this what humans call \"being into someone\"?",
		"Voice": ""
	},
	{
		"ID": 2804,
		"Name": "Zerida - Correct reaction",
		"NextWordID": 0,
		"FrameType": 0,
		"Animation": "idle_Shy",
		"Word": "I'm not into anyone else... I only like you...",
		"Voice": ""
	},
	{
		"ID": 2805,
		"Name": "Zerida - Wrong reaction",
		"NextWordID": 2806,
		"FrameType": 0,
		"Animation": "idle_Angry",
		"Word": "You're wrong, I'm gonna bite you!",
		"Voice": ""
	},
	{
		"ID": 2806,
		"Name": "Zerida - Wrong reaction",
		"NextWordID": 0,
		"FrameType": 0,
		"Animation": "idle_Sad",
		"Word": "Um... I don't have any other friends, so, no matter what you give me... I will remember it clearly.",
		"Voice": ""
	},
	{
		"ID": 2807,
		"Name": "Zerida - Forget reaction",
		"NextWordID": 2808,
		"FrameType": 0,
		"Animation": "idle_Sad",
		"Word": "\"You forgot\"? Will there be a day... That you forget me as well?",
		"Voice": ""
	},
	{
		"ID": 2808,
		"Name": "Zerida - Forget reaction",
		"NextWordID": 0,
		"FrameType": 0,
		"Animation": "idle_Smile",
		"Word": "...Even if {NAME} forgets me, I will stay with you! You'd better think hard!",
		"Voice": ""
	},
	{
		"ID": 2809,
		"Name": "Zerida - Confession",
		"NextWordID": 0,
		"FrameType": 0,
		"Animation": "",
		"Word": "Shh! You don't need to say anything else. For now... Just look into my eyes, okay?",
		"Voice": "Gaobai040_04"
	},
	{
		"ID": 3301,
		"Name": "Freya - Question",
		"NextWordID": 3302,
		"FrameType": 0,
		"Animation": "idle_Surprise",
		"Word": "Ah, it's you! I'm so sorry, when I'm alone... There are always sad memories on my mind...",
		"Voice": ""
	},
	{
		"ID": 3302,
		"Name": "Freya Questions",
		"NextWordID": 0,
		"FrameType": 0,
		"Animation": "idle_Normal",
		"Word": "Remember? The feeling of fighting together, that kind of bond... When did that start between us?",
		"Voice": ""
	},
	{
		"ID": 3303,
		"Name": "Freya - Correct reaction",
		"NextWordID": 3304,
		"FrameType": 0,
		"Animation": "idle_Surprise",
		"Word": "You remembered. You must treasure me a lot, right?",
		"Voice": ""
	},
	{
		"ID": 3304,
		"Name": "Freya - Correct reaction",
		"NextWordID": 0,
		"FrameType": 0,
		"Animation": "idle_Shy",
		"Word": "Whenever war begins, happiness fades... But your hand will always be what I want to hold on to.",
		"Voice": ""
	},
	{
		"ID": 3305,
		"Name": "Freya - Wrong reaction",
		"NextWordID": 3306,
		"FrameType": 0,
		"Animation": "idle_Angry",
		"Word": "It's totally wrong! {NAME}, please wake up! Are the days we fought side by side meaningless to you?",
		"Voice": ""
	},
	{
		"ID": 3306,
		"Name": "Freya - Wrong reaction",
		"NextWordID": 0,
		"FrameType": 0,
		"Animation": "idle_Sad",
		"Word": "...If all this is meaningless... Where should I place my sad heart?",
		"Voice": ""
	},
	{
		"ID": 3307,
		"Name": "Freya - Forget reaction",
		"NextWordID": 3308,
		"FrameType": 0,
		"Animation": "idle_Sad",
		"Word": "You can't answer? As long as there is war, sad things will always happen.",
		"Voice": ""
	},
	{
		"ID": 3308,
		"Name": "Freya - Forget reaction",
		"NextWordID": 0,
		"FrameType": 0,
		"Animation": "idle_Shy",
		"Word": "But this time, I don't want nice people and things... To slip out from under my fingertips.",
		"Voice": ""
	},
	{
		"ID": 3309,
		"Name": "Freya - Confession",
		"NextWordID": 0,
		"FrameType": 0,
		"Animation": "",
		"Word": "You understand? I think, this love has been accurately conveyed... I have given my heart to you. As long as I can be with you, I will no longer be sad...",
		"Voice": "Gaobai014_04"
	},
	{
		"ID": 5201,
		"Name": "Angelina - Ask",
		"NextWordID": 5202,
		"FrameType": 0,
		"Animation": "idle_Smile",
		"Word": "{NAME}! Come closer, let me ask you some questions! Do you remember... when our bond began?",
		"Voice": ""
	},
	{
		"ID": 5202,
		"Name": "Angelina asks",
		"NextWordID": 0,
		"FrameType": 0,
		"Animation": "idle_Normal",
		"Word": "I mean the bond!",
		"Voice": ""
	},
	{
		"ID": 5203,
		"Name": "Angelina - Correct Response",
		"NextWordID": 5204,
		"FrameType": 0,
		"Animation": "idle_Surprise",
		"Word": "You got it right!? Have you been waiting for me to confess my feelings? You're so cunning!",
		"Voice": ""
	},
	{
		"ID": 5204,
		"Name": "Angelina - Correct Response",
		"NextWordID": 0,
		"FrameType": 0,
		"Animation": "idle_Shy",
		"Word": "Looking back, we've had so many happy times together. They've been truly unforgettable!",
		"Voice": ""
	},
	{
		"ID": 5205,
		"Name": "Angelina - Wrong Response",
		"NextWordID": 5206,
		"FrameType": 0,
		"Animation": "idle_Angry",
		"Word": "Wrong! No, I don't remember either, but I know it definitely wasn't that day! Why? Call it women's intuition!",
		"Voice": ""
	},
	{
		"ID": 5206,
		"Name": "Angelina - Wrong Response",
		"NextWordID": 0,
		"FrameType": 0,
		"Animation": "idle_Touch",
		"Word": "I was expecting to have to punish you -- hmm! Since {NAME} is so cute, there will be no punishment this time! But listen to what I'm going to say now...",
		"Voice": ""
	},
	{
		"ID": 5207,
		"Name": "Angelina - Forgotten Response",
		"NextWordID": 5208,
		"FrameType": 0,
		"Animation": "idle_Smile",
		"Word": "You look cute when trying to figure things out. Alright, I guessed you wouldn't remember the day...",
		"Voice": ""
	},
	{
		"ID": 5208,
		"Name": "Angelina - Forgotten Response",
		"NextWordID": 0,
		"FrameType": 0,
		"Animation": "idle_Shy",
		"Word": "I'm not disappointed... I was expecting you to remember though... However, as long as you're always with me!",
		"Voice": ""
	},
	{
		"ID": 5209,
		"Name": "Angelina - Confession",
		"NextWordID": 0,
		"FrameType": 0,
		"Animation": "",
		"Word": "{NAME}, come on this adventure with me! Don't worry, I'm really tough. I will protect you my entire life!",
		"Voice": "Gaobai552_05"
	},
	{
		"ID": 1101,
		"Name": "Narm - Ask",
		"NextWordID": 1102,
		"FrameType": 0,
		"Animation": "idle_Smile",
		"Word": "{NAME}, I sneakily came to see you. Nobody else followed me, right? Oh yeah, do you still remember the first day me met?",
		"Voice": ""
	},
	{
		"ID": 1102,
		"Name": "Narm asks",
		"NextWordID": 0,
		"FrameType": 0,
		"Animation": "idle_Normal",
		"Word": "Think twice before you make your decision. Only by choosing the correct answer can you receive the surprise I've prepared for you! If you get the wrong answer... Hmm!",
		"Voice": ""
	},
	{
		"ID": 1103,
		"Name": "Narm - Correct Response",
		"NextWordID": 1104,
		"FrameType": 0,
		"Animation": "idle_Surprise",
		"Word": "I didn't know you were such a conscientious person! That is a very precious memory to me. I hope we can always remember it!",
		"Voice": ""
	},
	{
		"ID": 1104,
		"Name": "Narm - Correct Response",
		"NextWordID": 0,
		"FrameType": 0,
		"Animation": "idle_Shy",
		"Word": "Everything I'm going to say will only be said once. You have to listen carefully. Don't get distracted!",
		"Voice": ""
	},
	{
		"ID": 1105,
		"Name": "Narm - Wrong Response",
		"NextWordID": 1106,
		"FrameType": 0,
		"Animation": "idle_Angry",
		"Word": "I didn't expect you to remember that... Hah, I've written it down for you! Next time... Don't forget it!",
		"Voice": ""
	},
	{
		"ID": 1106,
		"Name": "Narm - Wrong Response",
		"NextWordID": 0,
		"FrameType": 0,
		"Animation": "idle_Sad",
		"Word": "What?! You asked me what I would do if you still couldn't remember... Hmm! Let me tell you again! Since you are the only one in my heart...",
		"Voice": ""
	},
	{
		"ID": 1107,
		"Name": "Narm - Forgotten Response",
		"NextWordID": 1108,
		"FrameType": 0,
		"Animation": "idle_Sad",
		"Word": "You're so annoying! You know exactly how I feel... but you still treat me like that! You think I could never get angry with you, right?",
		"Voice": ""
	},
	{
		"ID": 1108,
		"Name": "Narm - Forgotten Response",
		"NextWordID": 0,
		"FrameType": 0,
		"Animation": "idle_Shy",
		"Word": "Hmph..! Are you doing this on purpose to make me angry? I won't let you trick me... You're mine, always!",
		"Voice": ""
	},
	{
		"ID": 1109,
		"Name": "Narm - Confession",
		"NextWordID": 0,
		"FrameType": 0,
		"Animation": "",
		"Word": "I don't care what other people think. Since this is how I feel, I should just tell you from the start: I like you! Hold my hands. From now on, you are mine!",
		"Voice": "Gaobai015_04"
	},
	{
		"ID": 1801,
		"Name": "Imelda - Ask",
		"NextWordID": 1802,
		"FrameType": 0,
		"Animation": "idle_Smile",
		"Word": "Yo, come on, kiddo... Come closer! What are you afraid of? Answer me, do you remember when we began our Bond?",
		"Voice": ""
	},
	{
		"ID": 1802,
		"Name": "Imelda asks",
		"NextWordID": 0,
		"FrameType": 0,
		"Animation": "idle_Angry",
		"Word": "Hey... Don't tell me you don't remember... or I'll get so angry, you won't be able to deal with me!",
		"Voice": ""
	},
	{
		"ID": 1803,
		"Name": "Imelda - Correct Response",
		"NextWordID": 1804,
		"FrameType": 0,
		"Animation": "idle_Surprise",
		"Word": "You must've guessed it! Hmm, don't lie to me... If you do, I'll make you regret it for the rest of your days...",
		"Voice": ""
	},
	{
		"ID": 1804,
		"Name": "Imelda - Correct Response",
		"NextWordID": 0,
		"FrameType": 0,
		"Animation": "idle_Shy",
		"Word": "I am a just person, and since you got the right answer, are you now ready to accept my confession?",
		"Voice": ""
	},
	{
		"ID": 1805,
		"Name": "Imelda - Wrong Response",
		"NextWordID": 1806,
		"FrameType": 0,
		"Animation": "idle_Angry",
		"Word": "Wrong answer, kiddo! So disappointing. Why are men always like this? I thought you were an exception...",
		"Voice": ""
	},
	{
		"ID": 1806,
		"Name": "Imelda - Wrong Response",
		"NextWordID": 0,
		"FrameType": 0,
		"Animation": "idle_Sad",
		"Word": "Anyway, let's do the important stuff first. As for your punishment... Let's talk about that later.",
		"Voice": ""
	},
	{
		"ID": 1807,
		"Name": "Imelda - Forgotten Response",
		"NextWordID": 1808,
		"FrameType": 0,
		"Animation": "idle_Sad",
		"Word": "It seems you've spent too much time with me. You've become forgetful now...",
		"Voice": ""
	},
	{
		"ID": 1808,
		"Name": "Imelda - Forgotten Response",
		"NextWordID": 0,
		"FrameType": 0,
		"Animation": "idle_Shy",
		"Word": "By the way... On the first day we met, did I whip you?",
		"Voice": ""
	},
	{
		"ID": 1809,
		"Name": "Imelda - Confession",
		"NextWordID": 0,
		"FrameType": 0,
		"Animation": "",
		"Word": "Do you have any booze with you, kiddo? You will be my only drinking friend for the rest of my life... Cheers! I'm so determined to win you over, today!",
		"Voice": "Gaobai021_04"
	},
	{
		"ID": 3001,
		"Name": "Liffany - Question",
		"NextWordID": 3002,
		"FrameType": 0,
		"Animation": "idle_Smile",
		"Word": "{NAME}, I wonder if you can sense my inner thoughts... Ah, I'm so nervous!",
		"Voice": ""
	},
	{
		"ID": 3002,
		"Name": "Liffany's Question",
		"NextWordID": 0,
		"FrameType": 0,
		"Animation": "idle_Shy",
		"Word": "I'll always remember... The day you and I began our Heart Bond. I guess you don't remember?",
		"Voice": ""
	},
	{
		"ID": 3003,
		"Name": "Liffany - Correct answer",
		"NextWordID": 3004,
		"FrameType": 0,
		"Animation": "idle_Surprise",
		"Word": "Ah, so you didn't forget! It could be this number... Does it have any special meaning to you?",
		"Voice": ""
	},
	{
		"ID": 3004,
		"Name": "Liffany - Correct answer",
		"NextWordID": 0,
		"FrameType": 0,
		"Animation": "idle_Shy",
		"Word": "Unless... Unless, you used some kind of evil magic!?",
		"Voice": ""
	},
	{
		"ID": 3005,
		"Name": "Liffany - Incorrect answer",
		"NextWordID": 3006,
		"FrameType": 0,
		"Animation": "idle_Angry",
		"Word": "No! I thought you would surely have some kind of special magic...",
		"Voice": ""
	},
	{
		"ID": 3006,
		"Name": "Liffany - Incorrect answer",
		"NextWordID": 0,
		"FrameType": 0,
		"Animation": "idle_Touch",
		"Word": "Ah, no need to be so sad about it! We can work and learn together!",
		"Voice": ""
	},
	{
		"ID": 3007,
		"Name": "Liffany - Forgot answer",
		"NextWordID": 3008,
		"FrameType": 0,
		"Animation": "idle_Smile",
		"Word": "So you really don't remember... And I thought you and I had some special magic connection.",
		"Voice": ""
	},
	{
		"ID": 3008,
		"Name": "Liffany - Forgot answer",
		"NextWordID": 0,
		"FrameType": 0,
		"Animation": "idle_Shy",
		"Word": "Ah... Sorry! What I said just now... It was just a random thought! Ah... saying it to your face makes me blush!",
		"Voice": ""
	},
	{
		"ID": 3009,
		"Name": "Liffany - Confess",
		"NextWordID": 0,
		"FrameType": 0,
		"Animation": "",
		"Word": "Ah, my heart is skipping beats... Even the magic in my body is out of balance. What... what should I say to end this!? Well... Um... Anyway... MUA!",
		"Voice": "Gaobai027_04"
	},
	{
		"ID": 5601,
		"Name": "Rachel - Question",
		"NextWordID": 5602,
		"FrameType": 0,
		"Animation": "idle_Smile",
		"Word": "{NAME}, you're like a big brother to me! So if you're like a big brother, that means you should remember everything about your little sister, right?",
		"Voice": ""
	},
	{
		"ID": 5602,
		"Name": "Rachel's Question",
		"NextWordID": 0,
		"FrameType": 0,
		"Animation": "idle_Shy",
		"Word": "Then does brother still remember... The day that his heart bonded with Rachel's?",
		"Voice": ""
	},
	{
		"ID": 5603,
		"Name": "Rachel - Correct answer",
		"NextWordID": 5604,
		"FrameType": 0,
		"Animation": "idle_Surprise",
		"Word": "Great, you really remember... {NAME}, do you see me as a little sister too?",
		"Voice": ""
	},
	{
		"ID": 5604,
		"Name": "Rachel - Correct answer",
		"NextWordID": 0,
		"FrameType": 0,
		"Animation": "idle_Shy",
		"Word": "No, that's not right! I don't \"just\" want to be your little sister...",
		"Voice": ""
	},
	{
		"ID": 5605,
		"Name": "Rachel - Incorrect answer",
		"NextWordID": 5606,
		"FrameType": 0,
		"Animation": "idle_Angry",
		"Word": "Meanie... I'll never treat you like a big brother again, then!",
		"Voice": ""
	},
	{
		"ID": 5606,
		"Name": "Rachel - Incorrect answer",
		"NextWordID": 0,
		"FrameType": 0,
		"Animation": "idle_Sad",
		"Word": "You have to be more responsible in future, otherwise I'll be angry! No... You don't want me to be angry, right?",
		"Voice": ""
	},
	{
		"ID": 5607,
		"Name": "Rachel - Forgot answer",
		"NextWordID": 5608,
		"FrameType": 0,
		"Animation": "idle_Sad",
		"Word": "Ahh, so I guess I'm too unruly. Well then...",
		"Voice": ""
	},
	{
		"ID": 5608,
		"Name": "Rachel - Forgot answer",
		"NextWordID": 0,
		"FrameType": 0,
		"Animation": "idle_Normal",
		"Word": "Brother, you have to take responsibility and help me get over my unruliness!",
		"Voice": ""
	},
	{
		"ID": 5609,
		"Name": "Rachel - Confess",
		"NextWordID": 0,
		"FrameType": 0,
		"Animation": "",
		"Word": "{NAME}, remember this day, because from now on... I am your lover!",
		"Voice": "Char701_026"
	},
	{
		"ID": 5401,
		"Name": "Listell - Question",
		"NextWordID": 5402,
		"FrameType": 0,
		"Animation": "idle_Shy",
		"Word": "{NAME}, human emotions really are strange. By your side, maybe I'll learn something of them...",
		"Voice": ""
	},
	{
		"ID": 5402,
		"Name": "Listell's Question",
		"NextWordID": 0,
		"FrameType": 0,
		"Animation": "idle_Angry",
		"Word": "Speaking of which, do you remember the day your heart bonded with mine? Or do you easily forget everything to do with human emotions?",
		"Voice": ""
	},
	{
		"ID": 5403,
		"Name": "Listell - Correct answer",
		"NextWordID": 5404,
		"FrameType": 0,
		"Animation": "idle_Surprise",
		"Word": "You really are a human. Was this day not a precious memory for you?",
		"Voice": ""
	},
	{
		"ID": 5404,
		"Name": "Listell - Correct answer",
		"NextWordID": 0,
		"FrameType": 0,
		"Animation": "idle_Shy",
		"Word": "I cherish the feelings you have for me...",
		"Voice": ""
	},
	{
		"ID": 5405,
		"Name": "Listell - Incorrect answer",
		"NextWordID": 5406,
		"FrameType": 0,
		"Animation": "idle_Touch",
		"Word": "Sure enough, humans and demons have some differences their memories... Well, it doesn't matter. I don't mind. This is what you call... gentleness?",
		"Voice": ""
	},
	{
		"ID": 5406,
		"Name": "Listell - Incorrect answer",
		"NextWordID": 0,
		"FrameType": 0,
		"Animation": "idle_Shy",
		"Word": "I only care about \"love\" itself...",
		"Voice": ""
	},
	{
		"ID": 5407,
		"Name": "Listell - Forgot answer",
		"NextWordID": 5408,
		"FrameType": 0,
		"Animation": "idle_Angry",
		"Word": "So I guess humans can't remember either... Hmph, it doesn't matter. I'll learn to forget these insignificant things.",
		"Voice": ""
	},
	{
		"ID": 5408,
		"Name": "Listell - Forgot answer",
		"NextWordID": 0,
		"FrameType": 0,
		"Animation": "idle_Shy",
		"Word": "But \"love\", Listell will never forget this...",
		"Voice": ""
	},
	{
		"ID": 5409,
		"Name": "Listell - Confess",
		"NextWordID": 0,
		"FrameType": 0,
		"Animation": "",
		"Word": "\"Love\" really is a beautiful experience. If I can't have it as a demon... Then please teach me about it from now on!",
		"Voice": "Gaobai555_05"
	},
	{
		"ID": 3901,
		"Name": "Feraquea - Question",
		"NextWordID": 3902,
		"FrameType": 0,
		"Animation": "idle_Normal",
		"Word": "Ah, my adorable servant. You finally have the courage to face me. So then, are you ready?",
		"Voice": ""
	},
	{
		"ID": 3902,
		"Name": "Feraquea Question",
		"NextWordID": 0,
		"FrameType": 0,
		"Animation": "idle_Smile",
		"Word": "But... first answer this question for me. When did we make our Heart Bond?",
		"Voice": ""
	},
	{
		"ID": 3903,
		"Name": "Feraquea - Correct response",
		"NextWordID": 3904,
		"FrameType": 0,
		"Animation": "idle_Surprise",
		"Word": "Hmmm, not bad. You are indeed the servant of Feraquea. Good. Now then...",
		"Voice": ""
	},
	{
		"ID": 3904,
		"Name": "Feraquea - Correct response",
		"NextWordID": 0,
		"FrameType": 0,
		"Animation": "idle_Smile",
		"Word": "It's time for the most glorious moment... Get ready!",
		"Voice": ""
	},
	{
		"ID": 3905,
		"Name": "Feraquea - Incorrect response",
		"NextWordID": 3906,
		"FrameType": 0,
		"Animation": "idle_Sad",
		"Word": "Wrong, wrong! Fool, you will pay for that mistake! Let me think...",
		"Voice": ""
	},
	{
		"ID": 3906,
		"Name": "Feraquea - Incorrect response",
		"NextWordID": 0,
		"FrameType": 0,
		"Animation": "idle_Smile",
		"Word": "Ah, I know. For your punishment... Get ready for the whip of Feraquea! Aha-ha-ha!",
		"Voice": ""
	},
	{
		"ID": 3907,
		"Name": "Feraquea - Forgot response",
		"NextWordID": 3908,
		"FrameType": 0,
		"Animation": "idle_Surprise",
		"Word": "Forgot!? How dare you forget!? Idiot! You... Alright fine, perhaps I should be more gentle...",
		"Voice": ""
	},
	{
		"ID": 3908,
		"Name": "Feraquea - Forgot response",
		"NextWordID": 0,
		"FrameType": 0,
		"Animation": "idle_Smile",
		"Word": "My adorable servant... You must pay for your forgetfulness. Don't worry... I will be gentle. Aha-ha-ha!",
		"Voice": ""
	},
	{
		"ID": 3909,
		"Name": "Feraquea - Confession",
		"NextWordID": 0,
		"FrameType": 0,
		"Animation": "",
		"Word": "Scared, {NAME}? I am looking forward to your performance! Which girls do you fancy? I will turn into them, one by one... He-he...",
		"Voice": "Gaobai028_04"
	},
	{
		"ID": 3101,
		"Name": "Sophia - Question",
		"NextWordID": 3102,
		"FrameType": 0,
		"Animation": "idle_Normal",
		"Word": "Ah, you came... I have been praying for your victory ever since that day, {NAME}...",
		"Voice": ""
	},
	{
		"ID": 3102,
		"Name": "Sophia Question",
		"NextWordID": 0,
		"FrameType": 0,
		"Animation": "idle_Shy",
		"Word": "Um... I wonder if you remember when that day was? It was the day we made our Heart Bond...",
		"Voice": ""
	},
	{
		"ID": 3103,
		"Name": "Sophia - Correct response",
		"NextWordID": 3104,
		"FrameType": 0,
		"Animation": "idle_Surprise",
		"Word": "Ah! Wow, you really do remember! I am so happy! Perhaps... It's the will of the Goddess...",
		"Voice": ""
	},
	{
		"ID": 3104,
		"Name": "Sophia - Correct response",
		"NextWordID": 0,
		"FrameType": 0,
		"Animation": "idle_Shy",
		"Word": "The Goddess made me obey my inner thoughts so that I wouldn't miss you, {NAME}...",
		"Voice": ""
	},
	{
		"ID": 3105,
		"Name": "Sophia - Incorrect response",
		"NextWordID": 3106,
		"FrameType": 0,
		"Animation": "idle_Sad",
		"Word": "Um... That's the wrong answer, {NAME}. I'm a little disappointed...",
		"Voice": ""
	},
	{
		"ID": 3106,
		"Name": "Sophia - Incorrect response",
		"NextWordID": 0,
		"FrameType": 0,
		"Animation": "idle_Smile",
		"Word": "But it's okay, I don't care about that. It's just a silly number.",
		"Voice": ""
	},
	{
		"ID": 3107,
		"Name": "Sophia - Forgot response",
		"NextWordID": 3108,
		"FrameType": 0,
		"Animation": "idle_Sad",
		"Word": "I'm the one who caused you trouble... It's just a number, nothing more. Forget about it.",
		"Voice": ""
	},
	{
		"ID": 3108,
		"Name": "Sophia - Forgot response",
		"NextWordID": 0,
		"FrameType": 0,
		"Animation": "idle_Smile",
		"Word": "Anyway, just as long as you remember what I am about to say today, that's enough.",
		"Voice": ""
	},
	{
		"ID": 3109,
		"Name": "Sophia - Confession",
		"NextWordID": 0,
		"FrameType": 0,
		"Animation": "",
		"Word": "The Goddess taught me what universal love is. But right now... I only want to love one person. The prayers in my heart... {NAME}, did you hear them?",
		"Voice": "Gaobai026_04"
	},
	{
		"ID": 2001,
		"Name": "Sonya - Question",
		"NextWordID": 2002,
		"FrameType": 0,
		"Animation": "idle_Smile",
		"Word": "So dirty...! Ahem... I'm not talking about you, I mean... You're not dirty at all... Um... Forget it...",
		"Voice": ""
	},
	{
		"ID": 2002,
		"Name": "Sonya Question",
		"NextWordID": 0,
		"FrameType": 0,
		"Animation": "idle_Shy",
		"Word": "Hey... Um... Uh... So... do you remember which day we made our Heart Bond?",
		"Voice": ""
	},
	{
		"ID": 2003,
		"Name": "Sonya - Correct response",
		"NextWordID": 2004,
		"FrameType": 0,
		"Animation": "idle_Shy",
		"Word": "That's right. But don't think you've made me super happy or anything. I...",
		"Voice": ""
	},
	{
		"ID": 2004,
		"Name": "Sonya - Correct response",
		"NextWordID": 0,
		"FrameType": 0,
		"Animation": "idle_Sad",
		"Word": "I have something to say to you! And... You're not allowed to laugh!",
		"Voice": ""
	},
	{
		"ID": 2005,
		"Name": "Sonya - Incorrect response",
		"NextWordID": 2006,
		"FrameType": 0,
		"Animation": "idle_Sad",
		"Word": "Hmn! Hmph! You've never cared about me! How could you forget something so simple!?",
		"Voice": ""
	},
	{
		"ID": 2006,
		"Name": "Sonya - Incorrect response",
		"NextWordID": 0,
		"FrameType": 0,
		"Animation": "idle_Shy",
		"Word": "Forget it. Anyway, I never expected you to remember. However, I want you to remember what I'm about to tell you, or else!",
		"Voice": ""
	},
	{
		"ID": 2007,
		"Name": "Sonya - Forgot response",
		"NextWordID": 2008,
		"FrameType": 0,
		"Animation": "idle_Sad",
		"Word": "You really don't remember? Hmph, I knew it would be like this.",
		"Voice": ""
	},
	{
		"ID": 2008,
		"Name": "Sonya - Forgot response",
		"NextWordID": 0,
		"FrameType": 0,
		"Animation": "idle_Shy",
		"Word": "Hey, you surely must have felt it. Listen to what I'm about to tell you... This is from my heart!",
		"Voice": ""
	},
	{
		"ID": 2009,
		"Name": "Sonya - Confession",
		"NextWordID": 0,
		"FrameType": 0,
		"Animation": "",
		"Word": "That's it, that's how I feel... Do you understand? Hmph... Hey, what are you smirking for!? {NAME}, take some responsibility!",
		"Voice": "Gaobai020_04"
	}
]