[
	{
		"ID": 101,
		"HeroPerformancesID": [
			114,
			116,
			117,
			118,
			127
		]
	},
	{
		"ID": 102,
		"HeroPerformancesID": [
			114,
			116,
			117,
			118,
			109,
			127
		]
	},
	{
		"ID": 103,
		"HeroPerformancesID": [
			114,
			116,
			117,
			118,
			110,
			127
		]
	},
	{
		"ID": 104,
		"HeroPerformancesID": [
			114,
			116,
			117,
			118,
			111,
			127
		]
	},
	{
		"ID": 105,
		"HeroPerformancesID": [
			114,
			116,
			117,
			118,
			112
		]
	},
	{
		"ID": 106,
		"HeroPerformancesID": [
			114,
			116,
			117,
			118,
			113
		]
	},
	{
		"ID": 107,
		"HeroPerformancesID": [
			102
		]
	},
	{
		"ID": 108
	},
	{
		"ID": 109,
		"HeroPerformancesID": [
			102,
			103
		]
	},
	{
		"ID": 110,
		"HeroPerformancesID": [
			102,
			103,
			104,
			105,
			106,
			107,
			108,
			114,
			116,
			117,
			118
		]
	},
	{
		"ID": 111,
		"HeroPerformancesID": [
			120,
			130
		]
	},
	{
		"ID": 301,
		"HeroPerformancesID": [
			314,
			316,
			317,
			318,
			327
		]
	},
	{
		"ID": 302,
		"HeroPerformancesID": [
			314,
			316,
			317,
			318,
			309,
			327
		]
	},
	{
		"ID": 303,
		"HeroPerformancesID": [
			314,
			316,
			317,
			318,
			310,
			327
		]
	},
	{
		"ID": 304,
		"HeroPerformancesID": [
			314,
			316,
			317,
			318,
			311,
			327
		]
	},
	{
		"ID": 305,
		"HeroPerformancesID": [
			314,
			316,
			317,
			318,
			312
		]
	},
	{
		"ID": 306,
		"HeroPerformancesID": [
			314,
			316,
			317,
			318,
			313
		]
	},
	{
		"ID": 307,
		"HeroPerformancesID": [
			302
		]
	},
	{
		"ID": 308,
		"HeroPerformancesID": [
			301
		]
	},
	{
		"ID": 309,
		"HeroPerformancesID": [
			302,
			303
		]
	},
	{
		"ID": 310,
		"HeroPerformancesID": [
			302,
			303,
			304,
			305,
			306,
			307,
			308,
			309,
			310,
			311,
			312,
			313,
			314,
			316,
			317,
			318,
			320,
			321,
			322,
			323,
			324,
			327,
			328,
			329,
			330
		]
	},
	{
		"ID": 311,
		"HeroPerformancesID": [
			320,
			330
		]
	},
	{
		"ID": 401,
		"HeroPerformancesID": [
			414,
			416,
			417,
			418,
			427
		]
	},
	{
		"ID": 402,
		"HeroPerformancesID": [
			414,
			416,
			417,
			418,
			409,
			427
		]
	},
	{
		"ID": 403,
		"HeroPerformancesID": [
			414,
			416,
			417,
			418,
			410,
			427
		]
	},
	{
		"ID": 404,
		"HeroPerformancesID": [
			414,
			416,
			417,
			418,
			411,
			427,
			425
		]
	},
	{
		"ID": 405,
		"HeroPerformancesID": [
			414,
			416,
			417,
			418,
			412,
			425
		]
	},
	{
		"ID": 406,
		"HeroPerformancesID": [
			414,
			416,
			417,
			418,
			413,
			425,
			426,
			419
		]
	},
	{
		"ID": 407,
		"HeroPerformancesID": [
			402
		]
	},
	{
		"ID": 408,
		"HeroPerformancesID": [
			401
		]
	},
	{
		"ID": 409,
		"HeroPerformancesID": [
			402,
			403
		]
	},
	{
		"ID": 410,
		"HeroPerformancesID": [
			402,
			403,
			404,
			405,
			406,
			407,
			408,
			409,
			410,
			411,
			412,
			413,
			414,
			416,
			417,
			418,
			419,
			420,
			426,
			430
		]
	},
	{
		"ID": 411,
		"HeroPerformancesID": [
			420,
			430
		]
	},
	{
		"ID": 501,
		"HeroPerformancesID": [
			514,
			516,
			517,
			518,
			527
		]
	},
	{
		"ID": 502,
		"HeroPerformancesID": [
			514,
			516,
			517,
			518,
			509,
			527
		]
	},
	{
		"ID": 503,
		"HeroPerformancesID": [
			514,
			516,
			517,
			518,
			510,
			527
		]
	},
	{
		"ID": 504,
		"HeroPerformancesID": [
			514,
			516,
			517,
			518,
			511,
			527,
			525
		]
	},
	{
		"ID": 505,
		"HeroPerformancesID": [
			514,
			516,
			517,
			518,
			512,
			525
		]
	},
	{
		"ID": 506,
		"HeroPerformancesID": [
			514,
			516,
			517,
			518,
			513,
			525,
			526,
			519
		]
	},
	{
		"ID": 507,
		"HeroPerformancesID": [
			502
		]
	},
	{
		"ID": 508,
		"HeroPerformancesID": [
			501
		]
	},
	{
		"ID": 509,
		"HeroPerformancesID": [
			502,
			503
		]
	},
	{
		"ID": 510,
		"HeroPerformancesID": [
			501,
			502,
			503,
			504,
			505,
			506,
			507,
			508,
			509,
			510,
			511,
			512,
			513,
			514,
			516,
			517,
			518,
			519,
			526,
			527,
			529,
			530
		]
	},
	{
		"ID": 511,
		"HeroPerformancesID": [
			520,
			530
		]
	},
	{
		"ID": 601,
		"HeroPerformancesID": [
			614,
			616,
			617,
			618,
			627
		]
	},
	{
		"ID": 602,
		"HeroPerformancesID": [
			614,
			616,
			617,
			618,
			609,
			627
		]
	},
	{
		"ID": 603,
		"HeroPerformancesID": [
			614,
			616,
			617,
			618,
			610,
			627
		]
	},
	{
		"ID": 604,
		"HeroPerformancesID": [
			614,
			616,
			617,
			618,
			611,
			627
		]
	},
	{
		"ID": 605,
		"HeroPerformancesID": [
			614,
			616,
			617,
			618,
			612
		]
	},
	{
		"ID": 606,
		"HeroPerformancesID": [
			614,
			616,
			617,
			618,
			613
		]
	},
	{
		"ID": 607,
		"HeroPerformancesID": [
			602
		]
	},
	{
		"ID": 608,
		"HeroPerformancesID": [
			601
		]
	},
	{
		"ID": 609,
		"HeroPerformancesID": [
			602,
			603
		]
	},
	{
		"ID": 610,
		"HeroPerformancesID": [
			601,
			602,
			603,
			604,
			605,
			606,
			607,
			608,
			609,
			610,
			611,
			612,
			613,
			614,
			616,
			617,
			618,
			620,
			621,
			622,
			623,
			624,
			627,
			628,
			629,
			630
		]
	},
	{
		"ID": 611,
		"HeroPerformancesID": [
			620,
			630
		]
	},
	{
		"ID": 701,
		"HeroPerformancesID": [
			714,
			716,
			717,
			718,
			727
		]
	},
	{
		"ID": 702,
		"HeroPerformancesID": [
			714,
			716,
			717,
			718,
			709,
			727
		]
	},
	{
		"ID": 703,
		"HeroPerformancesID": [
			714,
			716,
			717,
			718,
			710,
			727
		]
	},
	{
		"ID": 704,
		"HeroPerformancesID": [
			714,
			716,
			717,
			718,
			711,
			727
		]
	},
	{
		"ID": 705,
		"HeroPerformancesID": [
			714,
			716,
			717,
			718,
			712
		]
	},
	{
		"ID": 706,
		"HeroPerformancesID": [
			714,
			716,
			717,
			718,
			713
		]
	},
	{
		"ID": 707,
		"HeroPerformancesID": [
			702
		]
	},
	{
		"ID": 708,
		"HeroPerformancesID": [
			701
		]
	},
	{
		"ID": 709,
		"HeroPerformancesID": [
			702,
			703
		]
	},
	{
		"ID": 710,
		"HeroPerformancesID": [
			701,
			702,
			703,
			704,
			705,
			706,
			707,
			708,
			709,
			710,
			711,
			712,
			713,
			714,
			716,
			717,
			718,
			720,
			721,
			722,
			723,
			724,
			727,
			728,
			729,
			730
		]
	},
	{
		"ID": 711,
		"HeroPerformancesID": [
			720,
			730
		]
	},
	{
		"ID": 801,
		"HeroPerformancesID": [
			814,
			816,
			817,
			818,
			827
		]
	},
	{
		"ID": 802,
		"HeroPerformancesID": [
			814,
			816,
			817,
			818,
			809,
			827
		]
	},
	{
		"ID": 803,
		"HeroPerformancesID": [
			814,
			816,
			817,
			818,
			810,
			827
		]
	},
	{
		"ID": 804,
		"HeroPerformancesID": [
			814,
			816,
			817,
			818,
			811,
			827,
			825
		]
	},
	{
		"ID": 805,
		"HeroPerformancesID": [
			814,
			816,
			817,
			818,
			812,
			825
		]
	},
	{
		"ID": 806,
		"HeroPerformancesID": [
			814,
			816,
			817,
			818,
			813,
			825,
			826,
			819
		]
	},
	{
		"ID": 807,
		"HeroPerformancesID": [
			802
		]
	},
	{
		"ID": 808,
		"HeroPerformancesID": [
			801
		]
	},
	{
		"ID": 809,
		"HeroPerformancesID": [
			802,
			803
		]
	},
	{
		"ID": 810,
		"HeroPerformancesID": [
			801,
			802,
			803,
			804,
			805,
			806,
			807,
			808,
			809,
			810,
			811,
			812,
			813,
			814,
			816,
			817,
			818,
			819,
			820,
			822,
			826,
			827,
			828,
			829,
			830
		]
	},
	{
		"ID": 811,
		"HeroPerformancesID": [
			820,
			830
		]
	},
	{
		"ID": 901,
		"HeroPerformancesID": [
			914,
			916,
			917,
			918,
			927
		]
	},
	{
		"ID": 902,
		"HeroPerformancesID": [
			914,
			916,
			917,
			918,
			909,
			927
		]
	},
	{
		"ID": 903,
		"HeroPerformancesID": [
			914,
			916,
			917,
			918,
			910,
			927
		]
	},
	{
		"ID": 904,
		"HeroPerformancesID": [
			914,
			916,
			917,
			918,
			911,
			927
		]
	},
	{
		"ID": 905,
		"HeroPerformancesID": [
			914,
			916,
			917,
			918,
			912
		]
	},
	{
		"ID": 906,
		"HeroPerformancesID": [
			914,
			916,
			917,
			918,
			913
		]
	},
	{
		"ID": 907,
		"HeroPerformancesID": [
			902
		]
	},
	{
		"ID": 908,
		"HeroPerformancesID": [
			901
		]
	},
	{
		"ID": 909,
		"HeroPerformancesID": [
			902,
			903
		]
	},
	{
		"ID": 910,
		"HeroPerformancesID": [
			901,
			902,
			903,
			904,
			905,
			906,
			907,
			908,
			909,
			910,
			911,
			912,
			913,
			914,
			916,
			917,
			918,
			920,
			921,
			922,
			923,
			924,
			927,
			928,
			929,
			930
		]
	},
	{
		"ID": 911,
		"HeroPerformancesID": [
			920,
			930
		]
	},
	{
		"ID": 1001,
		"HeroPerformancesID": [
			1014,
			1016,
			1017,
			1018,
			1027
		]
	},
	{
		"ID": 1002,
		"HeroPerformancesID": [
			1014,
			1016,
			1017,
			1018,
			1009,
			1027
		]
	},
	{
		"ID": 1003,
		"HeroPerformancesID": [
			1014,
			1016,
			1017,
			1018,
			1010,
			1027
		]
	},
	{
		"ID": 1004,
		"HeroPerformancesID": [
			1014,
			1016,
			1017,
			1018,
			1011,
			1027
		]
	},
	{
		"ID": 1005,
		"HeroPerformancesID": [
			1014,
			1016,
			1017,
			1018,
			1012
		]
	},
	{
		"ID": 1006,
		"HeroPerformancesID": [
			1014,
			1016,
			1017,
			1018,
			1013
		]
	},
	{
		"ID": 1007,
		"HeroPerformancesID": [
			1002
		]
	},
	{
		"ID": 1008,
		"HeroPerformancesID": [
			1001
		]
	},
	{
		"ID": 1009,
		"HeroPerformancesID": [
			1002,
			1003
		]
	},
	{
		"ID": 1010,
		"HeroPerformancesID": [
			1001,
			1002,
			1003,
			1004,
			1005,
			1006,
			1007,
			1008,
			1009,
			1010,
			1011,
			1012,
			1013,
			1014,
			1016,
			1017,
			1018,
			1020,
			1021,
			1022,
			1023,
			1024,
			1027,
			1028,
			1029,
			1030
		]
	},
	{
		"ID": 1011,
		"HeroPerformancesID": [
			1020,
			1030
		]
	},
	{
		"ID": 1101,
		"HeroPerformancesID": [
			1114,
			1116,
			1117,
			1118,
			1127
		]
	},
	{
		"ID": 1102,
		"HeroPerformancesID": [
			1114,
			1116,
			1117,
			1118,
			1109,
			1127
		]
	},
	{
		"ID": 1103,
		"HeroPerformancesID": [
			1114,
			1116,
			1117,
			1118,
			1110,
			1127
		]
	},
	{
		"ID": 1104,
		"HeroPerformancesID": [
			1114,
			1116,
			1117,
			1118,
			1111,
			1127,
			1125
		]
	},
	{
		"ID": 1105,
		"HeroPerformancesID": [
			1114,
			1116,
			1117,
			1118,
			1112,
			1125
		]
	},
	{
		"ID": 1106,
		"HeroPerformancesID": [
			1114,
			1116,
			1117,
			1118,
			1113,
			1125,
			1126,
			1119
		]
	},
	{
		"ID": 1107,
		"HeroPerformancesID": [
			1102
		]
	},
	{
		"ID": 1108,
		"HeroPerformancesID": [
			1101
		]
	},
	{
		"ID": 1109,
		"HeroPerformancesID": [
			1102,
			1103
		]
	},
	{
		"ID": 1110,
		"HeroPerformancesID": [
			1101,
			1102,
			1103,
			1104,
			1105,
			1106,
			1107,
			1108,
			1109,
			1110,
			1111,
			1112,
			1113,
			1114,
			1116,
			1117,
			1118,
			1119,
			1120,
			1121,
			1122,
			1123,
			1124,
			1125,
			1126,
			1127,
			1128,
			1129,
			1130
		]
	},
	{
		"ID": 1111,
		"HeroPerformancesID": [
			1120,
			1130
		]
	},
	{
		"ID": 1201,
		"HeroPerformancesID": [
			1214,
			1216,
			1217,
			1218,
			1227
		]
	},
	{
		"ID": 1202,
		"HeroPerformancesID": [
			1214,
			1216,
			1217,
			1218,
			1209,
			1227
		]
	},
	{
		"ID": 1203,
		"HeroPerformancesID": [
			1214,
			1216,
			1217,
			1218,
			1210,
			1227
		]
	},
	{
		"ID": 1204,
		"HeroPerformancesID": [
			1214,
			1216,
			1217,
			1218,
			1211,
			1227
		]
	},
	{
		"ID": 1205,
		"HeroPerformancesID": [
			1214,
			1216,
			1217,
			1218,
			1212
		]
	},
	{
		"ID": 1206,
		"HeroPerformancesID": [
			1214,
			1216,
			1217,
			1218,
			1213
		]
	},
	{
		"ID": 1207,
		"HeroPerformancesID": [
			1202
		]
	},
	{
		"ID": 1208,
		"HeroPerformancesID": [
			1201
		]
	},
	{
		"ID": 1209,
		"HeroPerformancesID": [
			1202,
			1203
		]
	},
	{
		"ID": 1210,
		"HeroPerformancesID": [
			1201,
			1202,
			1203,
			1204,
			1205,
			1206,
			1207,
			1208,
			1209,
			1210,
			1211,
			1212,
			1213,
			1214,
			1216,
			1217,
			1218,
			1220,
			1221,
			1222,
			1223,
			1224,
			1227,
			1228,
			1229,
			1230
		]
	},
	{
		"ID": 1211,
		"HeroPerformancesID": [
			1220,
			1230
		]
	},
	{
		"ID": 1301,
		"HeroPerformancesID": [
			1314,
			1316,
			1317,
			1318,
			1327
		]
	},
	{
		"ID": 1302,
		"HeroPerformancesID": [
			1314,
			1316,
			1317,
			1318,
			1309,
			1327
		]
	},
	{
		"ID": 1303,
		"HeroPerformancesID": [
			1314,
			1316,
			1317,
			1318,
			1310,
			1327
		]
	},
	{
		"ID": 1304,
		"HeroPerformancesID": [
			1314,
			1316,
			1317,
			1318,
			1311,
			1327
		]
	},
	{
		"ID": 1305,
		"HeroPerformancesID": [
			1314,
			1316,
			1317,
			1318,
			1312
		]
	},
	{
		"ID": 1306,
		"HeroPerformancesID": [
			1314,
			1316,
			1317,
			1318,
			1313
		]
	},
	{
		"ID": 1307,
		"HeroPerformancesID": [
			1302
		]
	},
	{
		"ID": 1308,
		"HeroPerformancesID": [
			1301
		]
	},
	{
		"ID": 1309,
		"HeroPerformancesID": [
			1302,
			1303
		]
	},
	{
		"ID": 1310,
		"HeroPerformancesID": [
			1301,
			1302,
			1303,
			1304,
			1305,
			1306,
			1307,
			1308,
			1309,
			1310,
			1311,
			1312,
			1313,
			1314,
			1316,
			1317,
			1318,
			1320,
			1321,
			1322,
			1323,
			1324,
			1327,
			1328,
			1329,
			1330
		]
	},
	{
		"ID": 1311,
		"HeroPerformancesID": [
			1320,
			1330
		]
	},
	{
		"ID": 1401,
		"HeroPerformancesID": [
			1414,
			1416,
			1417,
			1418,
			1427
		]
	},
	{
		"ID": 1402,
		"HeroPerformancesID": [
			1414,
			1416,
			1417,
			1418,
			1409,
			1427
		]
	},
	{
		"ID": 1403,
		"HeroPerformancesID": [
			1414,
			1416,
			1417,
			1418,
			1410,
			1427
		]
	},
	{
		"ID": 1404,
		"HeroPerformancesID": [
			1414,
			1416,
			1417,
			1418,
			1411,
			1427,
			1425
		]
	},
	{
		"ID": 1405,
		"HeroPerformancesID": [
			1414,
			1416,
			1417,
			1418,
			1412,
			1425
		]
	},
	{
		"ID": 1406,
		"HeroPerformancesID": [
			1414,
			1416,
			1417,
			1418,
			1413,
			1425,
			1426,
			1419
		]
	},
	{
		"ID": 1407,
		"HeroPerformancesID": [
			1402
		]
	},
	{
		"ID": 1408,
		"HeroPerformancesID": [
			1401
		]
	},
	{
		"ID": 1409,
		"HeroPerformancesID": [
			1402,
			1403
		]
	},
	{
		"ID": 1410,
		"HeroPerformancesID": [
			1401,
			1402,
			1403,
			1404,
			1405,
			1406,
			1407,
			1408,
			1409,
			1410,
			1411,
			1412,
			1413,
			1414,
			1416,
			1417,
			1418,
			1419,
			1420,
			1426,
			1427,
			1429,
			1430
		]
	},
	{
		"ID": 1411,
		"HeroPerformancesID": [
			1420,
			1430
		]
	},
	{
		"ID": 1501,
		"HeroPerformancesID": [
			1514,
			1516,
			1517,
			1518,
			1527
		]
	},
	{
		"ID": 1502,
		"HeroPerformancesID": [
			1514,
			1516,
			1517,
			1518,
			1509,
			1527
		]
	},
	{
		"ID": 1503,
		"HeroPerformancesID": [
			1514,
			1516,
			1517,
			1518,
			1510,
			1527
		]
	},
	{
		"ID": 1504,
		"HeroPerformancesID": [
			1514,
			1516,
			1517,
			1518,
			1511,
			1527,
			1525
		]
	},
	{
		"ID": 1505,
		"HeroPerformancesID": [
			1514,
			1516,
			1517,
			1518,
			1512,
			1525
		]
	},
	{
		"ID": 1506,
		"HeroPerformancesID": [
			1514,
			1516,
			1517,
			1518,
			1513,
			1525,
			1526,
			1519
		]
	},
	{
		"ID": 1507,
		"HeroPerformancesID": [
			1502
		]
	},
	{
		"ID": 1508,
		"HeroPerformancesID": [
			1501
		]
	},
	{
		"ID": 1509,
		"HeroPerformancesID": [
			1502,
			1503
		]
	},
	{
		"ID": 1510,
		"HeroPerformancesID": [
			1501,
			1502,
			1503,
			1504,
			1505,
			1506,
			1507,
			1508,
			1509,
			1510,
			1511,
			1512,
			1513,
			1514,
			1516,
			1517,
			1518,
			1519,
			1520,
			1524,
			1525,
			1526,
			1530
		]
	},
	{
		"ID": 1511,
		"HeroPerformancesID": [
			1520,
			1530
		]
	},
	{
		"ID": 1601,
		"HeroPerformancesID": [
			1614,
			1616,
			1617,
			1618,
			1627,
			1615
		]
	},
	{
		"ID": 1602,
		"HeroPerformancesID": [
			1614,
			1616,
			1617,
			1618,
			1609,
			1627,
			1615
		]
	},
	{
		"ID": 1603,
		"HeroPerformancesID": [
			1614,
			1616,
			1617,
			1618,
			1610,
			1627,
			1615
		]
	},
	{
		"ID": 1604,
		"HeroPerformancesID": [
			1614,
			1616,
			1617,
			1618,
			1611,
			1627,
			1615
		]
	},
	{
		"ID": 1605,
		"HeroPerformancesID": [
			1614,
			1616,
			1617,
			1618,
			1612,
			1615
		]
	},
	{
		"ID": 1606,
		"HeroPerformancesID": [
			1614,
			1616,
			1617,
			1618,
			1613,
			1615
		]
	},
	{
		"ID": 1607,
		"HeroPerformancesID": [
			1602
		]
	},
	{
		"ID": 1608,
		"HeroPerformancesID": [
			1601
		]
	},
	{
		"ID": 1609,
		"HeroPerformancesID": [
			1602,
			1603
		]
	},
	{
		"ID": 1610,
		"HeroPerformancesID": [
			1601,
			1602,
			1603,
			1604,
			1605,
			1606,
			1607,
			1608,
			1609,
			1610,
			1611,
			1612,
			1613,
			1614,
			1615,
			1616,
			1617,
			1620,
			1621,
			1622,
			1623,
			1624,
			1627,
			1628,
			1629,
			1630
		]
	},
	{
		"ID": 1611,
		"HeroPerformancesID": [
			1620,
			1630
		]
	},
	{
		"ID": 1701,
		"HeroPerformancesID": [
			1714,
			1716,
			1717,
			1727,
			1715
		]
	},
	{
		"ID": 1702,
		"HeroPerformancesID": [
			1714,
			1716,
			1717,
			1709,
			1727,
			1715
		]
	},
	{
		"ID": 1703,
		"HeroPerformancesID": [
			1714,
			1716,
			1717,
			1710,
			1727,
			1715
		]
	},
	{
		"ID": 1704,
		"HeroPerformancesID": [
			1714,
			1716,
			1717,
			1711,
			1727,
			1715
		]
	},
	{
		"ID": 1705,
		"HeroPerformancesID": [
			1714,
			1716,
			1717,
			1712,
			1715
		]
	},
	{
		"ID": 1706,
		"HeroPerformancesID": [
			1714,
			1716,
			1717,
			1713,
			1715
		]
	},
	{
		"ID": 1707,
		"HeroPerformancesID": [
			1702
		]
	},
	{
		"ID": 1708,
		"HeroPerformancesID": [
			1701
		]
	},
	{
		"ID": 1709,
		"HeroPerformancesID": [
			1702,
			1703
		]
	},
	{
		"ID": 1710,
		"HeroPerformancesID": [
			1701,
			1702,
			1703,
			1704,
			1705,
			1706,
			1707,
			1708,
			1709,
			1710,
			1711,
			1712,
			1713,
			1714,
			1715,
			1716,
			1717,
			1720,
			1721,
			1722,
			1723,
			1724,
			1727,
			1728,
			1729,
			1730
		]
	},
	{
		"ID": 1711,
		"HeroPerformancesID": [
			1720,
			1730
		]
	},
	{
		"ID": 1801,
		"HeroPerformancesID": [
			1814,
			1816,
			1817,
			1818,
			1827
		]
	},
	{
		"ID": 1802,
		"HeroPerformancesID": [
			1814,
			1816,
			1817,
			1818,
			1809,
			1827
		]
	},
	{
		"ID": 1803,
		"HeroPerformancesID": [
			1814,
			1816,
			1817,
			1818,
			1810,
			1827
		]
	},
	{
		"ID": 1804,
		"HeroPerformancesID": [
			1814,
			1816,
			1817,
			1818,
			1811,
			1827,
			1825
		]
	},
	{
		"ID": 1805,
		"HeroPerformancesID": [
			1814,
			1816,
			1817,
			1818,
			1812,
			1825
		]
	},
	{
		"ID": 1806,
		"HeroPerformancesID": [
			1814,
			1816,
			1817,
			1818,
			1813,
			1825,
			1826,
			1819
		]
	},
	{
		"ID": 1807,
		"HeroPerformancesID": [
			1802
		]
	},
	{
		"ID": 1808,
		"HeroPerformancesID": [
			1801
		]
	},
	{
		"ID": 1809,
		"HeroPerformancesID": [
			1802,
			1803
		]
	},
	{
		"ID": 1810,
		"HeroPerformancesID": [
			1801,
			1802,
			1803,
			1804,
			1805,
			1806,
			1807,
			1808,
			1809,
			1810,
			1811,
			1812,
			1813,
			1814,
			1816,
			1817,
			1818,
			1819,
			1820,
			1821,
			1825,
			1827,
			1830
		]
	},
	{
		"ID": 1811,
		"HeroPerformancesID": [
			1820,
			1830
		]
	},
	{
		"ID": 1901,
		"HeroPerformancesID": [
			1914,
			1916,
			1917,
			1918,
			1927,
			1915
		]
	},
	{
		"ID": 1902,
		"HeroPerformancesID": [
			1914,
			1916,
			1917,
			1918,
			1909,
			1927,
			1915
		]
	},
	{
		"ID": 1903,
		"HeroPerformancesID": [
			1914,
			1916,
			1917,
			1918,
			1910,
			1927,
			1915
		]
	},
	{
		"ID": 1904,
		"HeroPerformancesID": [
			1914,
			1916,
			1917,
			1918,
			1911,
			1927,
			1915
		]
	},
	{
		"ID": 1905,
		"HeroPerformancesID": [
			1914,
			1916,
			1917,
			1918,
			1912,
			1915
		]
	},
	{
		"ID": 1906,
		"HeroPerformancesID": [
			1914,
			1916,
			1917,
			1918,
			1913,
			1915
		]
	},
	{
		"ID": 1907,
		"HeroPerformancesID": [
			1902
		]
	},
	{
		"ID": 1908,
		"HeroPerformancesID": [
			1901
		]
	},
	{
		"ID": 1909,
		"HeroPerformancesID": [
			1902,
			1903
		]
	},
	{
		"ID": 1910,
		"HeroPerformancesID": [
			1901,
			1902,
			1903,
			1904,
			1905,
			1906,
			1907,
			1908,
			1909,
			1910,
			1911,
			1912,
			1913,
			1914,
			1915,
			1916,
			1917,
			1920,
			1921,
			1922,
			1923,
			1924,
			1927,
			1928,
			1929,
			1930
		]
	},
	{
		"ID": 1911,
		"HeroPerformancesID": [
			1920,
			1930
		]
	},
	{
		"ID": 2001,
		"HeroPerformancesID": [
			2014,
			2016,
			2017,
			2018,
			2027
		]
	},
	{
		"ID": 2002,
		"HeroPerformancesID": [
			2014,
			2016,
			2017,
			2018,
			2009,
			2027
		]
	},
	{
		"ID": 2003,
		"HeroPerformancesID": [
			2014,
			2016,
			2017,
			2018,
			2010,
			2027
		]
	},
	{
		"ID": 2004,
		"HeroPerformancesID": [
			2014,
			2016,
			2017,
			2018,
			2011,
			2027,
			2025
		]
	},
	{
		"ID": 2005,
		"HeroPerformancesID": [
			2014,
			2016,
			2017,
			2018,
			2012,
			2025
		]
	},
	{
		"ID": 2006,
		"HeroPerformancesID": [
			2014,
			2016,
			2017,
			2018,
			2013,
			2025,
			2026,
			2019
		]
	},
	{
		"ID": 2007,
		"HeroPerformancesID": [
			2002
		]
	},
	{
		"ID": 2008,
		"HeroPerformancesID": [
			2001
		]
	},
	{
		"ID": 2009,
		"HeroPerformancesID": [
			2002,
			2003
		]
	},
	{
		"ID": 2010,
		"HeroPerformancesID": [
			2001,
			2002,
			2003,
			2004,
			2005,
			2006,
			2007,
			2008,
			2009,
			2010,
			2011,
			2012,
			2013,
			2014,
			2016,
			2017,
			2018,
			2019,
			2022,
			2025,
			2026,
			2027,
			2028,
			2030
		]
	},
	{
		"ID": 2011,
		"HeroPerformancesID": [
			2020,
			2030
		]
	},
	{
		"ID": 2101,
		"HeroPerformancesID": [
			2114,
			2116,
			2117,
			2118,
			2127,
			2115
		]
	},
	{
		"ID": 2102,
		"HeroPerformancesID": [
			2114,
			2116,
			2117,
			2118,
			2109,
			2127,
			2115
		]
	},
	{
		"ID": 2103,
		"HeroPerformancesID": [
			2114,
			2116,
			2117,
			2118,
			2110,
			2127,
			2115
		]
	},
	{
		"ID": 2104,
		"HeroPerformancesID": [
			2114,
			2116,
			2117,
			2118,
			2111,
			2127,
			2115
		]
	},
	{
		"ID": 2105,
		"HeroPerformancesID": [
			2114,
			2116,
			2117,
			2118,
			2112,
			2115
		]
	},
	{
		"ID": 2106,
		"HeroPerformancesID": [
			2114,
			2116,
			2117,
			2118,
			2113,
			2115
		]
	},
	{
		"ID": 2107,
		"HeroPerformancesID": [
			2102
		]
	},
	{
		"ID": 2108,
		"HeroPerformancesID": [
			2101
		]
	},
	{
		"ID": 2109,
		"HeroPerformancesID": [
			2102,
			2103
		]
	},
	{
		"ID": 2110,
		"HeroPerformancesID": [
			2101,
			2102,
			2103,
			2104,
			2105,
			2106,
			2107,
			2108,
			2109,
			2110,
			2111,
			2112,
			2113,
			2114,
			2115,
			2116,
			2117,
			2120,
			2121,
			2122,
			2123,
			2124,
			2127,
			2128,
			2129,
			2130
		]
	},
	{
		"ID": 2111,
		"HeroPerformancesID": [
			2120,
			2130
		]
	},
	{
		"ID": 2201,
		"HeroPerformancesID": [
			2214,
			2216,
			2217,
			2218,
			2227
		]
	},
	{
		"ID": 2202,
		"HeroPerformancesID": [
			2214,
			2216,
			2217,
			2218,
			2209,
			2227
		]
	},
	{
		"ID": 2203,
		"HeroPerformancesID": [
			2214,
			2216,
			2217,
			2218,
			2210,
			2227
		]
	},
	{
		"ID": 2204,
		"HeroPerformancesID": [
			2214,
			2216,
			2217,
			2218,
			2211,
			2227,
			2225
		]
	},
	{
		"ID": 2205,
		"HeroPerformancesID": [
			2214,
			2216,
			2217,
			2218,
			2212,
			2225
		]
	},
	{
		"ID": 2206,
		"HeroPerformancesID": [
			2214,
			2216,
			2217,
			2218,
			2213,
			2225,
			2226,
			2219
		]
	},
	{
		"ID": 2207,
		"HeroPerformancesID": [
			2202
		]
	},
	{
		"ID": 2208,
		"HeroPerformancesID": [
			2201
		]
	},
	{
		"ID": 2209,
		"HeroPerformancesID": [
			2202,
			2203
		]
	},
	{
		"ID": 2210,
		"HeroPerformancesID": [
			2201,
			2202,
			2203,
			2204,
			2205,
			2206,
			2207,
			2208,
			2209,
			2210,
			2211,
			2212,
			2213,
			2214,
			2216,
			2217,
			2218,
			2219,
			2220,
			2221,
			2222,
			2224,
			2225,
			2226,
			2227,
			2228,
			2229,
			2230
		]
	},
	{
		"ID": 2211,
		"HeroPerformancesID": [
			2220,
			2230
		]
	},
	{
		"ID": 2301,
		"HeroPerformancesID": [
			2314,
			2316,
			2317,
			2318,
			2327,
			2315
		]
	},
	{
		"ID": 2302,
		"HeroPerformancesID": [
			2314,
			2316,
			2317,
			2318,
			2309,
			2327,
			2315
		]
	},
	{
		"ID": 2303,
		"HeroPerformancesID": [
			2314,
			2316,
			2317,
			2318,
			2310,
			2327,
			2315
		]
	},
	{
		"ID": 2304,
		"HeroPerformancesID": [
			2314,
			2316,
			2317,
			2318,
			2311,
			2327,
			2315
		]
	},
	{
		"ID": 2305,
		"HeroPerformancesID": [
			2314,
			2316,
			2317,
			2318,
			2312,
			2315
		]
	},
	{
		"ID": 2306,
		"HeroPerformancesID": [
			2314,
			2316,
			2317,
			2318,
			2313,
			2315
		]
	},
	{
		"ID": 2307,
		"HeroPerformancesID": [
			2302
		]
	},
	{
		"ID": 2308,
		"HeroPerformancesID": [
			2301
		]
	},
	{
		"ID": 2309,
		"HeroPerformancesID": [
			2302,
			2303
		]
	},
	{
		"ID": 2310,
		"HeroPerformancesID": [
			2301,
			2302,
			2303,
			2304,
			2305,
			2306,
			2307,
			2308,
			2309,
			2310,
			2311,
			2312,
			2313,
			2314,
			2315,
			2316,
			2317,
			2320,
			2321,
			2322,
			2323,
			2324,
			2327,
			2328,
			2329,
			2330
		]
	},
	{
		"ID": 2311,
		"HeroPerformancesID": [
			2320,
			2330
		]
	},
	{
		"ID": 2401,
		"HeroPerformancesID": [
			2414,
			2416,
			2417,
			2418,
			2427
		]
	},
	{
		"ID": 2402,
		"HeroPerformancesID": [
			2414,
			2416,
			2417,
			2418,
			2409,
			2427
		]
	},
	{
		"ID": 2403,
		"HeroPerformancesID": [
			2414,
			2416,
			2417,
			2418,
			2410,
			2427
		]
	},
	{
		"ID": 2404,
		"HeroPerformancesID": [
			2414,
			2416,
			2417,
			2418,
			2411,
			2427
		]
	},
	{
		"ID": 2405,
		"HeroPerformancesID": [
			2414,
			2416,
			2417,
			2418,
			2412
		]
	},
	{
		"ID": 2406,
		"HeroPerformancesID": [
			2414,
			2416,
			2417,
			2418,
			2413
		]
	},
	{
		"ID": 2407,
		"HeroPerformancesID": [
			2402
		]
	},
	{
		"ID": 2408,
		"HeroPerformancesID": [
			2401
		]
	},
	{
		"ID": 2409,
		"HeroPerformancesID": [
			2402,
			2403
		]
	},
	{
		"ID": 2410,
		"HeroPerformancesID": [
			2401,
			2402,
			2403,
			2404,
			2405,
			2406,
			2407,
			2408,
			2409,
			2410,
			2411,
			2412,
			2413,
			2414,
			2416,
			2417,
			2418,
			2420,
			2421,
			2422,
			2423,
			2424,
			2427,
			2428,
			2429,
			2430
		]
	},
	{
		"ID": 2411,
		"HeroPerformancesID": [
			2420,
			2430
		]
	},
	{
		"ID": 2501,
		"HeroPerformancesID": [
			2514,
			2516,
			2517,
			2518,
			2527
		]
	},
	{
		"ID": 2502,
		"HeroPerformancesID": [
			2514,
			2516,
			2517,
			2518,
			2509,
			2527
		]
	},
	{
		"ID": 2503,
		"HeroPerformancesID": [
			2514,
			2516,
			2517,
			2518,
			2510,
			2527
		]
	},
	{
		"ID": 2504,
		"HeroPerformancesID": [
			2514,
			2516,
			2517,
			2518,
			2511,
			2527
		]
	},
	{
		"ID": 2505,
		"HeroPerformancesID": [
			2514,
			2516,
			2517,
			2518,
			2512
		]
	},
	{
		"ID": 2506,
		"HeroPerformancesID": [
			2514,
			2516,
			2517,
			2518,
			2513
		]
	},
	{
		"ID": 2507,
		"HeroPerformancesID": [
			2502
		]
	},
	{
		"ID": 2508,
		"HeroPerformancesID": [
			2501
		]
	},
	{
		"ID": 2509,
		"HeroPerformancesID": [
			2502,
			2503
		]
	},
	{
		"ID": 2510,
		"HeroPerformancesID": [
			2501,
			2502,
			2503,
			2504,
			2505,
			2506,
			2507,
			2508,
			2509,
			2510,
			2511,
			2512,
			2513,
			2514,
			2516,
			2517,
			2518,
			2520,
			2521,
			2522,
			2523,
			2524,
			2527,
			2528,
			2529,
			2530
		]
	},
	{
		"ID": 2511,
		"HeroPerformancesID": [
			2520,
			2530
		]
	},
	{
		"ID": 2601,
		"HeroPerformancesID": [
			2614,
			2616,
			2617,
			2618,
			2627
		]
	},
	{
		"ID": 2602,
		"HeroPerformancesID": [
			2614,
			2616,
			2617,
			2618,
			2609,
			2627
		]
	},
	{
		"ID": 2603,
		"HeroPerformancesID": [
			2614,
			2616,
			2617,
			2618,
			2610,
			2627
		]
	},
	{
		"ID": 2604,
		"HeroPerformancesID": [
			2614,
			2616,
			2617,
			2618,
			2611,
			2627,
			2625
		]
	},
	{
		"ID": 2605,
		"HeroPerformancesID": [
			2614,
			2616,
			2617,
			2618,
			2612,
			2625
		]
	},
	{
		"ID": 2606,
		"HeroPerformancesID": [
			2614,
			2616,
			2617,
			2618,
			2613,
			2625,
			2626,
			2619
		]
	},
	{
		"ID": 2607,
		"HeroPerformancesID": [
			2602
		]
	},
	{
		"ID": 2608,
		"HeroPerformancesID": [
			2601
		]
	},
	{
		"ID": 2609,
		"HeroPerformancesID": [
			2602,
			2603
		]
	},
	{
		"ID": 2610,
		"HeroPerformancesID": [
			2601,
			2602,
			2603,
			2604,
			2605,
			2606,
			2607,
			2608,
			2609,
			2610,
			2611,
			2612,
			2613,
			2614,
			2616,
			2617,
			2618,
			2619,
			2620,
			2627,
			2628,
			2629,
			2630
		]
	},
	{
		"ID": 2611,
		"HeroPerformancesID": [
			2620,
			2630
		]
	},
	{
		"ID": 2701,
		"HeroPerformancesID": [
			2714,
			2716,
			2717,
			2718,
			2727
		]
	},
	{
		"ID": 2702,
		"HeroPerformancesID": [
			2714,
			2716,
			2717,
			2718,
			2709,
			2727
		]
	},
	{
		"ID": 2703,
		"HeroPerformancesID": [
			2714,
			2716,
			2717,
			2718,
			2710,
			2727
		]
	},
	{
		"ID": 2704,
		"HeroPerformancesID": [
			2714,
			2716,
			2717,
			2718,
			2711,
			2727
		]
	},
	{
		"ID": 2705,
		"HeroPerformancesID": [
			2714,
			2716,
			2717,
			2718,
			2712
		]
	},
	{
		"ID": 2706,
		"HeroPerformancesID": [
			2714,
			2716,
			2717,
			2718,
			2713
		]
	},
	{
		"ID": 2707,
		"HeroPerformancesID": [
			2702
		]
	},
	{
		"ID": 2708,
		"HeroPerformancesID": [
			2701
		]
	},
	{
		"ID": 2709,
		"HeroPerformancesID": [
			2702,
			2703
		]
	},
	{
		"ID": 2710,
		"HeroPerformancesID": [
			2701,
			2702,
			2703,
			2704,
			2705,
			2706,
			2707,
			2708,
			2709,
			2710,
			2711,
			2712,
			2713,
			2714,
			2716,
			2717,
			2718,
			2720,
			2721,
			2722,
			2723,
			2724,
			2727,
			2728,
			2729,
			2730
		]
	},
	{
		"ID": 2711,
		"HeroPerformancesID": [
			2720,
			2730
		]
	},
	{
		"ID": 2801,
		"HeroPerformancesID": [
			2814,
			2816,
			2817,
			2818,
			2827,
			2815
		]
	},
	{
		"ID": 2802,
		"HeroPerformancesID": [
			2814,
			2816,
			2817,
			2818,
			2809,
			2827,
			2815
		]
	},
	{
		"ID": 2803,
		"HeroPerformancesID": [
			2814,
			2816,
			2817,
			2818,
			2810,
			2827,
			2815
		]
	},
	{
		"ID": 2804,
		"HeroPerformancesID": [
			2814,
			2816,
			2817,
			2818,
			2811,
			2827,
			2825,
			2815
		]
	},
	{
		"ID": 2805,
		"HeroPerformancesID": [
			2814,
			2816,
			2817,
			2818,
			2812,
			2825,
			2815
		]
	},
	{
		"ID": 2806,
		"HeroPerformancesID": [
			2814,
			2816,
			2817,
			2818,
			2813,
			2825,
			2826,
			2819,
			2815
		]
	},
	{
		"ID": 2807,
		"HeroPerformancesID": [
			2802
		]
	},
	{
		"ID": 2808,
		"HeroPerformancesID": [
			2801
		]
	},
	{
		"ID": 2809,
		"HeroPerformancesID": [
			2802,
			2803
		]
	},
	{
		"ID": 2810,
		"HeroPerformancesID": [
			2801,
			2802,
			2803,
			2804,
			2805,
			2806,
			2807,
			2808,
			2809,
			2810,
			2811,
			2812,
			2813,
			2814,
			2815,
			2816,
			2817,
			2818,
			2819,
			2820,
			2821,
			2822,
			2823,
			2825,
			2826,
			2827,
			2829,
			2830
		]
	},
	{
		"ID": 2811,
		"HeroPerformancesID": [
			2820,
			2830
		]
	},
	{
		"ID": 2901,
		"HeroPerformancesID": [
			2914,
			2916,
			2917,
			2918,
			2927
		]
	},
	{
		"ID": 2902,
		"HeroPerformancesID": [
			2914,
			2916,
			2917,
			2918,
			2909,
			2927
		]
	},
	{
		"ID": 2903,
		"HeroPerformancesID": [
			2914,
			2916,
			2917,
			2918,
			2910,
			2927
		]
	},
	{
		"ID": 2904,
		"HeroPerformancesID": [
			2914,
			2916,
			2917,
			2918,
			2911,
			2927,
			2925
		]
	},
	{
		"ID": 2905,
		"HeroPerformancesID": [
			2914,
			2916,
			2917,
			2918,
			2912,
			2925
		]
	},
	{
		"ID": 2906,
		"HeroPerformancesID": [
			2914,
			2916,
			2917,
			2918,
			2913,
			2925,
			2926,
			2919
		]
	},
	{
		"ID": 2907,
		"HeroPerformancesID": [
			2902
		]
	},
	{
		"ID": 2908,
		"HeroPerformancesID": [
			2901
		]
	},
	{
		"ID": 2909,
		"HeroPerformancesID": [
			2902,
			2903
		]
	},
	{
		"ID": 2910,
		"HeroPerformancesID": [
			2901,
			2902,
			2903,
			2904,
			2905,
			2906,
			2907,
			2908,
			2909,
			2910,
			2911,
			2912,
			2913,
			2914,
			2916,
			2917,
			2918,
			2919,
			2920,
			2921,
			2923,
			2924,
			2925,
			2926,
			2929,
			2930
		]
	},
	{
		"ID": 2911,
		"HeroPerformancesID": [
			2920,
			2930
		]
	},
	{
		"ID": 3001,
		"HeroPerformancesID": [
			3014,
			3016,
			3017,
			3018,
			3027
		]
	},
	{
		"ID": 3002,
		"HeroPerformancesID": [
			3014,
			3016,
			3017,
			3018,
			3009,
			3027
		]
	},
	{
		"ID": 3003,
		"HeroPerformancesID": [
			3014,
			3016,
			3017,
			3018,
			3010,
			3027
		]
	},
	{
		"ID": 3004,
		"HeroPerformancesID": [
			3014,
			3016,
			3017,
			3018,
			3011,
			3027,
			3025
		]
	},
	{
		"ID": 3005,
		"HeroPerformancesID": [
			3014,
			3016,
			3017,
			3018,
			3012,
			3025
		]
	},
	{
		"ID": 3006,
		"HeroPerformancesID": [
			3014,
			3016,
			3017,
			3018,
			3013,
			3025,
			3026,
			3019
		]
	},
	{
		"ID": 3007,
		"HeroPerformancesID": [
			3002
		]
	},
	{
		"ID": 3008,
		"HeroPerformancesID": [
			3001
		]
	},
	{
		"ID": 3009,
		"HeroPerformancesID": [
			3002,
			3003
		]
	},
	{
		"ID": 3010,
		"HeroPerformancesID": [
			3001,
			3002,
			3003,
			3004,
			3005,
			3006,
			3007,
			3008,
			3009,
			3010,
			3011,
			3012,
			3013,
			3014,
			3016,
			3017,
			3018,
			3019,
			3020,
			3022,
			3023,
			3024,
			3025,
			3026,
			3027,
			3028,
			3029,
			3030
		]
	},
	{
		"ID": 3011,
		"HeroPerformancesID": [
			3020,
			3030
		]
	},
	{
		"ID": 3101,
		"HeroPerformancesID": [
			3114,
			3116,
			3117,
			3118,
			3127
		]
	},
	{
		"ID": 3102,
		"HeroPerformancesID": [
			3114,
			3116,
			3117,
			3118,
			3109,
			3127
		]
	},
	{
		"ID": 3103,
		"HeroPerformancesID": [
			3114,
			3116,
			3117,
			3118,
			3110,
			3127
		]
	},
	{
		"ID": 3104,
		"HeroPerformancesID": [
			3114,
			3116,
			3117,
			3118,
			3111,
			3127,
			3125
		]
	},
	{
		"ID": 3105,
		"HeroPerformancesID": [
			3114,
			3116,
			3117,
			3118,
			3112,
			3125
		]
	},
	{
		"ID": 3106,
		"HeroPerformancesID": [
			3114,
			3116,
			3117,
			3118,
			3113,
			3125,
			3126,
			3119
		]
	},
	{
		"ID": 3107,
		"HeroPerformancesID": [
			3102
		]
	},
	{
		"ID": 3108,
		"HeroPerformancesID": [
			3101
		]
	},
	{
		"ID": 3109,
		"HeroPerformancesID": [
			3102,
			3103
		]
	},
	{
		"ID": 3110,
		"HeroPerformancesID": [
			3101,
			3102,
			3103,
			3104,
			3105,
			3106,
			3107,
			3108,
			3109,
			3110,
			3111,
			3112,
			3113,
			3114,
			3116,
			3117,
			3118,
			3119,
			3120,
			3122,
			3124,
			3125,
			3129,
			3130
		]
	},
	{
		"ID": 3111,
		"HeroPerformancesID": [
			3120,
			3130
		]
	},
	{
		"ID": 3201,
		"HeroPerformancesID": [
			3214,
			3216,
			3217,
			3218,
			3227
		]
	},
	{
		"ID": 3202,
		"HeroPerformancesID": [
			3214,
			3216,
			3217,
			3218,
			3209,
			3227
		]
	},
	{
		"ID": 3203,
		"HeroPerformancesID": [
			3214,
			3216,
			3217,
			3218,
			3210,
			3227
		]
	},
	{
		"ID": 3204,
		"HeroPerformancesID": [
			3214,
			3216,
			3217,
			3218,
			3211,
			3227
		]
	},
	{
		"ID": 3205,
		"HeroPerformancesID": [
			3214,
			3216,
			3217,
			3218,
			3212
		]
	},
	{
		"ID": 3206,
		"HeroPerformancesID": [
			3214,
			3216,
			3217,
			3218,
			3213
		]
	},
	{
		"ID": 3207,
		"HeroPerformancesID": [
			3202
		]
	},
	{
		"ID": 3208,
		"HeroPerformancesID": [
			3201
		]
	},
	{
		"ID": 3209,
		"HeroPerformancesID": [
			3202,
			3203
		]
	},
	{
		"ID": 3210,
		"HeroPerformancesID": [
			3201,
			3202,
			3203,
			3204,
			3205,
			3206,
			3207,
			3208,
			3209,
			3210,
			3211,
			3212,
			3213,
			3214,
			3216,
			3217,
			3218,
			3220,
			3221,
			3222,
			3223,
			3224,
			3227,
			3228,
			3229,
			3230
		]
	},
	{
		"ID": 3211,
		"HeroPerformancesID": [
			3220,
			3230
		]
	},
	{
		"ID": 3301,
		"HeroPerformancesID": [
			3314,
			3316,
			3317,
			3318,
			3327
		]
	},
	{
		"ID": 3302,
		"HeroPerformancesID": [
			3314,
			3316,
			3317,
			3318,
			3309,
			3327
		]
	},
	{
		"ID": 3303,
		"HeroPerformancesID": [
			3314,
			3316,
			3317,
			3318,
			3310,
			3327
		]
	},
	{
		"ID": 3304,
		"HeroPerformancesID": [
			3314,
			3316,
			3317,
			3318,
			3311,
			3327,
			3325
		]
	},
	{
		"ID": 3305,
		"HeroPerformancesID": [
			3314,
			3316,
			3317,
			3318,
			3312,
			3325
		]
	},
	{
		"ID": 3306,
		"HeroPerformancesID": [
			3314,
			3316,
			3317,
			3318,
			3313,
			3325,
			3326,
			3319
		]
	},
	{
		"ID": 3307,
		"HeroPerformancesID": [
			3302
		]
	},
	{
		"ID": 3308,
		"HeroPerformancesID": [
			3301
		]
	},
	{
		"ID": 3309,
		"HeroPerformancesID": [
			3302,
			3303
		]
	},
	{
		"ID": 3310,
		"HeroPerformancesID": [
			3301,
			3302,
			3303,
			3304,
			3305,
			3306,
			3307,
			3308,
			3309,
			3310,
			3311,
			3312,
			3313,
			3314,
			3316,
			3317,
			3318,
			3319,
			3326,
			3330
		]
	},
	{
		"ID": 3311,
		"HeroPerformancesID": [
			3320,
			3330
		]
	},
	{
		"ID": 3401,
		"HeroPerformancesID": [
			3414,
			3416,
			3417,
			3418,
			3427,
			3415
		]
	},
	{
		"ID": 3402,
		"HeroPerformancesID": [
			3414,
			3416,
			3417,
			3418,
			3409,
			3427,
			3415
		]
	},
	{
		"ID": 3403,
		"HeroPerformancesID": [
			3414,
			3416,
			3417,
			3418,
			3410,
			3427,
			3415
		]
	},
	{
		"ID": 3404,
		"HeroPerformancesID": [
			3414,
			3416,
			3417,
			3418,
			3411,
			3427,
			3415
		]
	},
	{
		"ID": 3405,
		"HeroPerformancesID": [
			3414,
			3416,
			3417,
			3418,
			3412,
			3415
		]
	},
	{
		"ID": 3406,
		"HeroPerformancesID": [
			3414,
			3416,
			3417,
			3418,
			3413,
			3415
		]
	},
	{
		"ID": 3407,
		"HeroPerformancesID": [
			3402
		]
	},
	{
		"ID": 3408,
		"HeroPerformancesID": [
			3401
		]
	},
	{
		"ID": 3409,
		"HeroPerformancesID": [
			3402,
			3403
		]
	},
	{
		"ID": 3410,
		"HeroPerformancesID": [
			3401,
			3402,
			3403,
			3404,
			3405,
			3406,
			3407,
			3408,
			3409,
			3410,
			3411,
			3412,
			3413,
			3414,
			3415,
			3416,
			3417,
			3420,
			3421,
			3422,
			3423,
			3424,
			3427,
			3428,
			3429,
			3430
		]
	},
	{
		"ID": 3411,
		"HeroPerformancesID": [
			3420,
			3430
		]
	},
	{
		"ID": 3501,
		"HeroPerformancesID": [
			3514,
			3516,
			3517,
			3518,
			3527
		]
	},
	{
		"ID": 3502,
		"HeroPerformancesID": [
			3514,
			3516,
			3517,
			3518,
			3509,
			3527
		]
	},
	{
		"ID": 3503,
		"HeroPerformancesID": [
			3514,
			3516,
			3517,
			3518,
			3510,
			3527
		]
	},
	{
		"ID": 3504,
		"HeroPerformancesID": [
			3514,
			3516,
			3517,
			3518,
			3511,
			3527,
			3525
		]
	},
	{
		"ID": 3505,
		"HeroPerformancesID": [
			3514,
			3516,
			3517,
			3518,
			3512,
			3525
		]
	},
	{
		"ID": 3506,
		"HeroPerformancesID": [
			3514,
			3516,
			3517,
			3518,
			3513,
			3525,
			3526,
			3519
		]
	},
	{
		"ID": 3507,
		"HeroPerformancesID": [
			3502
		]
	},
	{
		"ID": 3508,
		"HeroPerformancesID": [
			3501
		]
	},
	{
		"ID": 3509,
		"HeroPerformancesID": [
			3502,
			3503
		]
	},
	{
		"ID": 3510,
		"HeroPerformancesID": [
			3501,
			3502,
			3503,
			3504,
			3505,
			3506,
			3507,
			3508,
			3509,
			3510,
			3511,
			3512,
			3513,
			3514,
			3516,
			3517,
			3518,
			3519,
			3520,
			3521,
			3524,
			3525,
			3526,
			3527,
			3528,
			3529,
			3530
		]
	},
	{
		"ID": 3511,
		"HeroPerformancesID": [
			3520,
			3530
		]
	},
	{
		"ID": 3601,
		"HeroPerformancesID": [
			3614,
			3616,
			3617,
			3618,
			3627,
			3615
		]
	},
	{
		"ID": 3602,
		"HeroPerformancesID": [
			3614,
			3616,
			3617,
			3618,
			3609,
			3627,
			3615
		]
	},
	{
		"ID": 3603,
		"HeroPerformancesID": [
			3614,
			3616,
			3617,
			3618,
			3610,
			3627,
			3615
		]
	},
	{
		"ID": 3604,
		"HeroPerformancesID": [
			3614,
			3616,
			3617,
			3618,
			3611,
			3627,
			3615
		]
	},
	{
		"ID": 3605,
		"HeroPerformancesID": [
			3614,
			3616,
			3617,
			3618,
			3612,
			3615
		]
	},
	{
		"ID": 3606,
		"HeroPerformancesID": [
			3614,
			3616,
			3617,
			3618,
			3613,
			3615
		]
	},
	{
		"ID": 3607,
		"HeroPerformancesID": [
			3602
		]
	},
	{
		"ID": 3608,
		"HeroPerformancesID": [
			3601
		]
	},
	{
		"ID": 3609,
		"HeroPerformancesID": [
			3602,
			3603
		]
	},
	{
		"ID": 3610,
		"HeroPerformancesID": [
			3601,
			3602,
			3603,
			3604,
			3605,
			3606,
			3607,
			3608,
			3609,
			3610,
			3611,
			3612,
			3613,
			3614,
			3615,
			3616,
			3617,
			3620,
			3621,
			3622,
			3623,
			3624,
			3627,
			3628,
			3629,
			3630
		]
	},
	{
		"ID": 3611,
		"HeroPerformancesID": [
			3620,
			3630
		]
	},
	{
		"ID": 3701,
		"HeroPerformancesID": [
			3714,
			3716,
			3717,
			3718,
			3727
		]
	},
	{
		"ID": 3702,
		"HeroPerformancesID": [
			3714,
			3716,
			3717,
			3718,
			3709,
			3727
		]
	},
	{
		"ID": 3703,
		"HeroPerformancesID": [
			3714,
			3716,
			3717,
			3718,
			3710,
			3727
		]
	},
	{
		"ID": 3704,
		"HeroPerformancesID": [
			3714,
			3716,
			3717,
			3718,
			3711,
			3727
		]
	},
	{
		"ID": 3705,
		"HeroPerformancesID": [
			3714,
			3716,
			3717,
			3718,
			3712
		]
	},
	{
		"ID": 3706,
		"HeroPerformancesID": [
			3714,
			3716,
			3717,
			3718,
			3713
		]
	},
	{
		"ID": 3707,
		"HeroPerformancesID": [
			3702
		]
	},
	{
		"ID": 3708,
		"HeroPerformancesID": [
			3701
		]
	},
	{
		"ID": 3709,
		"HeroPerformancesID": [
			3702,
			3703
		]
	},
	{
		"ID": 3710,
		"HeroPerformancesID": [
			3701,
			3702,
			3703,
			3704,
			3705,
			3706,
			3707,
			3708,
			3709,
			3710,
			3711,
			3712,
			3713,
			3714,
			3716,
			3717,
			3718,
			3720,
			3721,
			3722,
			3723,
			3724,
			3727,
			3728,
			3729,
			3730
		]
	},
	{
		"ID": 3711,
		"HeroPerformancesID": [
			3720,
			3730
		]
	},
	{
		"ID": 3801,
		"HeroPerformancesID": [
			3814,
			3816,
			3817,
			3818,
			3827
		]
	},
	{
		"ID": 3802,
		"HeroPerformancesID": [
			3814,
			3816,
			3817,
			3818,
			3809,
			3827
		]
	},
	{
		"ID": 3803,
		"HeroPerformancesID": [
			3814,
			3816,
			3817,
			3818,
			3810,
			3827
		]
	},
	{
		"ID": 3804,
		"HeroPerformancesID": [
			3814,
			3816,
			3817,
			3818,
			3811,
			3827
		]
	},
	{
		"ID": 3805,
		"HeroPerformancesID": [
			3814,
			3816,
			3817,
			3818,
			3812
		]
	},
	{
		"ID": 3806,
		"HeroPerformancesID": [
			3814,
			3816,
			3817,
			3818,
			3813
		]
	},
	{
		"ID": 3807,
		"HeroPerformancesID": [
			3802
		]
	},
	{
		"ID": 3808,
		"HeroPerformancesID": [
			3801
		]
	},
	{
		"ID": 3809,
		"HeroPerformancesID": [
			3802,
			3803
		]
	},
	{
		"ID": 3810,
		"HeroPerformancesID": [
			3801,
			3802,
			3803,
			3804,
			3805,
			3806,
			3807,
			3808,
			3809,
			3810,
			3811,
			3812,
			3813,
			3814,
			3816,
			3817,
			3818,
			3820,
			3821,
			3822,
			3823,
			3829,
			3830
		]
	},
	{
		"ID": 3811,
		"HeroPerformancesID": [
			3820,
			3830
		]
	},
	{
		"ID": 3901,
		"HeroPerformancesID": [
			3914,
			3916,
			3917,
			3918,
			3927
		]
	},
	{
		"ID": 3902,
		"HeroPerformancesID": [
			3914,
			3916,
			3917,
			3918,
			3909,
			3927
		]
	},
	{
		"ID": 3903,
		"HeroPerformancesID": [
			3914,
			3916,
			3917,
			3918,
			3910,
			3927
		]
	},
	{
		"ID": 3904,
		"HeroPerformancesID": [
			3914,
			3916,
			3917,
			3918,
			3911,
			3927,
			3925
		]
	},
	{
		"ID": 3905,
		"HeroPerformancesID": [
			3914,
			3916,
			3917,
			3918,
			3912,
			3925
		]
	},
	{
		"ID": 3906,
		"HeroPerformancesID": [
			3914,
			3916,
			3917,
			3918,
			3913,
			3925,
			3926,
			3919
		]
	},
	{
		"ID": 3907,
		"HeroPerformancesID": [
			3902
		]
	},
	{
		"ID": 3908,
		"HeroPerformancesID": [
			3901
		]
	},
	{
		"ID": 3909,
		"HeroPerformancesID": [
			3902,
			3903
		]
	},
	{
		"ID": 3910,
		"HeroPerformancesID": [
			3901,
			3902,
			3903,
			3904,
			3905,
			3906,
			3907,
			3908,
			3909,
			3910,
			3911,
			3912,
			3913,
			3914,
			3916,
			3917,
			3918,
			3919,
			3922,
			3924,
			3925,
			3926,
			3927,
			3928,
			3929,
			3930
		]
	},
	{
		"ID": 3911,
		"HeroPerformancesID": [
			3920,
			3930
		]
	},
	{
		"ID": 4001,
		"HeroPerformancesID": [
			4014,
			4016,
			4017,
			4018,
			4027
		]
	},
	{
		"ID": 4002,
		"HeroPerformancesID": [
			4014,
			4016,
			4017,
			4018,
			4009,
			4027
		]
	},
	{
		"ID": 4003,
		"HeroPerformancesID": [
			4014,
			4016,
			4017,
			4018,
			4010,
			4027
		]
	},
	{
		"ID": 4004,
		"HeroPerformancesID": [
			4014,
			4016,
			4017,
			4018,
			4011,
			4027
		]
	},
	{
		"ID": 4005,
		"HeroPerformancesID": [
			4014,
			4016,
			4017,
			4018,
			4012
		]
	},
	{
		"ID": 4006,
		"HeroPerformancesID": [
			4014,
			4016,
			4017,
			4018,
			4013
		]
	},
	{
		"ID": 4007,
		"HeroPerformancesID": [
			4002
		]
	},
	{
		"ID": 4008,
		"HeroPerformancesID": [
			4001
		]
	},
	{
		"ID": 4009,
		"HeroPerformancesID": [
			4002,
			4003
		]
	},
	{
		"ID": 4010,
		"HeroPerformancesID": [
			4001,
			4002,
			4003,
			4004,
			4005,
			4006,
			4007,
			4008,
			4009,
			4010,
			4011,
			4012,
			4013,
			4014,
			4016,
			4017,
			4018,
			4020,
			4021,
			4022,
			4023,
			4024,
			4027,
			4028,
			4029,
			4030
		]
	},
	{
		"ID": 4011,
		"HeroPerformancesID": [
			4020,
			4030
		]
	},
	{
		"ID": 4101,
		"HeroPerformancesID": [
			4114,
			4116,
			4117,
			4118,
			4127
		]
	},
	{
		"ID": 4102,
		"HeroPerformancesID": [
			4114,
			4116,
			4117,
			4118,
			4109,
			4127
		]
	},
	{
		"ID": 4103,
		"HeroPerformancesID": [
			4114,
			4116,
			4117,
			4118,
			4110,
			4127
		]
	},
	{
		"ID": 4104,
		"HeroPerformancesID": [
			4114,
			4116,
			4117,
			4118,
			4111,
			4127
		]
	},
	{
		"ID": 4105,
		"HeroPerformancesID": [
			4114,
			4116,
			4117,
			4118,
			4112
		]
	},
	{
		"ID": 4106,
		"HeroPerformancesID": [
			4114,
			4116,
			4117,
			4118,
			4113
		]
	},
	{
		"ID": 4107,
		"HeroPerformancesID": [
			4102
		]
	},
	{
		"ID": 4108,
		"HeroPerformancesID": [
			4101
		]
	},
	{
		"ID": 4109,
		"HeroPerformancesID": [
			4102,
			4103
		]
	},
	{
		"ID": 4110,
		"HeroPerformancesID": [
			4101,
			4102,
			4103,
			4104,
			4105,
			4106,
			4107,
			4108,
			4109,
			4110,
			4111,
			4112,
			4113,
			4114,
			4116,
			4117,
			4118,
			4120,
			4121,
			4122,
			4123,
			4124,
			4127,
			4128,
			4129,
			4130
		]
	},
	{
		"ID": 4111,
		"HeroPerformancesID": [
			4120,
			4130
		]
	},
	{
		"ID": 4201,
		"HeroPerformancesID": [
			4214,
			4216,
			4217,
			4227,
			4215
		]
	},
	{
		"ID": 4202,
		"HeroPerformancesID": [
			4214,
			4216,
			4217,
			4209,
			4227,
			4215
		]
	},
	{
		"ID": 4203,
		"HeroPerformancesID": [
			4214,
			4216,
			4217,
			4210,
			4227,
			4215
		]
	},
	{
		"ID": 4204,
		"HeroPerformancesID": [
			4214,
			4216,
			4217,
			4211,
			4227,
			4215
		]
	},
	{
		"ID": 4205,
		"HeroPerformancesID": [
			4214,
			4216,
			4217,
			4212,
			4215
		]
	},
	{
		"ID": 4206,
		"HeroPerformancesID": [
			4214,
			4216,
			4217,
			4213,
			4215
		]
	},
	{
		"ID": 4207,
		"HeroPerformancesID": [
			4202
		]
	},
	{
		"ID": 4208,
		"HeroPerformancesID": [
			4201
		]
	},
	{
		"ID": 4209,
		"HeroPerformancesID": [
			4202,
			4203
		]
	},
	{
		"ID": 4210,
		"HeroPerformancesID": [
			4201,
			4202,
			4203,
			4204,
			4205,
			4206,
			4207,
			4208,
			4209,
			4210,
			4211,
			4212,
			4213,
			4214,
			4215,
			4216,
			4217,
			4220,
			4221,
			4222,
			4223,
			4224,
			4227,
			4228,
			4229,
			4230
		]
	},
	{
		"ID": 4211,
		"HeroPerformancesID": [
			4220,
			4230
		]
	},
	{
		"ID": 4301,
		"HeroPerformancesID": [
			4314,
			4316,
			4317,
			4318,
			4327
		]
	},
	{
		"ID": 4302,
		"HeroPerformancesID": [
			4314,
			4316,
			4317,
			4318,
			4309,
			4327
		]
	},
	{
		"ID": 4303,
		"HeroPerformancesID": [
			4314,
			4316,
			4317,
			4318,
			4310,
			4327
		]
	},
	{
		"ID": 4304,
		"HeroPerformancesID": [
			4314,
			4316,
			4317,
			4318,
			4311,
			4327,
			4325
		]
	},
	{
		"ID": 4305,
		"HeroPerformancesID": [
			4314,
			4316,
			4317,
			4318,
			4312,
			4325
		]
	},
	{
		"ID": 4306,
		"HeroPerformancesID": [
			4314,
			4316,
			4317,
			4318,
			4313,
			4325,
			4326,
			4319
		]
	},
	{
		"ID": 4307,
		"HeroPerformancesID": [
			4302
		]
	},
	{
		"ID": 4308,
		"HeroPerformancesID": [
			4301
		]
	},
	{
		"ID": 4309,
		"HeroPerformancesID": [
			4302,
			4303
		]
	},
	{
		"ID": 4310,
		"HeroPerformancesID": [
			4301,
			4302,
			4303,
			4304,
			4305,
			4306,
			4307,
			4308,
			4309,
			4310,
			4311,
			4312,
			4313,
			4314,
			4316,
			4317,
			4318,
			4319,
			4326,
			4330
		]
	},
	{
		"ID": 4311,
		"HeroPerformancesID": [
			4320,
			4330
		]
	},
	{
		"ID": 4401,
		"HeroPerformancesID": [
			4414,
			4416,
			4417,
			4418,
			4427,
			4415
		]
	},
	{
		"ID": 4402,
		"HeroPerformancesID": [
			4414,
			4416,
			4417,
			4418,
			4409,
			4427,
			4415
		]
	},
	{
		"ID": 4403,
		"HeroPerformancesID": [
			4414,
			4416,
			4417,
			4418,
			4410,
			4427,
			4415
		]
	},
	{
		"ID": 4404,
		"HeroPerformancesID": [
			4414,
			4416,
			4417,
			4418,
			4411,
			4427,
			4415
		]
	},
	{
		"ID": 4405,
		"HeroPerformancesID": [
			4414,
			4416,
			4417,
			4418,
			4412,
			4415
		]
	},
	{
		"ID": 4406,
		"HeroPerformancesID": [
			4414,
			4416,
			4417,
			4418,
			4413,
			4415
		]
	},
	{
		"ID": 4407,
		"HeroPerformancesID": [
			4402
		]
	},
	{
		"ID": 4408,
		"HeroPerformancesID": [
			4401
		]
	},
	{
		"ID": 4409,
		"HeroPerformancesID": [
			4402,
			4403
		]
	},
	{
		"ID": 4410,
		"HeroPerformancesID": [
			4401,
			4402,
			4403,
			4404,
			4405,
			4406,
			4407,
			4408,
			4409,
			4410,
			4411,
			4412,
			4413,
			4414,
			4415,
			4416,
			4417,
			4418,
			4420,
			4421,
			4422,
			4423,
			4424,
			4427,
			4428,
			4429,
			4430
		]
	},
	{
		"ID": 4411,
		"HeroPerformancesID": [
			4420,
			4430
		]
	},
	{
		"ID": 4501,
		"HeroPerformancesID": [
			4514,
			4516,
			4517,
			4527,
			4515
		]
	},
	{
		"ID": 4502,
		"HeroPerformancesID": [
			4514,
			4516,
			4517,
			4509,
			4527,
			4515
		]
	},
	{
		"ID": 4503,
		"HeroPerformancesID": [
			4514,
			4516,
			4517,
			4510,
			4527,
			4515
		]
	},
	{
		"ID": 4504,
		"HeroPerformancesID": [
			4514,
			4516,
			4517,
			4511,
			4527,
			4515
		]
	},
	{
		"ID": 4505,
		"HeroPerformancesID": [
			4514,
			4516,
			4517,
			4512,
			4515
		]
	},
	{
		"ID": 4506,
		"HeroPerformancesID": [
			4514,
			4516,
			4517,
			4513,
			4515
		]
	},
	{
		"ID": 4507,
		"HeroPerformancesID": [
			4502
		]
	},
	{
		"ID": 4508,
		"HeroPerformancesID": [
			4501
		]
	},
	{
		"ID": 4509,
		"HeroPerformancesID": [
			4502,
			4503
		]
	},
	{
		"ID": 4510,
		"HeroPerformancesID": [
			4501,
			4502,
			4503,
			4504,
			4505,
			4506,
			4507,
			4508,
			4509,
			4510,
			4511,
			4512,
			4513,
			4514,
			4515,
			4516,
			4517,
			4520,
			4521,
			4522,
			4523,
			4524,
			4527,
			4528,
			4529,
			4530
		]
	},
	{
		"ID": 4511,
		"HeroPerformancesID": [
			4520,
			4530
		]
	},
	{
		"ID": 4601,
		"HeroPerformancesID": [
			4614,
			4616,
			4617,
			4618,
			4627
		]
	},
	{
		"ID": 4602,
		"HeroPerformancesID": [
			4614,
			4616,
			4617,
			4618,
			4609,
			4627
		]
	},
	{
		"ID": 4603,
		"HeroPerformancesID": [
			4614,
			4616,
			4617,
			4618,
			4610,
			4627
		]
	},
	{
		"ID": 4604,
		"HeroPerformancesID": [
			4614,
			4616,
			4617,
			4618,
			4611,
			4627,
			4625
		]
	},
	{
		"ID": 4605,
		"HeroPerformancesID": [
			4614,
			4616,
			4617,
			4618,
			4612,
			4625
		]
	},
	{
		"ID": 4606,
		"HeroPerformancesID": [
			4614,
			4616,
			4617,
			4618,
			4613,
			4625,
			4626,
			4619
		]
	},
	{
		"ID": 4607,
		"HeroPerformancesID": [
			4602
		]
	},
	{
		"ID": 4608,
		"HeroPerformancesID": [
			4601
		]
	},
	{
		"ID": 4609,
		"HeroPerformancesID": [
			4602,
			4603
		]
	},
	{
		"ID": 4610,
		"HeroPerformancesID": [
			4601,
			4602,
			4603,
			4604,
			4605,
			4606,
			4607,
			4608,
			4609,
			4610,
			4611,
			4612,
			4613,
			4614,
			4616,
			4617,
			4618,
			4619,
			4625,
			4626,
			4630
		]
	},
	{
		"ID": 4611,
		"HeroPerformancesID": [
			4620,
			4630
		]
	},
	{
		"ID": 4701,
		"HeroPerformancesID": [
			4714,
			4716,
			4717,
			4718,
			4727
		]
	},
	{
		"ID": 4702,
		"HeroPerformancesID": [
			4714,
			4716,
			4717,
			4718,
			4709,
			4727
		]
	},
	{
		"ID": 4703,
		"HeroPerformancesID": [
			4714,
			4716,
			4717,
			4718,
			4710,
			4727
		]
	},
	{
		"ID": 4704,
		"HeroPerformancesID": [
			4714,
			4716,
			4717,
			4718,
			4711,
			4727,
			4725
		]
	},
	{
		"ID": 4705,
		"HeroPerformancesID": [
			4714,
			4716,
			4717,
			4718,
			4712,
			4725
		]
	},
	{
		"ID": 4706,
		"HeroPerformancesID": [
			4714,
			4716,
			4717,
			4718,
			4713,
			4725,
			4726,
			4719
		]
	},
	{
		"ID": 4707,
		"HeroPerformancesID": [
			4702
		]
	},
	{
		"ID": 4708,
		"HeroPerformancesID": [
			4701
		]
	},
	{
		"ID": 4709,
		"HeroPerformancesID": [
			4702,
			4703
		]
	},
	{
		"ID": 4710,
		"HeroPerformancesID": [
			4701,
			4702,
			4703,
			4704,
			4705,
			4706,
			4707,
			4708,
			4709,
			4710,
			4711,
			4712,
			4713,
			4714,
			4716,
			4717,
			4718,
			4719,
			4724,
			4726,
			4727,
			4730
		]
	},
	{
		"ID": 4711,
		"HeroPerformancesID": [
			4720,
			4730
		]
	},
	{
		"ID": 4801,
		"HeroPerformancesID": [
			4814,
			4816,
			4817,
			4827,
			4815
		]
	},
	{
		"ID": 4802,
		"HeroPerformancesID": [
			4814,
			4816,
			4817,
			4809,
			4827,
			4815
		]
	},
	{
		"ID": 4803,
		"HeroPerformancesID": [
			4814,
			4816,
			4817,
			4810,
			4827,
			4815
		]
	},
	{
		"ID": 4804,
		"HeroPerformancesID": [
			4814,
			4816,
			4817,
			4811,
			4827,
			4815
		]
	},
	{
		"ID": 4805,
		"HeroPerformancesID": [
			4814,
			4816,
			4817,
			4812,
			4815
		]
	},
	{
		"ID": 4806,
		"HeroPerformancesID": [
			4814,
			4816,
			4817,
			4813,
			4815
		]
	},
	{
		"ID": 4807,
		"HeroPerformancesID": [
			4802
		]
	},
	{
		"ID": 4808,
		"HeroPerformancesID": [
			4801
		]
	},
	{
		"ID": 4809,
		"HeroPerformancesID": [
			4802,
			4803
		]
	},
	{
		"ID": 4810,
		"HeroPerformancesID": [
			4801,
			4802,
			4803,
			4804,
			4805,
			4806,
			4807,
			4808,
			4809,
			4810,
			4811,
			4812,
			4813,
			4814,
			4815,
			4816,
			4817,
			4820,
			4821,
			4822,
			4823,
			4824,
			4827,
			4828,
			4829,
			4830
		]
	},
	{
		"ID": 4811,
		"HeroPerformancesID": [
			4820,
			4830
		]
	},
	{
		"ID": 4901,
		"HeroPerformancesID": [
			4914,
			4916,
			4917,
			4918
		]
	},
	{
		"ID": 4902,
		"HeroPerformancesID": [
			4914,
			4916,
			4917,
			4918,
			4909,
			4927,
			4915
		]
	},
	{
		"ID": 4903,
		"HeroPerformancesID": [
			4914,
			4916,
			4917,
			4918,
			4910,
			4927,
			4915
		]
	},
	{
		"ID": 4904,
		"HeroPerformancesID": [
			4914,
			4916,
			4917,
			4918,
			4911,
			4927,
			4915
		]
	},
	{
		"ID": 4905,
		"HeroPerformancesID": [
			4914,
			4916,
			4917,
			4918,
			4912,
			4915
		]
	},
	{
		"ID": 4906,
		"HeroPerformancesID": [
			4914,
			4916,
			4917,
			4918,
			4913,
			4915
		]
	},
	{
		"ID": 4907,
		"HeroPerformancesID": [
			4902
		]
	},
	{
		"ID": 4908,
		"HeroPerformancesID": [
			4901
		]
	},
	{
		"ID": 4909,
		"HeroPerformancesID": [
			4902,
			4903
		]
	},
	{
		"ID": 4910,
		"HeroPerformancesID": [
			4901,
			4902,
			4903,
			4904,
			4905,
			4906,
			4907,
			4908,
			4909,
			4910,
			4911,
			4912,
			4913,
			4914,
			4916,
			4917,
			4918,
			4924,
			4928,
			4929,
			4930
		]
	},
	{
		"ID": 4911,
		"HeroPerformancesID": [
			4930
		]
	},
	{
		"ID": 5001,
		"HeroPerformancesID": [
			5014,
			5016,
			5017,
			5018,
			5017
		]
	},
	{
		"ID": 5002,
		"HeroPerformancesID": [
			5014,
			5016,
			5017,
			5018,
			5009,
			5017
		]
	},
	{
		"ID": 5003,
		"HeroPerformancesID": [
			5014,
			5016,
			5017,
			5018,
			5010,
			5017
		]
	},
	{
		"ID": 5004,
		"HeroPerformancesID": [
			5014,
			5016,
			5017,
			5018,
			5011,
			5017,
			5025
		]
	},
	{
		"ID": 5005,
		"HeroPerformancesID": [
			5014,
			5016,
			5017,
			5018,
			5012,
			5025
		]
	},
	{
		"ID": 5006,
		"HeroPerformancesID": [
			5014,
			5016,
			5017,
			5018,
			5013,
			5025,
			5019
		]
	},
	{
		"ID": 5007,
		"HeroPerformancesID": [
			5002
		]
	},
	{
		"ID": 5008,
		"HeroPerformancesID": [
			5001
		]
	},
	{
		"ID": 5009,
		"HeroPerformancesID": [
			5002,
			5003
		]
	},
	{
		"ID": 5010,
		"HeroPerformancesID": [
			5001,
			5002,
			5003,
			5004,
			5005,
			5006,
			5007,
			5008,
			5009,
			5010,
			5011,
			5012,
			5013,
			5014,
			5016,
			5017,
			5018,
			5019,
			5020,
			5021,
			5022,
			5023,
			5024,
			5025,
			5026,
			5027,
			5028,
			5029,
			5030
		]
	},
	{
		"ID": 5011,
		"HeroPerformancesID": [
			5030
		]
	},
	{
		"ID": 5101,
		"HeroPerformancesID": [
			5114,
			5116,
			5117,
			5118,
			5117
		]
	},
	{
		"ID": 5102,
		"HeroPerformancesID": [
			5114,
			5116,
			5117,
			5118,
			5109,
			5117
		]
	},
	{
		"ID": 5103,
		"HeroPerformancesID": [
			5114,
			5116,
			5117,
			5118,
			5110,
			5117
		]
	},
	{
		"ID": 5104,
		"HeroPerformancesID": [
			5114,
			5116,
			5117,
			5118,
			5111,
			5117,
			5125
		]
	},
	{
		"ID": 5105,
		"HeroPerformancesID": [
			5114,
			5116,
			5117,
			5118,
			5112,
			5125
		]
	},
	{
		"ID": 5106,
		"HeroPerformancesID": [
			5114,
			5116,
			5117,
			5118,
			5113,
			5125,
			5119
		]
	},
	{
		"ID": 5107,
		"HeroPerformancesID": [
			5102
		]
	},
	{
		"ID": 5108,
		"HeroPerformancesID": [
			5101
		]
	},
	{
		"ID": 5109,
		"HeroPerformancesID": [
			5102,
			5103
		]
	},
	{
		"ID": 5110,
		"HeroPerformancesID": [
			5101,
			5102,
			5103,
			5104,
			5105,
			5106,
			5107,
			5108,
			5109,
			5110,
			5111,
			5112,
			5113,
			5114,
			5116,
			5117,
			5118,
			5119,
			5120,
			5121,
			5122,
			5125,
			5127,
			5130
		]
	},
	{
		"ID": 5111,
		"HeroPerformancesID": [
			5130
		]
	},
	{
		"ID": 5201,
		"HeroPerformancesID": [
			5214,
			5216,
			5217,
			5218,
			5217
		]
	},
	{
		"ID": 5202,
		"HeroPerformancesID": [
			5214,
			5216,
			5217,
			5218,
			5209,
			5217
		]
	},
	{
		"ID": 5203,
		"HeroPerformancesID": [
			5214,
			5216,
			5217,
			5218,
			5210,
			5217
		]
	},
	{
		"ID": 5204,
		"HeroPerformancesID": [
			5214,
			5216,
			5217,
			5218,
			5211,
			5217,
			5225
		]
	},
	{
		"ID": 5205,
		"HeroPerformancesID": [
			5214,
			5216,
			5217,
			5218,
			5212,
			5225
		]
	},
	{
		"ID": 5206,
		"HeroPerformancesID": [
			5214,
			5216,
			5217,
			5218,
			5213,
			5225,
			5219
		]
	},
	{
		"ID": 5207,
		"HeroPerformancesID": [
			5202
		]
	},
	{
		"ID": 5208,
		"HeroPerformancesID": [
			5201
		]
	},
	{
		"ID": 5209,
		"HeroPerformancesID": [
			5202,
			5203
		]
	},
	{
		"ID": 5210,
		"HeroPerformancesID": [
			5201,
			5202,
			5203,
			5204,
			5205,
			5206,
			5207,
			5208,
			5209,
			5210,
			5211,
			5212,
			5213,
			5214,
			5216,
			5217,
			5218,
			5219,
			5220,
			5221,
			5222,
			5225,
			5227,
			5230
		]
	},
	{
		"ID": 5211,
		"HeroPerformancesID": [
			5230
		]
	},
	{
		"ID": 5301,
		"HeroPerformancesID": [
			5314,
			5316,
			5317,
			5318,
			5317
		]
	},
	{
		"ID": 5302,
		"HeroPerformancesID": [
			5314,
			5316,
			5317,
			5318,
			5309,
			5317
		]
	},
	{
		"ID": 5303,
		"HeroPerformancesID": [
			5314,
			5316,
			5317,
			5318,
			5310,
			5317
		]
	},
	{
		"ID": 5304,
		"HeroPerformancesID": [
			5314,
			5316,
			5317,
			5318,
			5311,
			5317,
			5325
		]
	},
	{
		"ID": 5305,
		"HeroPerformancesID": [
			5314,
			5316,
			5317,
			5318,
			5312,
			5325
		]
	},
	{
		"ID": 5306,
		"HeroPerformancesID": [
			5314,
			5316,
			5317,
			5318,
			5313,
			5325,
			5319
		]
	},
	{
		"ID": 5307,
		"HeroPerformancesID": [
			5302
		]
	},
	{
		"ID": 5308,
		"HeroPerformancesID": [
			5301
		]
	},
	{
		"ID": 5309,
		"HeroPerformancesID": [
			5302,
			5303
		]
	},
	{
		"ID": 5310,
		"HeroPerformancesID": [
			5301,
			5302,
			5303,
			5304,
			5305,
			5306,
			5307,
			5308,
			5309,
			5310,
			5311,
			5312,
			5313,
			5314,
			5316,
			5317,
			5318,
			5320,
			5321,
			5322,
			5325,
			5327,
			5330
		]
	},
	{
		"ID": 5311,
		"HeroPerformancesID": [
			5330
		]
	},
	{
		"ID": 5401,
		"HeroPerformancesID": [
			5414,
			5416,
			5417,
			5418,
			5417
		]
	},
	{
		"ID": 5402,
		"HeroPerformancesID": [
			5414,
			5416,
			5417,
			5418,
			5409,
			5417
		]
	},
	{
		"ID": 5403,
		"HeroPerformancesID": [
			5414,
			5416,
			5417,
			5418,
			5410,
			5417
		]
	},
	{
		"ID": 5404,
		"HeroPerformancesID": [
			5414,
			5416,
			5417,
			5418,
			5411,
			5417,
			5425
		]
	},
	{
		"ID": 5405,
		"HeroPerformancesID": [
			5414,
			5416,
			5417,
			5418,
			5412,
			5425
		]
	},
	{
		"ID": 5406,
		"HeroPerformancesID": [
			5414,
			5416,
			5417,
			5418,
			5413,
			5425,
			5419
		]
	},
	{
		"ID": 5407,
		"HeroPerformancesID": [
			5402
		]
	},
	{
		"ID": 5408,
		"HeroPerformancesID": [
			5401
		]
	},
	{
		"ID": 5409,
		"HeroPerformancesID": [
			5402,
			5403
		]
	},
	{
		"ID": 5410,
		"HeroPerformancesID": [
			5401,
			5402,
			5403,
			5404,
			5405,
			5406,
			5407,
			5408,
			5409,
			5410,
			5411,
			5412,
			5413,
			5414,
			5416,
			5417,
			5418,
			5419,
			5420,
			5421,
			5422,
			5425,
			5427,
			5430
		]
	},
	{
		"ID": 5411,
		"HeroPerformancesID": [
			5430
		]
	},
	{
		"ID": 5501,
		"HeroPerformancesID": [
			5514,
			5516,
			5517,
			5518,
			5517
		]
	},
	{
		"ID": 5502,
		"HeroPerformancesID": [
			5514,
			5516,
			5517,
			5518,
			5509,
			5517
		]
	},
	{
		"ID": 5503,
		"HeroPerformancesID": [
			5514,
			5516,
			5517,
			5518,
			5510,
			5517
		]
	},
	{
		"ID": 5504,
		"HeroPerformancesID": [
			5514,
			5516,
			5517,
			5518,
			5511,
			5517,
			5525
		]
	},
	{
		"ID": 5505,
		"HeroPerformancesID": [
			5514,
			5516,
			5517,
			5518,
			5512,
			5525
		]
	},
	{
		"ID": 5506,
		"HeroPerformancesID": [
			5514,
			5516,
			5517,
			5518,
			5513,
			5525,
			5519
		]
	},
	{
		"ID": 5507,
		"HeroPerformancesID": [
			5502
		]
	},
	{
		"ID": 5508,
		"HeroPerformancesID": [
			5501
		]
	},
	{
		"ID": 5509,
		"HeroPerformancesID": [
			5502,
			5503
		]
	},
	{
		"ID": 5510,
		"HeroPerformancesID": [
			5501,
			5502,
			5503,
			5504,
			5505,
			5506,
			5507,
			5508,
			5509,
			5510,
			5511,
			5512,
			5513,
			5514,
			5516,
			5517,
			5518,
			5520,
			5521,
			5522,
			5525,
			5527,
			5530
		]
	},
	{
		"ID": 5511,
		"HeroPerformancesID": [
			5530
		]
	},
	{
		"ID": 5601,
		"HeroPerformancesID": [
			5614,
			5616,
			5617,
			5618,
			5617
		]
	},
	{
		"ID": 5602,
		"HeroPerformancesID": [
			5614,
			5616,
			5617,
			5618,
			5609,
			5617
		]
	},
	{
		"ID": 5603,
		"HeroPerformancesID": [
			5614,
			5616,
			5617,
			5618,
			5610,
			5617
		]
	},
	{
		"ID": 5604,
		"HeroPerformancesID": [
			5614,
			5616,
			5617,
			5618,
			5611,
			5617,
			5625
		]
	},
	{
		"ID": 5605,
		"HeroPerformancesID": [
			5614,
			5616,
			5617,
			5618,
			5612,
			5625
		]
	},
	{
		"ID": 5606,
		"HeroPerformancesID": [
			5614,
			5616,
			5617,
			5618,
			5613,
			5625,
			5619
		]
	},
	{
		"ID": 5607,
		"HeroPerformancesID": [
			5602
		]
	},
	{
		"ID": 5608,
		"HeroPerformancesID": [
			5601
		]
	},
	{
		"ID": 5609,
		"HeroPerformancesID": [
			5602,
			5603
		]
	},
	{
		"ID": 5610,
		"HeroPerformancesID": [
			5601,
			5602,
			5603,
			5604,
			5605,
			5606,
			5607,
			5608,
			5609,
			5610,
			5611,
			5612,
			5613,
			5614,
			5616,
			5617,
			5618,
			5619,
			5620,
			5621,
			5622,
			5625,
			5627,
			5630
		]
	},
	{
		"ID": 5611,
		"HeroPerformancesID": [
			5630
		]
	},
	{
		"ID": 5701,
		"HeroPerformancesID": [
			5714,
			5716,
			5717,
			5718,
			5717
		]
	},
	{
		"ID": 5702,
		"HeroPerformancesID": [
			5714,
			5716,
			5717,
			5718,
			5709,
			5717
		]
	},
	{
		"ID": 5703,
		"HeroPerformancesID": [
			5714,
			5716,
			5717,
			5718,
			5710,
			5717
		]
	},
	{
		"ID": 5704,
		"HeroPerformancesID": [
			5714,
			5716,
			5717,
			5718,
			5711,
			5717,
			5725
		]
	},
	{
		"ID": 5705,
		"HeroPerformancesID": [
			5714,
			5716,
			5717,
			5718,
			5712,
			5725
		]
	},
	{
		"ID": 5706,
		"HeroPerformancesID": [
			5714,
			5716,
			5717,
			5718,
			5713,
			5725
		]
	},
	{
		"ID": 5707,
		"HeroPerformancesID": [
			5702
		]
	},
	{
		"ID": 5708,
		"HeroPerformancesID": [
			5701
		]
	},
	{
		"ID": 5709,
		"HeroPerformancesID": [
			5702,
			5703
		]
	},
	{
		"ID": 5710,
		"HeroPerformancesID": [
			5701,
			5702,
			5703,
			5704,
			5705,
			5706,
			5707,
			5708,
			5709,
			5710,
			5711,
			5712,
			5713,
			5714,
			5716,
			5717,
			5718,
			5720,
			5721,
			5722,
			5725,
			5727,
			5730
		]
	},
	{
		"ID": 5711,
		"HeroPerformancesID": [
			5730
		]
	},
	{
		"ID": 5801,
		"HeroPerformancesID": [
			5814,
			5816,
			5817,
			5818,
			5817
		]
	},
	{
		"ID": 5802,
		"HeroPerformancesID": [
			5814,
			5816,
			5817,
			5818,
			5809,
			5817
		]
	},
	{
		"ID": 5803,
		"HeroPerformancesID": [
			5814,
			5816,
			5817,
			5818,
			5810,
			5817
		]
	},
	{
		"ID": 5804,
		"HeroPerformancesID": [
			5814,
			5816,
			5817,
			5818,
			5811,
			5817,
			5825
		]
	},
	{
		"ID": 5805,
		"HeroPerformancesID": [
			5814,
			5816,
			5817,
			5818,
			5812,
			5825
		]
	},
	{
		"ID": 5806,
		"HeroPerformancesID": [
			5814,
			5816,
			5817,
			5818,
			5813,
			5825,
			5819
		]
	},
	{
		"ID": 5807,
		"HeroPerformancesID": [
			5802
		]
	},
	{
		"ID": 5808,
		"HeroPerformancesID": [
			5801
		]
	},
	{
		"ID": 5809,
		"HeroPerformancesID": [
			5802,
			5803
		]
	},
	{
		"ID": 5810,
		"HeroPerformancesID": [
			5801,
			5802,
			5803,
			5804,
			5805,
			5806,
			5807,
			5808,
			5809,
			5810,
			5811,
			5812,
			5813,
			5814,
			5816,
			5817,
			5818,
			5819,
			5820,
			5821,
			5822,
			5825,
			5827,
			5830
		]
	},
	{
		"ID": 5811,
		"HeroPerformancesID": [
			5830
		]
	},
	{
		"ID": 5901,
		"HeroPerformancesID": [
			5914,
			5916,
			5917,
			5918,
			5917
		]
	},
	{
		"ID": 5902,
		"HeroPerformancesID": [
			5914,
			5916,
			5917,
			5918,
			5909,
			5917
		]
	},
	{
		"ID": 5903,
		"HeroPerformancesID": [
			5914,
			5916,
			5917,
			5918,
			5910,
			5917
		]
	},
	{
		"ID": 5904,
		"HeroPerformancesID": [
			5914,
			5916,
			5917,
			5918,
			5911,
			5917,
			5925
		]
	},
	{
		"ID": 5905,
		"HeroPerformancesID": [
			5914,
			5916,
			5917,
			5918,
			5912,
			5925
		]
	},
	{
		"ID": 5906,
		"HeroPerformancesID": [
			5914,
			5916,
			5917,
			5918,
			5913,
			5925
		]
	},
	{
		"ID": 5907,
		"HeroPerformancesID": [
			5902
		]
	},
	{
		"ID": 5908,
		"HeroPerformancesID": [
			5901
		]
	},
	{
		"ID": 5909,
		"HeroPerformancesID": [
			5902,
			5903
		]
	},
	{
		"ID": 5910,
		"HeroPerformancesID": [
			5901,
			5902,
			5903,
			5904,
			5905,
			5906,
			5907,
			5908,
			5909,
			5910,
			5911,
			5912,
			5913,
			5914,
			5916,
			5917,
			5918,
			5920,
			5921,
			5922,
			5925,
			5927,
			5930
		]
	},
	{
		"ID": 5911,
		"HeroPerformancesID": [
			5930
		]
	},
	{
		"ID": 6001,
		"HeroPerformancesID": [
			6014,
			6016,
			6017,
			6018,
			6017
		]
	},
	{
		"ID": 6002,
		"HeroPerformancesID": [
			6014,
			6016,
			6017,
			6018,
			6009,
			6017
		]
	},
	{
		"ID": 6003,
		"HeroPerformancesID": [
			6014,
			6016,
			6017,
			6018,
			6010,
			6017
		]
	},
	{
		"ID": 6004,
		"HeroPerformancesID": [
			6014,
			6016,
			6017,
			6018,
			6011,
			6017,
			6025
		]
	},
	{
		"ID": 6005,
		"HeroPerformancesID": [
			6014,
			6016,
			6017,
			6018,
			6012,
			6025
		]
	},
	{
		"ID": 6006,
		"HeroPerformancesID": [
			6014,
			6016,
			6017,
			6018,
			6013,
			6025
		]
	},
	{
		"ID": 6007,
		"HeroPerformancesID": [
			6002
		]
	},
	{
		"ID": 6008,
		"HeroPerformancesID": [
			6001
		]
	},
	{
		"ID": 6009,
		"HeroPerformancesID": [
			6002,
			6003
		]
	},
	{
		"ID": 6010,
		"HeroPerformancesID": [
			6001,
			6002,
			6003,
			6004,
			6005,
			6006,
			6007,
			6008,
			6009,
			6010,
			6011,
			6012,
			6013,
			6014,
			6016,
			6017,
			6018,
			6020,
			6021,
			6022,
			6025,
			6027,
			6030
		]
	},
	{
		"ID": 6011,
		"HeroPerformancesID": [
			6030
		]
	},
	{
		"ID": 6101,
		"HeroPerformancesID": [
			6114,
			6116,
			6117,
			6118,
			6117
		]
	},
	{
		"ID": 6102,
		"HeroPerformancesID": [
			6114,
			6116,
			6117,
			6118,
			6109,
			6117
		]
	},
	{
		"ID": 6103,
		"HeroPerformancesID": [
			6114,
			6116,
			6117,
			6118,
			6110,
			6117
		]
	},
	{
		"ID": 6104,
		"HeroPerformancesID": [
			6114,
			6116,
			6117,
			6118,
			6111,
			6117,
			6125
		]
	},
	{
		"ID": 6105,
		"HeroPerformancesID": [
			6114,
			6116,
			6117,
			6118,
			6112,
			6125
		]
	},
	{
		"ID": 6106,
		"HeroPerformancesID": [
			6114,
			6116,
			6117,
			6118,
			6113,
			6125,
			6119
		]
	},
	{
		"ID": 6107,
		"HeroPerformancesID": [
			6102
		]
	},
	{
		"ID": 6108,
		"HeroPerformancesID": [
			6101
		]
	},
	{
		"ID": 6109,
		"HeroPerformancesID": [
			6102,
			6103
		]
	},
	{
		"ID": 6110,
		"HeroPerformancesID": [
			6101,
			6102,
			6103,
			6104,
			6105,
			6106,
			6107,
			6108,
			6109,
			6110,
			6111,
			6112,
			6113,
			6114,
			6116,
			6117,
			6118,
			6119,
			6120,
			6121,
			6122,
			6125,
			6127,
			6130
		]
	},
	{
		"ID": 6111,
		"HeroPerformancesID": [
			6130
		]
	},
	{
		"ID": 6901,
		"HeroPerformancesID": [
			6914,
			6916,
			6917,
			6918,
			6917
		]
	},
	{
		"ID": 6902,
		"HeroPerformancesID": [
			6914,
			6916,
			6917,
			6918,
			6909,
			6917
		]
	},
	{
		"ID": 6903,
		"HeroPerformancesID": [
			6914,
			6916,
			6917,
			6918,
			6910,
			6917
		]
	},
	{
		"ID": 6904,
		"HeroPerformancesID": [
			6914,
			6916,
			6917,
			6918,
			6911,
			6917,
			6925
		]
	},
	{
		"ID": 6905,
		"HeroPerformancesID": [
			6914,
			6916,
			6917,
			6918,
			6912,
			6925
		]
	},
	{
		"ID": 6906,
		"HeroPerformancesID": [
			6914,
			6916,
			6917,
			6918,
			6913,
			6925,
			6919
		]
	},
	{
		"ID": 6907,
		"HeroPerformancesID": [
			6902
		]
	},
	{
		"ID": 6908,
		"HeroPerformancesID": [
			6901
		]
	},
	{
		"ID": 6909,
		"HeroPerformancesID": [
			6902,
			6903
		]
	},
	{
		"ID": 6910,
		"HeroPerformancesID": [
			6901,
			6902,
			6903,
			6904,
			6905,
			6906,
			6907,
			6908,
			6909,
			6910,
			6911,
			6912,
			6913,
			6914,
			6916,
			6917,
			6918,
			6919,
			6920,
			6921,
			6922,
			6925,
			6927,
			6930
		]
	},
	{
		"ID": 6911,
		"HeroPerformancesID": [
			6930
		]
	},
	{
		"ID": 7001,
		"HeroPerformancesID": [
			7014,
			7016,
			7017,
			7018,
			7017
		]
	},
	{
		"ID": 7002,
		"HeroPerformancesID": [
			7014,
			7016,
			7017,
			7018,
			7009,
			7017
		]
	},
	{
		"ID": 7003,
		"HeroPerformancesID": [
			7014,
			7016,
			7017,
			7018,
			7010,
			7017
		]
	},
	{
		"ID": 7004,
		"HeroPerformancesID": [
			7014,
			7016,
			7017,
			7018,
			7011,
			7017,
			7025
		]
	},
	{
		"ID": 7005,
		"HeroPerformancesID": [
			7014,
			7016,
			7017,
			7018,
			7012,
			7025
		]
	},
	{
		"ID": 7006,
		"HeroPerformancesID": [
			7014,
			7016,
			7017,
			7018,
			7013,
			7025
		]
	},
	{
		"ID": 7007,
		"HeroPerformancesID": [
			7002
		]
	},
	{
		"ID": 7008,
		"HeroPerformancesID": [
			7001
		]
	},
	{
		"ID": 7009,
		"HeroPerformancesID": [
			7002,
			7003
		]
	},
	{
		"ID": 7010,
		"HeroPerformancesID": [
			7001,
			7002,
			7003,
			7004,
			7005,
			7006,
			7007,
			7008,
			7009,
			7010,
			7011,
			7012,
			7013,
			7014,
			7016,
			7017,
			7018,
			7020,
			7021,
			7022,
			7025,
			7027,
			7030
		]
	},
	{
		"ID": 7011,
		"HeroPerformancesID": [
			7030
		]
	},
	{
		"ID": 7101,
		"HeroPerformancesID": [
			7114,
			7116,
			7117,
			7118,
			7117
		]
	},
	{
		"ID": 7102,
		"HeroPerformancesID": [
			7114,
			7116,
			7117,
			7118,
			7109,
			7117
		]
	},
	{
		"ID": 7103,
		"HeroPerformancesID": [
			7114,
			7116,
			7117,
			7118,
			7110,
			7117
		]
	},
	{
		"ID": 7104,
		"HeroPerformancesID": [
			7114,
			7116,
			7117,
			7118,
			7111,
			7117,
			7125
		]
	},
	{
		"ID": 7105,
		"HeroPerformancesID": [
			7114,
			7116,
			7117,
			7118,
			7112,
			7125
		]
	},
	{
		"ID": 7106,
		"HeroPerformancesID": [
			7114,
			7116,
			7117,
			7118,
			7113,
			7125,
			7119
		]
	},
	{
		"ID": 7107,
		"HeroPerformancesID": [
			7102
		]
	},
	{
		"ID": 7108,
		"HeroPerformancesID": [
			7101
		]
	},
	{
		"ID": 7109,
		"HeroPerformancesID": [
			7102,
			7103
		]
	},
	{
		"ID": 7110,
		"HeroPerformancesID": [
			7101,
			7102,
			7103,
			7104,
			7105,
			7106,
			7107,
			7108,
			7109,
			7110,
			7111,
			7112,
			7113,
			7114,
			7116,
			7117,
			7118,
			7119,
			7120,
			7121,
			7122,
			7125,
			7127,
			7130
		]
	},
	{
		"ID": 7111,
		"HeroPerformancesID": [
			7130
		]
	},
	{
		"ID": 7201,
		"HeroPerformancesID": [
			7214,
			7216,
			7217,
			7218,
			7217
		]
	},
	{
		"ID": 7202,
		"HeroPerformancesID": [
			7214,
			7216,
			7217,
			7218,
			7209,
			7217
		]
	},
	{
		"ID": 7203,
		"HeroPerformancesID": [
			7214,
			7216,
			7217,
			7218,
			7210,
			7217
		]
	},
	{
		"ID": 7204,
		"HeroPerformancesID": [
			7214,
			7216,
			7217,
			7218,
			7211,
			7217,
			7225
		]
	},
	{
		"ID": 7205,
		"HeroPerformancesID": [
			7214,
			7216,
			7217,
			7218,
			7212,
			7225
		]
	},
	{
		"ID": 7206,
		"HeroPerformancesID": [
			7214,
			7216,
			7217,
			7218,
			7213,
			7225
		]
	},
	{
		"ID": 7207,
		"HeroPerformancesID": [
			7202
		]
	},
	{
		"ID": 7208,
		"HeroPerformancesID": [
			7201
		]
	},
	{
		"ID": 7209,
		"HeroPerformancesID": [
			7202,
			7203
		]
	},
	{
		"ID": 7210,
		"HeroPerformancesID": [
			7201,
			7202,
			7203,
			7204,
			7205,
			7206,
			7207,
			7208,
			7209,
			7210,
			7211,
			7212,
			7213,
			7214,
			7216,
			7217,
			7218,
			7220,
			7221,
			7222,
			7225,
			7227,
			7230
		]
	},
	{
		"ID": 7211,
		"HeroPerformancesID": [
			7230
		]
	},
	{
		"ID": 7301,
		"HeroPerformancesID": [
			7314,
			7316,
			7317,
			7318,
			7317
		]
	},
	{
		"ID": 7302,
		"HeroPerformancesID": [
			7314,
			7316,
			7317,
			7318,
			7309,
			7317
		]
	},
	{
		"ID": 7303,
		"HeroPerformancesID": [
			7314,
			7316,
			7317,
			7318,
			7310,
			7317
		]
	},
	{
		"ID": 7304,
		"HeroPerformancesID": [
			7314,
			7316,
			7317,
			7318,
			7311,
			7317,
			7325
		]
	},
	{
		"ID": 7305,
		"HeroPerformancesID": [
			7314,
			7316,
			7317,
			7318,
			7312,
			7325
		]
	},
	{
		"ID": 7306,
		"HeroPerformancesID": [
			7314,
			7316,
			7317,
			7318,
			7313,
			7325
		]
	},
	{
		"ID": 7307,
		"HeroPerformancesID": [
			7302
		]
	},
	{
		"ID": 7308,
		"HeroPerformancesID": [
			7301
		]
	},
	{
		"ID": 7309,
		"HeroPerformancesID": [
			7302,
			7303
		]
	},
	{
		"ID": 7310,
		"HeroPerformancesID": [
			7301,
			7302,
			7303,
			7304,
			7305,
			7306,
			7307,
			7308,
			7309,
			7310,
			7311,
			7312,
			7313,
			7314,
			7316,
			7317,
			7318,
			7320,
			7321,
			7322,
			7325,
			7327,
			7330
		]
	},
	{
		"ID": 7311,
		"HeroPerformancesID": [
			7330
		]
	},
	{
		"ID": 7401,
		"HeroPerformancesID": [
			7414,
			7416,
			7417,
			7418,
			7417
		]
	},
	{
		"ID": 7402,
		"HeroPerformancesID": [
			7414,
			7416,
			7417,
			7418,
			7409,
			7417
		]
	},
	{
		"ID": 7403,
		"HeroPerformancesID": [
			7414,
			7416,
			7417,
			7418,
			7410,
			7417
		]
	},
	{
		"ID": 7404,
		"HeroPerformancesID": [
			7414,
			7416,
			7417,
			7418,
			7411,
			7417,
			7425
		]
	},
	{
		"ID": 7405,
		"HeroPerformancesID": [
			7414,
			7416,
			7417,
			7418,
			7412,
			7425
		]
	},
	{
		"ID": 7406,
		"HeroPerformancesID": [
			7414,
			7416,
			7417,
			7418,
			7413,
			7425,
			7419
		]
	},
	{
		"ID": 7407,
		"HeroPerformancesID": [
			7402
		]
	},
	{
		"ID": 7408,
		"HeroPerformancesID": [
			7401
		]
	},
	{
		"ID": 7409,
		"HeroPerformancesID": [
			7402,
			7403
		]
	},
	{
		"ID": 7410,
		"HeroPerformancesID": [
			7401,
			7402,
			7403,
			7404,
			7405,
			7406,
			7407,
			7408,
			7409,
			7410,
			7411,
			7412,
			7413,
			7414,
			7416,
			7417,
			7418,
			7419,
			7420,
			7421,
			7422,
			7425,
			7427,
			7430
		]
	},
	{
		"ID": 7411,
		"HeroPerformancesID": [
			7430
		]
	},
	{
		"ID": 7901,
		"HeroPerformancesID": [
			7914,
			7916,
			7917,
			7918,
			7917
		]
	},
	{
		"ID": 7902,
		"HeroPerformancesID": [
			7914,
			7916,
			7917,
			7918,
			7909,
			7917
		]
	},
	{
		"ID": 7903,
		"HeroPerformancesID": [
			7914,
			7916,
			7917,
			7918,
			7910,
			7917
		]
	},
	{
		"ID": 7904,
		"HeroPerformancesID": [
			7914,
			7916,
			7917,
			7918,
			7911,
			7917,
			7925
		]
	},
	{
		"ID": 7905,
		"HeroPerformancesID": [
			7914,
			7916,
			7917,
			7918,
			7912,
			7925
		]
	},
	{
		"ID": 7906,
		"HeroPerformancesID": [
			7914,
			7916,
			7917,
			7918,
			7913,
			7925,
			7919
		]
	},
	{
		"ID": 7907,
		"HeroPerformancesID": [
			7902
		]
	},
	{
		"ID": 7908,
		"HeroPerformancesID": [
			7901
		]
	},
	{
		"ID": 7909,
		"HeroPerformancesID": [
			7902,
			7903
		]
	},
	{
		"ID": 7910,
		"HeroPerformancesID": [
			7901,
			7902,
			7903,
			7904,
			7905,
			7906,
			7907,
			7908,
			7909,
			7910,
			7911,
			7912,
			7913,
			7914,
			7916,
			7917,
			7918,
			7919,
			7920,
			7921,
			7922,
			7925,
			7927,
			7930
		]
	},
	{
		"ID": 7911,
		"HeroPerformancesID": [
			7930
		]
	},
	{
		"ID": 8001,
		"HeroPerformancesID": [
			8014,
			8016,
			8017,
			8018,
			8017
		]
	},
	{
		"ID": 8002,
		"HeroPerformancesID": [
			8014,
			8016,
			8017,
			8018,
			8009,
			8017
		]
	},
	{
		"ID": 8003,
		"HeroPerformancesID": [
			8014,
			8016,
			8017,
			8018,
			8010,
			8017
		]
	},
	{
		"ID": 8004,
		"HeroPerformancesID": [
			8014,
			8016,
			8017,
			8018,
			8011,
			8017,
			8025
		]
	},
	{
		"ID": 8005,
		"HeroPerformancesID": [
			8014,
			8016,
			8017,
			8018,
			8012,
			8025
		]
	},
	{
		"ID": 8006,
		"HeroPerformancesID": [
			8014,
			8016,
			8017,
			8018,
			8013,
			8025,
			8019
		]
	},
	{
		"ID": 8007,
		"HeroPerformancesID": [
			8002
		]
	},
	{
		"ID": 8008,
		"HeroPerformancesID": [
			8001
		]
	},
	{
		"ID": 8009,
		"HeroPerformancesID": [
			8002,
			8003
		]
	},
	{
		"ID": 8010,
		"HeroPerformancesID": [
			8001,
			8002,
			8003,
			8004,
			8005,
			8006,
			8007,
			8008,
			8009,
			8010,
			8011,
			8012,
			8013,
			8014,
			8016,
			8017,
			8018,
			8019,
			8020,
			8021,
			8022,
			8025,
			8027,
			8030
		]
	},
	{
		"ID": 8011,
		"HeroPerformancesID": [
			8030
		]
	},
	{
		"ID": 8101,
		"HeroPerformancesID": [
			8114,
			8116,
			8117,
			8118,
			8117
		]
	},
	{
		"ID": 8102,
		"HeroPerformancesID": [
			8114,
			8116,
			8117,
			8118,
			8109,
			8117
		]
	},
	{
		"ID": 8103,
		"HeroPerformancesID": [
			8114,
			8116,
			8117,
			8118,
			8110,
			8117
		]
	},
	{
		"ID": 8104,
		"HeroPerformancesID": [
			8114,
			8116,
			8117,
			8118,
			8111,
			8117,
			8125
		]
	},
	{
		"ID": 8105,
		"HeroPerformancesID": [
			8114,
			8116,
			8117,
			8118,
			8112,
			8125
		]
	},
	{
		"ID": 8106,
		"HeroPerformancesID": [
			8114,
			8116,
			8117,
			8118,
			8113,
			8125,
			8119
		]
	},
	{
		"ID": 8107,
		"HeroPerformancesID": [
			8102
		]
	},
	{
		"ID": 8108,
		"HeroPerformancesID": [
			8101
		]
	},
	{
		"ID": 8109,
		"HeroPerformancesID": [
			8102,
			8103
		]
	},
	{
		"ID": 8110,
		"HeroPerformancesID": [
			8101,
			8102,
			8103,
			8104,
			8105,
			8106,
			8107,
			8108,
			8109,
			8110,
			8111,
			8112,
			8113,
			8114,
			8116,
			8117,
			8118,
			8119,
			8120,
			8121,
			8122,
			8125,
			8127,
			8130
		]
	},
	{
		"ID": 8111,
		"HeroPerformancesID": [
			8130
		]
	}
]