[
	{
		"ID": 1,
		"Content": "[0] is unbelievable! In a flash of divine light, they received the [1] hero [2]!",
		"Param1": 4
	},
	{
		"ID": 2,
		"Content": "[0] is unbelievable! In a flash of divine light, they received the [1] equipment [2]!",
		"Param1": 4
	}
]