[
	{
		"ID": 1,
		"Name": "Path",
		"MovePointRide": 1,
		"MovePointWalk": 1,
		"MovePointWater": 1,
		"MovePointFly": 1,
		"MovePointFieldArmy": 1,
		"BattleBonus": 0,
		"Damage": 0,
		"Fx": "",
		"InfoImage": "UI/TerrainImage_ABS/Icon_Terrain_Grassland.png",
		"MapTileImage": "UI/TerrainImage_ABS/Overview_Road.png",
		"Background": "Background_ABS/BattleBackground_001.png",
		"ColorR": 100,
		"ColorG": 100,
		"ColorB": 100
	},
	{
		"ID": 2,
		"Name": "Bridge",
		"MovePointRide": 1,
		"MovePointWalk": 1,
		"MovePointWater": 1,
		"MovePointFly": 1,
		"MovePointFieldArmy": 1,
		"BattleBonus": 0,
		"Damage": 0,
		"Fx": "",
		"InfoImage": "UI/TerrainImage_ABS/Icon_Terrain_Bridge.png",
		"MapTileImage": "UI/TerrainImage_ABS/Overview_Bridge.png",
		"Background": "Background_ABS/BattleBackground_002.png",
		"ColorR": 150,
		"ColorG": 100,
		"ColorB": 0
	},
	{
		"ID": 3,
		"Name": "Water",
		"MovePointRide": 3,
		"MovePointWalk": 2,
		"MovePointWater": 1,
		"MovePointFly": 1,
		"MovePointFieldArmy": 1,
		"BattleBonus": 0,
		"Damage": 0,
		"Fx": "",
		"InfoImage": "UI/TerrainImage_ABS/Icon_Terrain_Shoal.png",
		"MapTileImage": "UI/TerrainImage_ABS/Overview_Water.png",
		"Background": "Background_ABS/BattleBackground_009.png",
		"ColorR": 0,
		"ColorG": 0,
		"ColorB": 200
	},
	{
		"ID": 4,
		"Name": "Depths",
		"MovePointRide": 3,
		"MovePointWalk": 3,
		"MovePointWater": 1,
		"MovePointFly": 1,
		"MovePointFieldArmy": 1,
		"BattleBonus": 0,
		"Damage": 0,
		"Fx": "",
		"InfoImage": "UI/TerrainImage_ABS/Icon_Terrain_Shoal.png",
		"MapTileImage": "UI/TerrainImage_ABS/Overview_DeepWater.png",
		"Background": "Background_ABS/BattleBackground_009.png",
		"ColorR": 0,
		"ColorG": 0,
		"ColorB": 150
	},
	{
		"ID": 5,
		"Name": "Forest",
		"MovePointRide": 3,
		"MovePointWalk": 1,
		"MovePointWater": 2,
		"MovePointFly": 1,
		"MovePointFieldArmy": 1,
		"BattleBonus": 20,
		"Damage": 0,
		"Fx": "",
		"InfoImage": "UI/TerrainImage_ABS/Icon_Terrain_Woods.png",
		"MapTileImage": "UI/TerrainImage_ABS/Overview_Tree.png",
		"Background": "Background_ABS/BattleBackground_001.png",
		"ColorR": 0,
		"ColorG": 150,
		"ColorB": 0
	},
	{
		"ID": 6,
		"Name": "Indoors",
		"MovePointRide": 1,
		"MovePointWalk": 1,
		"MovePointWater": 1,
		"MovePointFly": 1,
		"MovePointFieldArmy": 1,
		"BattleBonus": 0,
		"Damage": 0,
		"Fx": "",
		"InfoImage": "UI/TerrainImage_ABS/Icon_Terrain_Indoor.png",
		"MapTileImage": "UI/TerrainImage_ABS/Overview_WoodenFloor.png",
		"Background": "Background_ABS/BattleBackground_007.png",
		"ColorR": 200,
		"ColorG": 200,
		"ColorB": 200
	},
	{
		"ID": 7,
		"Name": "Mountain",
		"MovePointRide": 3,
		"MovePointWalk": 2,
		"MovePointWater": 3,
		"MovePointFly": 1,
		"MovePointFieldArmy": 1,
		"BattleBonus": 10,
		"Damage": 0,
		"Fx": "",
		"InfoImage": "UI/TerrainImage_ABS/Icon_Terrain_Mountainous.png",
		"MapTileImage": "UI/TerrainImage_ABS/Overview_MountainLand.png",
		"Background": "Background_ABS/BattleBackground_012.png",
		"ColorR": 100,
		"ColorG": 100,
		"ColorB": 0
	},
	{
		"ID": 8,
		"Name": "Wall",
		"MovePointRide": 0,
		"MovePointWalk": 0,
		"MovePointWater": 0,
		"MovePointFly": 0,
		"MovePointFieldArmy": 0,
		"BattleBonus": 0,
		"Damage": 0,
		"Fx": "",
		"InfoImage": "UI/TerrainImage_ABS/Icon_Terrain_Wall.png",
		"MapTileImage": "UI/TerrainImage_ABS/Overview_NotWalk.png",
		"Background": "Background_ABS/BattleBackground_008.png",
		"ColorR": 0,
		"ColorG": 0,
		"ColorB": 0
	},
	{
		"ID": 9,
		"Name": "Grassland",
		"MovePointRide": 1,
		"MovePointWalk": 1,
		"MovePointWater": 1,
		"MovePointFly": 1,
		"MovePointFieldArmy": 1,
		"BattleBonus": 0,
		"Damage": 0,
		"Fx": "",
		"InfoImage": "UI/TerrainImage_ABS/Icon_Terrain_Grassland.png",
		"MapTileImage": "UI/TerrainImage_ABS/Overview_Grassland.png",
		"Background": "Background_ABS/BattleBackground_001.png",
		"ColorR": 100,
		"ColorG": 100,
		"ColorB": 100
	},
	{
		"ID": 10,
		"Name": "City Wall",
		"MovePointRide": 3,
		"MovePointWalk": 2,
		"MovePointWater": 3,
		"MovePointFly": 1,
		"MovePointFieldArmy": 1,
		"BattleBonus": 30,
		"Damage": 0,
		"Fx": "",
		"InfoImage": "UI/TerrainImage_ABS/Icon_Terrain_Wall.png",
		"MapTileImage": "UI/TerrainImage_ABS/Overview_Wall.png",
		"Background": "Background_ABS/BattleBackground_002.png",
		"ColorR": 0,
		"ColorG": 0,
		"ColorB": 0
	},
	{
		"ID": 11,
		"Name": "Sky",
		"MovePointRide": 0,
		"MovePointWalk": 0,
		"MovePointWater": 0,
		"MovePointFly": 1,
		"MovePointFieldArmy": 0,
		"BattleBonus": 0,
		"Damage": 0,
		"Fx": "",
		"InfoImage": "UI/TerrainImage_ABS/Icon_Terrain_Sky.png",
		"MapTileImage": "UI/TerrainImage_ABS/Overview_Sky.png",
		"Background": "Background_ABS/BattleBackground_001.png",
		"ColorR": 0,
		"ColorG": 0,
		"ColorB": 200
	},
	{
		"ID": 12,
		"Name": "Wooden Bridge",
		"MovePointRide": 1,
		"MovePointWalk": 1,
		"MovePointWater": 1,
		"MovePointFly": 1,
		"MovePointFieldArmy": 1,
		"BattleBonus": 0,
		"Damage": 0,
		"Fx": "",
		"InfoImage": "UI/TerrainImage_ABS/Icon_Terrain_Bridge.png",
		"MapTileImage": "UI/TerrainImage_ABS/Overview_Bridge.png",
		"Background": "Background_ABS/BattleBackground_004.png",
		"ColorR": 150,
		"ColorG": 100,
		"ColorB": 0
	},
	{
		"ID": 13,
		"Name": "Temple",
		"MovePointRide": 1,
		"MovePointWalk": 1,
		"MovePointWater": 1,
		"MovePointFly": 1,
		"MovePointFieldArmy": 1,
		"BattleBonus": 0,
		"Damage": 0,
		"Fx": "",
		"InfoImage": "UI/TerrainImage_ABS/Icon_Terrain_Indoor.png",
		"MapTileImage": "UI/TerrainImage_ABS/Overview_Indoor.png",
		"Background": "Background_ABS/BattleBackground_003.png",
		"ColorR": 200,
		"ColorG": 200,
		"ColorB": 200
	},
	{
		"ID": 14,
		"Name": "Cliff",
		"MovePointRide": 0,
		"MovePointWalk": 0,
		"MovePointWater": 0,
		"MovePointFly": 1,
		"MovePointFieldArmy": 0,
		"BattleBonus": 0,
		"Damage": 0,
		"Fx": "",
		"InfoImage": "UI/TerrainImage_ABS/Icon_Terrain_Mountainous.png",
		"MapTileImage": "UI/TerrainImage_ABS/Overview_MountainWall.png",
		"Background": "Background_ABS/BattleBackground_006.png",
		"ColorR": 150,
		"ColorG": 100,
		"ColorB": 0
	},
	{
		"ID": 15,
		"Name": "Cave",
		"MovePointRide": 1,
		"MovePointWalk": 1,
		"MovePointWater": 1,
		"MovePointFly": 1,
		"MovePointFieldArmy": 1,
		"BattleBonus": 0,
		"Damage": 0,
		"Fx": "",
		"InfoImage": "UI/TerrainImage_ABS/Icon_Terrain_Grotto.png",
		"MapTileImage": "UI/TerrainImage_ABS/Overview_MountainLand.png",
		"Background": "Background_ABS/BattleBackground_006.png",
		"ColorR": 150,
		"ColorG": 100,
		"ColorB": 0
	},
	{
		"ID": 16,
		"Name": "Lava",
		"MovePointRide": 0,
		"MovePointWalk": 0,
		"MovePointWater": 0,
		"MovePointFly": 1,
		"MovePointFieldArmy": 0,
		"BattleBonus": 0,
		"Damage": 0,
		"Fx": "",
		"InfoImage": "UI/TerrainImage_ABS/Icon_Terrain_Lava.png",
		"MapTileImage": "UI/TerrainImage_ABS/Overview_Magma.png",
		"Background": "Background_ABS/BattleBackground_006.png",
		"ColorR": 150,
		"ColorG": 100,
		"ColorB": 0
	},
	{
		"ID": 17,
		"Name": "Cave Wall",
		"MovePointRide": 0,
		"MovePointWalk": 0,
		"MovePointWater": 0,
		"MovePointFly": 0,
		"MovePointFieldArmy": 0,
		"BattleBonus": 0,
		"Damage": 0,
		"Fx": "",
		"InfoImage": "UI/TerrainImage_ABS/Icon_Terrain_Grotto.png",
		"MapTileImage": "UI/TerrainImage_ABS/Overview_NotWalk.png",
		"Background": "Background_ABS/BattleBackground_006.png",
		"ColorR": 150,
		"ColorG": 100,
		"ColorB": 0
	},
	{
		"ID": 18,
		"Name": "Stone Pillar",
		"MovePointRide": 0,
		"MovePointWalk": 0,
		"MovePointWater": 0,
		"MovePointFly": 1,
		"MovePointFieldArmy": 0,
		"BattleBonus": 5,
		"Damage": 0,
		"Fx": "",
		"InfoImage": "UI/TerrainImage_ABS/Icon_Terrain_Peristele.png",
		"MapTileImage": "UI/TerrainImage_ABS/Overview_Stone.png",
		"Background": "Background_ABS/BattleBackground_002.png",
		"ColorR": 150,
		"ColorG": 100,
		"ColorB": 0
	},
	{
		"ID": 19,
		"Name": "Path",
		"MovePointRide": 1,
		"MovePointWalk": 1,
		"MovePointWater": 1,
		"MovePointFly": 1,
		"MovePointFieldArmy": 1,
		"BattleBonus": 0,
		"Damage": 0,
		"Fx": "",
		"InfoImage": "UI/TerrainImage_ABS/Icon_Terrain_Grassland.png",
		"MapTileImage": "UI/TerrainImage_ABS/Overview_Road.png",
		"Background": "Background_ABS/BattleBackground_002.png",
		"ColorR": 100,
		"ColorG": 100,
		"ColorB": 100
	},
	{
		"ID": 20,
		"Name": "Fence",
		"MovePointRide": 3,
		"MovePointWalk": 2,
		"MovePointWater": 2,
		"MovePointFly": 1,
		"MovePointFieldArmy": 1,
		"BattleBonus": 5,
		"Damage": 0,
		"Fx": "",
		"InfoImage": "UI/TerrainImage_ABS/Icon_Terrain_Railing.png",
		"MapTileImage": "UI/TerrainImage_ABS/Overview_Woodiness.png",
		"Background": "Background_ABS/BattleBackground_004.png",
		"ColorR": 150,
		"ColorG": 100,
		"ColorB": 0
	},
	{
		"ID": 21,
		"Name": "Tomb",
		"MovePointRide": 2,
		"MovePointWalk": 1,
		"MovePointWater": 2,
		"MovePointFly": 1,
		"MovePointFieldArmy": 1,
		"BattleBonus": 5,
		"Damage": 0,
		"Fx": "",
		"InfoImage": "UI/TerrainImage_ABS/Icon_Terrain_Tombstone.png",
		"MapTileImage": "UI/TerrainImage_ABS/Overview_Stone.png",
		"Background": "Background_ABS/BattleBackground_001.png",
		"ColorR": 150,
		"ColorG": 100,
		"ColorB": 0
	},
	{
		"ID": 22,
		"Name": "Deck",
		"MovePointRide": 1,
		"MovePointWalk": 1,
		"MovePointWater": 1,
		"MovePointFly": 1,
		"MovePointFieldArmy": 1,
		"BattleBonus": 0,
		"Damage": 0,
		"Fx": "",
		"InfoImage": "UI/TerrainImage_ABS/Icon_Terrain_Deck.png",
		"MapTileImage": "UI/TerrainImage_ABS/Overview_Woodiness.png",
		"Background": "Background_ABS/BattleBackground_007.png",
		"ColorR": 150,
		"ColorG": 100,
		"ColorB": 0
	},
	{
		"ID": 23,
		"Name": "Cargo",
		"MovePointRide": 2,
		"MovePointWalk": 1,
		"MovePointWater": 2,
		"MovePointFly": 1,
		"MovePointFieldArmy": 1,
		"BattleBonus": 5,
		"Damage": 0,
		"Fx": "",
		"InfoImage": "UI/TerrainImage_ABS/Icon_Terrain_Sundries.png",
		"MapTileImage": "UI/TerrainImage_ABS/Overview_Woodiness.png",
		"Background": "Background_ABS/BattleBackground_002.png",
		"ColorR": 150,
		"ColorG": 100,
		"ColorB": 0
	},
	{
		"ID": 24,
		"Name": "Snow",
		"MovePointRide": 1,
		"MovePointWalk": 1,
		"MovePointWater": 1,
		"MovePointFly": 1,
		"MovePointFieldArmy": 1,
		"BattleBonus": 0,
		"Damage": 0,
		"Fx": "",
		"InfoImage": "UI/TerrainImage_ABS/Icon_Terrain_Snow.png",
		"MapTileImage": "UI/TerrainImage_ABS/Overview_Snow.png",
		"Background": "Background_ABS/BattleBackground_011.png",
		"ColorR": 100,
		"ColorG": 100,
		"ColorB": 100
	},
	{
		"ID": 25,
		"Name": "Flames",
		"MovePointRide": 1,
		"MovePointWalk": 1,
		"MovePointWater": 1,
		"MovePointFly": 1,
		"MovePointFieldArmy": 1,
		"BattleBonus": 0,
		"Damage": 100,
		"Fx": "FX/Common_ABS/CommonFX/common_burnning_4.prefab",
		"InfoImage": "UI/TerrainImage_ABS/Icon_Terrain_Bonfire.png",
		"MapTileImage": "UI/TerrainImage_ABS/Overview_Magma.png",
		"Background": "Background_ABS/BattleBackground_006.png",
		"ColorR": 100,
		"ColorG": 100,
		"ColorB": 100
	},
	{
		"ID": 26,
		"Name": "Swamp",
		"MovePointRide": 2,
		"MovePointWalk": 1,
		"MovePointWater": 1,
		"MovePointFly": 1,
		"MovePointFieldArmy": 1,
		"BattleBonus": 0,
		"Damage": 0,
		"Fx": "",
		"InfoImage": "UI/TerrainImage_ABS/Icon_Terrain_Marsh.png",
		"MapTileImage": "UI/TerrainImage_ABS/Overview_Water.png",
		"Background": "Background_ABS/BattleBackground_010.png",
		"ColorR": 0,
		"ColorG": 0,
		"ColorB": 200
	},
	{
		"ID": 27,
		"Name": "Indoors",
		"MovePointRide": 1,
		"MovePointWalk": 1,
		"MovePointWater": 1,
		"MovePointFly": 1,
		"MovePointFieldArmy": 1,
		"BattleBonus": 0,
		"Damage": 0,
		"Fx": "",
		"InfoImage": "UI/TerrainImage_ABS/Icon_Terrain_Indoor.png",
		"MapTileImage": "UI/TerrainImage_ABS/Overview_Indoor.png",
		"Background": "Background_ABS/BattleBackground_008.png",
		"ColorR": 200,
		"ColorG": 200,
		"ColorB": 200
	},
	{
		"ID": 28,
		"Name": "Throne",
		"MovePointRide": 3,
		"MovePointWalk": 2,
		"MovePointWater": 3,
		"MovePointFly": 1,
		"MovePointFieldArmy": 1,
		"BattleBonus": 40,
		"Damage": 0,
		"Fx": "",
		"InfoImage": "UI/TerrainImage_ABS/Icon_Terrain_Throne.png",
		"MapTileImage": "UI/TerrainImage_ABS/Overview_Throne.png",
		"Background": "Background_ABS/BattleBackground_003.png",
		"ColorR": 200,
		"ColorG": 200,
		"ColorB": 200
	},
	{
		"ID": 29,
		"Name": "Temple",
		"MovePointRide": 1,
		"MovePointWalk": 1,
		"MovePointWater": 1,
		"MovePointFly": 1,
		"MovePointFieldArmy": 1,
		"BattleBonus": 0,
		"Damage": 0,
		"Fx": "",
		"InfoImage": "UI/TerrainImage_ABS/Icon_Terrain_Temple.png",
		"MapTileImage": "UI/TerrainImage_ABS/Overview_Indoor.png",
		"Background": "Background_ABS/BattleBackground_005.png",
		"ColorR": 200,
		"ColorG": 200,
		"ColorB": 200
	},
	{
		"ID": 30,
		"Name": "Flames",
		"MovePointRide": 1,
		"MovePointWalk": 1,
		"MovePointWater": 1,
		"MovePointFly": 1,
		"MovePointFieldArmy": 1,
		"BattleBonus": 0,
		"Damage": 30,
		"Fx": "FX/Common_ABS/CommonFX/common_burnning_1.prefab",
		"InfoImage": "UI/TerrainImage_ABS/Icon_Terrain_Bonfire.png",
		"MapTileImage": "UI/TerrainImage_ABS/Overview_Magma.png",
		"Background": "Background_ABS/BattleBackground_006.png",
		"ColorR": 100,
		"ColorG": 100,
		"ColorB": 100
	},
	{
		"ID": 31,
		"Name": "Desert",
		"MovePointRide": 2,
		"MovePointWalk": 1,
		"MovePointWater": 2,
		"MovePointFly": 1,
		"MovePointFieldArmy": 1,
		"BattleBonus": 0,
		"Damage": 0,
		"Fx": "",
		"InfoImage": "UI/TerrainImage_ABS/Icon_Terrain_Desert.png",
		"MapTileImage": "UI/TerrainImage_ABS/Overview_Road.png",
		"Background": "Background_ABS/BattleBackground_014.png",
		"ColorR": 100,
		"ColorG": 100,
		"ColorB": 100
	},
	{
		"ID": 32,
		"Name": "Sand Dunes",
		"MovePointRide": 3,
		"MovePointWalk": 2,
		"MovePointWater": 3,
		"MovePointFly": 1,
		"MovePointFieldArmy": 1,
		"BattleBonus": 10,
		"Damage": 0,
		"Fx": "",
		"InfoImage": "UI/TerrainImage_ABS/Icon_Terrain_SandDune.png",
		"MapTileImage": "UI/TerrainImage_ABS/Overview_MountainLand.png",
		"Background": "Background_ABS/BattleBackground_014.png",
		"ColorR": 100,
		"ColorG": 100,
		"ColorB": 0
	},
	{
		"ID": 33,
		"Name": "Fence",
		"MovePointRide": 3,
		"MovePointWalk": 2,
		"MovePointWater": 2,
		"MovePointFly": 1,
		"MovePointFieldArmy": 1,
		"BattleBonus": 5,
		"Damage": 0,
		"Fx": "",
		"InfoImage": "UI/TerrainImage_ABS/Icon_Terrain_Railing.png",
		"MapTileImage": "UI/TerrainImage_ABS/Overview_Woodiness.png",
		"Background": "Background_ABS/BattleBackground_004.png",
		"ColorR": 150,
		"ColorG": 100,
		"ColorB": 0
	},
	{
		"ID": 34,
		"Name": "Flood",
		"MovePointRide": 3,
		"MovePointWalk": 2,
		"MovePointWater": 1,
		"MovePointFly": 1,
		"MovePointFieldArmy": 1,
		"BattleBonus": 0,
		"Damage": 0,
		"Fx": "FX/Common_ABS/CommonFX/Common_Battlemapwater/Common_Battlemapwater_simple.prefab",
		"InfoImage": "UI/TerrainImage_ABS/Icon_Terrain_Shoal.png",
		"MapTileImage": "UI/TerrainImage_ABS/Overview_Water.png",
		"Background": "Background_ABS/BattleBackground_009.png",
		"ColorR": 100,
		"ColorG": 100,
		"ColorB": 100
	},
	{
		"ID": 35,
		"Name": "Trenches",
		"MovePointRide": 2,
		"MovePointWalk": 1,
		"MovePointWater": 1,
		"MovePointFly": 1,
		"MovePointFieldArmy": 1,
		"BattleBonus": 5,
		"Damage": 0,
		"Fx": "",
		"InfoImage": "UI/TerrainImage_ABS/Icon_Terrain_Mountainous.png",
		"MapTileImage": "UI/TerrainImage_ABS/Overview_MountainLand.png",
		"Background": "Background_ABS/BattleBackground_012.png",
		"ColorR": 100,
		"ColorG": 100,
		"ColorB": 0
	},
	{
		"ID": 36,
		"Name": "Tent",
		"MovePointRide": 0,
		"MovePointWalk": 0,
		"MovePointWater": 0,
		"MovePointFly": 1,
		"MovePointFieldArmy": 0,
		"BattleBonus": 5,
		"Damage": 0,
		"Fx": "",
		"InfoImage": "UI/TerrainImage_ABS/Icon_Terrain_Wall.png",
		"MapTileImage": "UI/TerrainImage_ABS/Overview_NotWalk.png",
		"Background": "Background_ABS/BattleBackground_008.png",
		"ColorR": 0,
		"ColorG": 0,
		"ColorB": 0
	},
	{
		"ID": 37,
		"Name": "Ice",
		"MovePointRide": 2,
		"MovePointWalk": 1,
		"MovePointWater": 1,
		"MovePointFly": 1,
		"MovePointFieldArmy": 1,
		"BattleBonus": 0,
		"Damage": 0,
		"Fx": "",
		"InfoImage": "UI/TerrainImage_ABS/Icon_Terrain_Shoal.png",
		"MapTileImage": "UI/TerrainImage_ABS/Overview_Water.png",
		"Background": "Background_ABS/BattleBackground_009.png",
		"ColorR": 0,
		"ColorG": 0,
		"ColorB": 200
	},
	{
		"ID": 99,
		"Name": "Flames",
		"MovePointRide": 1,
		"MovePointWalk": 1,
		"MovePointWater": 1,
		"MovePointFly": 1,
		"MovePointFieldArmy": 1,
		"BattleBonus": 0,
		"Damage": 50,
		"Fx": "FX/Common_ABS/CommonFX/common_burnning_4.prefab",
		"InfoImage": "UI/TerrainImage_ABS/Icon_Terrain_Bonfire.png",
		"MapTileImage": "UI/TerrainImage_ABS/Overview_Magma.png",
		"Background": "Background_ABS/BattleBackground_006.png",
		"ColorR": 100,
		"ColorG": 100,
		"ColorB": 100
	},
	{
		"ID": 200,
		"Name": "Command Point",
		"MovePointRide": 1,
		"MovePointWalk": 1,
		"MovePointWater": 1,
		"MovePointFly": 1,
		"MovePointFieldArmy": 1,
		"BattleBonus": 0,
		"Damage": 0,
		"Fx": "FX/Common_ABS/CommonFX/OnTouchMovePlaceInMan/OnTouchMovePlaceEmpty_G.prefab",
		"InfoImage": "UI/TerrainImage_ABS/Icon_Terrain_Grassland.png",
		"MapTileImage": "UI/TerrainImage_ABS/Overview_Road.png",
		"Background": "Background_ABS/BattleBackground_001.png",
		"ColorR": 100,
		"ColorG": 100,
		"ColorB": 100
	},
	{
		"ID": 201,
		"Name": "Stone Tablet",
		"MovePointRide": 1,
		"MovePointWalk": 1,
		"MovePointWater": 1,
		"MovePointFly": 1,
		"MovePointFieldArmy": 1,
		"BattleBonus": 0,
		"Damage": 0,
		"Fx": "BattleMap/BattleMapExploreItem_ABS/Tablet/TabletUIPrefab.prefab",
		"InfoImage": "UI/TerrainImage_ABS/Icon_Terrain_Peristele.png",
		"MapTileImage": "UI/TerrainImage_ABS/Overview_Stone.png",
		"Background": "Background_ABS/BattleBackground_002.png",
		"ColorR": 150,
		"ColorG": 100,
		"ColorB": 0
	},
	{
		"ID": 202,
		"Name": "Rift",
		"MovePointRide": 1,
		"MovePointWalk": 1,
		"MovePointWater": 1,
		"MovePointFly": 1,
		"MovePointFieldArmy": 1,
		"BattleBonus": 0,
		"Damage": 0,
		"Fx": "FX/Common_ABS/CommonFX/Common_TimeRift/Common_TimeRift.prefab",
		"InfoImage": "UI/TerrainImage_ABS/Icon_Terrain_Peristele.png",
		"MapTileImage": "UI/TerrainImage_ABS/Overview_Stone.png",
		"Background": "Background_ABS/BattleBackground_002.png",
		"ColorR": 150,
		"ColorG": 100,
		"ColorB": 0
	},
	{
		"ID": 203,
		"Name": "City Gates",
		"MovePointRide": 0,
		"MovePointWalk": 0,
		"MovePointWater": 0,
		"MovePointFly": 0,
		"MovePointFieldArmy": 0,
		"BattleBonus": 0,
		"Damage": 0,
		"Fx": "",
		"InfoImage": "UI/TerrainImage_ABS/Icon_Terrain_Wall.png",
		"MapTileImage": "UI/TerrainImage_ABS/Overview_NotWalk.png",
		"Background": "Background_ABS/BattleBackground_008.png",
		"ColorR": 0,
		"ColorG": 0,
		"ColorB": 0
	},
	{
		"ID": 204,
		"Name": "River",
		"MovePointRide": 2,
		"MovePointWalk": 2,
		"MovePointWater": 1,
		"MovePointFly": 1,
		"MovePointFieldArmy": 1,
		"BattleBonus": 0,
		"Damage": 0,
		"Fx": "FX/Common_ABS/CommonFX/ShallowArea/ShallowArea.prefab",
		"InfoImage": "UI/TerrainImage_ABS/Icon_Terrain_Shoal.png",
		"MapTileImage": "UI/TerrainImage_ABS/Overview_Water.png",
		"Background": "Background_ABS/BattleBackground_009.png",
		"ColorR": 100,
		"ColorG": 100,
		"ColorB": 100
	},
	{
		"ID": 205,
		"Name": "City Gates",
		"MovePointRide": 0,
		"MovePointWalk": 0,
		"MovePointWater": 0,
		"MovePointFly": 0,
		"MovePointFieldArmy": 0,
		"BattleBonus": 0,
		"Damage": 0,
		"Fx": "FX/Common_ABS/CommonFX/Common_ClosedGateFront/Common_ClosedGateFront.prefab",
		"InfoImage": "UI/TerrainImage_ABS/Icon_Terrain_Wall.png",
		"MapTileImage": "UI/TerrainImage_ABS/Overview_NotWalk.png",
		"Background": "Background_ABS/BattleBackground_008.png",
		"ColorR": 0,
		"ColorG": 0,
		"ColorB": 0
	},
	{
		"ID": 206,
		"Name": "City Gates",
		"MovePointRide": 0,
		"MovePointWalk": 0,
		"MovePointWater": 0,
		"MovePointFly": 0,
		"MovePointFieldArmy": 0,
		"BattleBonus": 0,
		"Damage": 0,
		"Fx": "FX/Common_ABS/CommonFX/Common_ClosedGateFront/Common_ClosedGateSide.prefab",
		"InfoImage": "UI/TerrainImage_ABS/Icon_Terrain_Wall.png",
		"MapTileImage": "UI/TerrainImage_ABS/Overview_NotWalk.png",
		"Background": "Background_ABS/BattleBackground_008.png",
		"ColorR": 0,
		"ColorG": 0,
		"ColorB": 0
	},
	{
		"ID": 207,
		"Name": "Phoenix Rift",
		"MovePointRide": 1,
		"MovePointWalk": 1,
		"MovePointWater": 1,
		"MovePointFly": 1,
		"MovePointFieldArmy": 1,
		"BattleBonus": 0,
		"Damage": 0,
		"Fx": "FX/Common_ABS/CommonFX/common_burnning_4.prefab",
		"InfoImage": "UI/TerrainImage_ABS/Icon_Terrain_Bonfire.png",
		"MapTileImage": "UI/TerrainImage_ABS/Overview_Magma.png",
		"Background": "Background_ABS/BattleBackground_006.png",
		"ColorR": 100,
		"ColorG": 100,
		"ColorB": 100
	},
	{
		"ID": 208,
		"Name": "City Gates",
		"MovePointRide": 0,
		"MovePointWalk": 0,
		"MovePointWater": 0,
		"MovePointFly": 0,
		"MovePointFieldArmy": 0,
		"BattleBonus": 0,
		"Damage": 0,
		"Fx": "FX/Common_ABS/CommonFX/Common_ClosedGateFront/Common_ClosedGateFront_up.prefab",
		"InfoImage": "UI/TerrainImage_ABS/Icon_Terrain_Wall.png",
		"MapTileImage": "UI/TerrainImage_ABS/Overview_NotWalk.png",
		"Background": "Background_ABS/BattleBackground_008.png",
		"ColorR": 0,
		"ColorG": 0,
		"ColorB": 0
	},
	{
		"ID": 209,
		"Name": "Healing Mist",
		"MovePointRide": 1,
		"MovePointWalk": 1,
		"MovePointWater": 1,
		"MovePointFly": 1,
		"MovePointFieldArmy": 1,
		"BattleBonus": 0,
		"Damage": -100,
		"Fx": "FX/Common_ABS/CommonFX/Common_TimeRift/Common_TimeRift_blue.prefab",
		"InfoImage": "UI/TerrainImage_ABS/Icon_Terrain_Shoal.png",
		"MapTileImage": "UI/TerrainImage_ABS/Overview_Water.png",
		"Background": "Background_ABS/BattleBackground_009.png",
		"ColorR": 100,
		"ColorG": 100,
		"ColorB": 100
	},
	{
		"ID": 210,
		"Name": "Indoors",
		"MovePointRide": 1,
		"MovePointWalk": 1,
		"MovePointWater": 1,
		"MovePointFly": 1,
		"MovePointFieldArmy": 1,
		"BattleBonus": 0,
		"Damage": 0,
		"Fx": "FX/Common_ABS/CommonFX/Common_RoomBlackFog/Common_RoomBlackFog.prefab",
		"InfoImage": "UI/TerrainImage_ABS/Icon_Terrain_Indoor.png",
		"MapTileImage": "UI/TerrainImage_ABS/Overview_WoodenFloor.png",
		"Background": "Background_ABS/BattleBackground_007.png",
		"ColorR": 200,
		"ColorG": 200,
		"ColorB": 200
	},
	{
		"ID": 211,
		"Name": "Indoors",
		"MovePointRide": 1,
		"MovePointWalk": 1,
		"MovePointWater": 1,
		"MovePointFly": 1,
		"MovePointFieldArmy": 1,
		"BattleBonus": 0,
		"Damage": 0,
		"Fx": "FX/Common_ABS/CommonFX/Common_RoomBlackFog/Common_RoomBlackFog.prefab",
		"InfoImage": "UI/TerrainImage_ABS/Icon_Terrain_Indoor.png",
		"MapTileImage": "UI/TerrainImage_ABS/Overview_WoodenFloor.png",
		"Background": "Background_ABS/BattleBackground_007.png",
		"ColorR": 200,
		"ColorG": 200,
		"ColorB": 200
	},
	{
		"ID": 212,
		"Name": "Retreat Point",
		"MovePointRide": 1,
		"MovePointWalk": 1,
		"MovePointWater": 1,
		"MovePointFly": 1,
		"MovePointFieldArmy": 1,
		"BattleBonus": 0,
		"Damage": 0,
		"Fx": "FX/Common_ABS/CommonFX/GridDefendAera/GridDefendArea.prefab",
		"InfoImage": "UI/TerrainImage_ABS/Icon_Terrain_Grassland.png",
		"MapTileImage": "UI/TerrainImage_ABS/Overview_Grassland.png",
		"Background": "Background_ABS/BattleBackground_001.png",
		"ColorR": 100,
		"ColorG": 100,
		"ColorB": 100
	},
	{
		"ID": 213,
		"Name": "Discordant Note",
		"MovePointRide": 1,
		"MovePointWalk": 1,
		"MovePointWater": 1,
		"MovePointFly": 1,
		"MovePointFieldArmy": 1,
		"BattleBonus": 0,
		"Damage": 0,
		"Fx": "FX/Common_ABS/CommonFX/Common_TimeRift/Common_TimeRift.prefab",
		"InfoImage": "UI/TerrainImage_ABS/Icon_Terrain_Shoal.png",
		"MapTileImage": "UI/TerrainImage_ABS/Overview_Water.png",
		"Background": "Background_ABS/BattleBackground_009.png",
		"ColorR": 100,
		"ColorG": 100,
		"ColorB": 100
	},
	{
		"ID": 214,
		"Name": "Indoors",
		"MovePointRide": 1,
		"MovePointWalk": 1,
		"MovePointWater": 1,
		"MovePointFly": 1,
		"MovePointFieldArmy": 1,
		"BattleBonus": 0,
		"Damage": 0,
		"Fx": "FX/Common_ABS/CommonFX/Common_TimeRift/Common_TimeRift_blue.prefab",
		"InfoImage": "UI/TerrainImage_ABS/Icon_Terrain_Indoor.png",
		"MapTileImage": "UI/TerrainImage_ABS/Overview_Indoor.png",
		"Background": "Background_ABS/BattleBackground_008.png",
		"ColorR": 200,
		"ColorG": 200,
		"ColorB": 200
	},
	{
		"ID": 215,
		"Name": "Rift",
		"MovePointRide": 1,
		"MovePointWalk": 1,
		"MovePointWater": 1,
		"MovePointFly": 1,
		"MovePointFieldArmy": 1,
		"BattleBonus": 0,
		"Damage": 0,
		"Fx": "FX/Common_ABS/CommonFX/Common_Portal/Common_Portal.prefab",
		"InfoImage": "UI/TerrainImage_ABS/Icon_Terrain_Shoal.png",
		"MapTileImage": "UI/TerrainImage_ABS/Overview_DeepWater.png",
		"Background": "Background_ABS/BattleBackground_009.png",
		"ColorR": 200,
		"ColorG": 200,
		"ColorB": 200
	},
	{
		"ID": 216,
		"Name": "Whirlpool",
		"MovePointRide": 0,
		"MovePointWalk": 0,
		"MovePointWater": 0,
		"MovePointFly": 0,
		"MovePointFieldArmy": 0,
		"BattleBonus": 0,
		"Damage": 0,
		"Fx": "FX/Common_ABS/CommonFX/Common_TimeRift/Common_TimeRift_blue.prefab",
		"InfoImage": "UI/TerrainImage_ABS/Icon_Terrain_Shoal.png",
		"MapTileImage": "UI/TerrainImage_ABS/Overview_DeepWater.png",
		"Background": "Background_ABS/BattleBackground_008.png",
		"ColorR": 200,
		"ColorG": 200,
		"ColorB": 200
	},
	{
		"ID": 217,
		"Name": "Pillar of Flame",
		"MovePointRide": 0,
		"MovePointWalk": 0,
		"MovePointWater": 0,
		"MovePointFly": 0,
		"MovePointFieldArmy": 0,
		"BattleBonus": 0,
		"Damage": 0,
		"Fx": "FX/Common_ABS/CommonFX/common_burnning_1.prefab",
		"InfoImage": "UI/TerrainImage_ABS/Icon_Terrain_Bonfire.png",
		"MapTileImage": "UI/TerrainImage_ABS/Overview_Magma.png",
		"Background": "Background_ABS/BattleBackground_006.png",
		"ColorR": 100,
		"ColorG": 100,
		"ColorB": 100
	},
	{
		"ID": 218,
		"Name": "Depths",
		"MovePointRide": 0,
		"MovePointWalk": 0,
		"MovePointWater": 0,
		"MovePointFly": 0,
		"MovePointFieldArmy": 0,
		"BattleBonus": 0,
		"Damage": 0,
		"Fx": "",
		"InfoImage": "UI/TerrainImage_ABS/Icon_Terrain_Shoal.png",
		"MapTileImage": "UI/TerrainImage_ABS/Overview_DeepWater.png",
		"Background": "Background_ABS/BattleBackground_009.png",
		"ColorR": 0,
		"ColorG": 0,
		"ColorB": 150
	},
	{
		"ID": 220,
		"Name": "Rift",
		"MovePointRide": 1,
		"MovePointWalk": 1,
		"MovePointWater": 1,
		"MovePointFly": 1,
		"MovePointFieldArmy": 1,
		"BattleBonus": 0,
		"Damage": 0,
		"Fx": "FX/Common_ABS/CommonFX/Common_Portal/Common_Portal.prefab",
		"InfoImage": "UI/TerrainImage_ABS/Icon_Terrain_Indoor.png",
		"MapTileImage": "UI/TerrainImage_ABS/Overview_DeepWater.png",
		"Background": "Background_ABS/BattleBackground_009.png",
		"ColorR": 200,
		"ColorG": 200,
		"ColorB": 200
	},
	{
		"ID": 221,
		"Name": "Stone Tablet",
		"MovePointRide": 0,
		"MovePointWalk": 0,
		"MovePointWater": 0,
		"MovePointFly": 0,
		"MovePointFieldArmy": 0,
		"BattleBonus": 0,
		"Damage": 0,
		"Fx": "BattleMap/BattleMapExploreItem_ABS/Tablet/TabletUIPrefab.prefab",
		"InfoImage": "UI/TerrainImage_ABS/Icon_Terrain_Peristele.png",
		"MapTileImage": "UI/TerrainImage_ABS/Overview_Stone.png",
		"Background": "Background_ABS/BattleBackground_002.png",
		"ColorR": 150,
		"ColorG": 100,
		"ColorB": 0
	},
	{
		"ID": 222,
		"Name": "Grassland",
		"MovePointRide": 1,
		"MovePointWalk": 1,
		"MovePointWater": 1,
		"MovePointFly": 1,
		"MovePointFieldArmy": 1,
		"BattleBonus": 0,
		"Damage": 0,
		"Fx": "FX/Common_ABS/CommonFX/Common_GreenMark/Common_GreenMark.prefab",
		"InfoImage": "UI/TerrainImage_ABS/Icon_Terrain_Grassland.png",
		"MapTileImage": "UI/TerrainImage_ABS/Overview_Grassland.png",
		"Background": "Background_ABS/BattleBackground_001.png",
		"ColorR": 100,
		"ColorG": 100,
		"ColorB": 100
	},
	{
		"ID": 223,
		"Name": "Forest",
		"MovePointRide": 3,
		"MovePointWalk": 1,
		"MovePointWater": 2,
		"MovePointFly": 1,
		"MovePointFieldArmy": 1,
		"BattleBonus": 20,
		"Damage": 0,
		"Fx": "FX/Common_ABS/CommonFX/Common_GreenMark/Common_GreenMark.prefab",
		"InfoImage": "UI/TerrainImage_ABS/Icon_Terrain_Woods.png",
		"MapTileImage": "UI/TerrainImage_ABS/Overview_Tree.png",
		"Background": "Background_ABS/BattleBackground_001.png",
		"ColorR": 0,
		"ColorG": 150,
		"ColorB": 0
	},
	{
		"ID": 224,
		"Name": "Forest",
		"MovePointRide": 0,
		"MovePointWalk": 0,
		"MovePointWater": 0,
		"MovePointFly": 0,
		"MovePointFieldArmy": 0,
		"BattleBonus": 20,
		"Damage": 0,
		"Fx": "FX/Common_ABS/CommonFX/Common_GreenMark/Common_GreenMark.prefab",
		"InfoImage": "UI/TerrainImage_ABS/Icon_Terrain_Woods.png",
		"MapTileImage": "UI/TerrainImage_ABS/Overview_Tree.png",
		"Background": "Background_ABS/BattleBackground_001.png",
		"ColorR": 0,
		"ColorG": 150,
		"ColorB": 0
	},
	{
		"ID": 225,
		"Name": "Summoning Array",
		"MovePointRide": 0,
		"MovePointWalk": 0,
		"MovePointWater": 0,
		"MovePointFly": 0,
		"MovePointFieldArmy": 0,
		"BattleBonus": 20,
		"Damage": 0,
		"Fx": "FX/Common_ABS/CommonFX/Common_TimeRift/Common_TimeRift.prefab",
		"InfoImage": "UI/TerrainImage_ABS/Icon_Terrain_Woods.png",
		"MapTileImage": "UI/TerrainImage_ABS/Overview_Tree.png",
		"Background": "Background_ABS/BattleBackground_001.png",
		"ColorR": 0,
		"ColorG": 150,
		"ColorB": 0
	},
	{
		"ID": 226,
		"Name": "Retreat Point",
		"MovePointRide": 1,
		"MovePointWalk": 1,
		"MovePointWater": 1,
		"MovePointFly": 1,
		"MovePointFieldArmy": 1,
		"BattleBonus": 0,
		"Damage": 0,
		"Fx": "FX/Common_ABS/CommonFX/Common_GreenMark/Common_GreenMark.prefab",
		"InfoImage": "UI/TerrainImage_ABS/Icon_Terrain_Indoor.png",
		"MapTileImage": "UI/TerrainImage_ABS/Overview_WoodenFloor.png",
		"Background": "Background_ABS/BattleBackground_007.png",
		"ColorR": 200,
		"ColorG": 200,
		"ColorB": 200
	},
	{
		"ID": 227,
		"Name": "Poison Fog",
		"MovePointRide": 1,
		"MovePointWalk": 1,
		"MovePointWater": 1,
		"MovePointFly": 1,
		"MovePointFieldArmy": 1,
		"BattleBonus": 0,
		"Damage": 100,
		"Fx": "FX/Common_ABS/CommonFX/Common_DeadlyPoison/Common_DeadlyPoison.prefab",
		"InfoImage": "UI/TerrainImage_ABS/Icon_Terrain_Bonfire.png",
		"MapTileImage": "UI/TerrainImage_ABS/Overview_Magma.png",
		"Background": "Background_ABS/BattleBackground_006.png",
		"ColorR": 100,
		"ColorG": 100,
		"ColorB": 100
	},
	{
		"ID": 228,
		"Name": "Inverse Wave",
		"MovePointRide": 1,
		"MovePointWalk": 1,
		"MovePointWater": 1,
		"MovePointFly": 1,
		"MovePointFieldArmy": 1,
		"BattleBonus": 0,
		"Damage": 20,
		"Fx": "FX/Common_ABS/CommonFX/Common_TimeRift/Common_TimeRift_blue.prefab",
		"InfoImage": "UI/TerrainImage_ABS/Icon_Terrain_Shoal.png",
		"MapTileImage": "UI/TerrainImage_ABS/Overview_Water.png",
		"Background": "Background_ABS/BattleBackground_009.png",
		"ColorR": 100,
		"ColorG": 100,
		"ColorB": 100
	},
	{
		"ID": 229,
		"Name": "Flames",
		"MovePointRide": 1,
		"MovePointWalk": 1,
		"MovePointWater": 1,
		"MovePointFly": 1,
		"MovePointFieldArmy": 1,
		"BattleBonus": 0,
		"Damage": 20,
		"Fx": "FX/Common_ABS/CommonFX/common_burnning_4.prefab",
		"InfoImage": "UI/TerrainImage_ABS/Icon_Terrain_Bonfire.png",
		"MapTileImage": "UI/TerrainImage_ABS/Overview_Magma.png",
		"Background": "Background_ABS/BattleBackground_006.png",
		"ColorR": 100,
		"ColorG": 100,
		"ColorB": 100
	},
	{
		"ID": 230,
		"Name": "Stone Tablet",
		"MovePointRide": 0,
		"MovePointWalk": 0,
		"MovePointWater": 0,
		"MovePointFly": 0,
		"MovePointFieldArmy": 0,
		"BattleBonus": 0,
		"Damage": 0,
		"Fx": "BattleMap/BattleMapExploreItem_ABS/Tablet/TabletUIPrefab.prefab",
		"InfoImage": "UI/TerrainImage_ABS/Icon_Terrain_Shoal.png",
		"MapTileImage": "UI/TerrainImage_ABS/Overview_Stone.png",
		"Background": "Background_ABS/BattleBackground_002.png",
		"ColorR": 150,
		"ColorG": 100,
		"ColorB": 0
	},
	{
		"ID": 231,
		"Name": "Seal Point",
		"MovePointRide": 1,
		"MovePointWalk": 1,
		"MovePointWater": 1,
		"MovePointFly": 1,
		"MovePointFieldArmy": 1,
		"BattleBonus": 0,
		"Damage": 0,
		"Fx": "FX/Common_ABS/CommonFX/OnTouchMovePlaceInMan/OnTouchMovePlaceEmpty_G.prefab",
		"InfoImage": "UI/TerrainImage_ABS/Icon_Terrain_Grassland.png",
		"MapTileImage": "UI/TerrainImage_ABS/Overview_Road.png",
		"Background": "Background_ABS/BattleBackground_001.png",
		"ColorR": 100,
		"ColorG": 100,
		"ColorB": 100
	},
	{
		"ID": 232,
		"Name": "Silverleaf Flower",
		"MovePointRide": 1,
		"MovePointWalk": 1,
		"MovePointWater": 1,
		"MovePointFly": 1,
		"MovePointFieldArmy": 1,
		"BattleBonus": 0,
		"Damage": 0,
		"Fx": "BattleMap/BattleMapExploreItem_ABS/Flower/FlowerUIPrefab.prefab",
		"InfoImage": "UI/TerrainImage_ABS/Icon_Terrain_Grassland.png",
		"MapTileImage": "UI/TerrainImage_ABS/Overview_Grassland.png",
		"Background": "Background_ABS/BattleBackground_001.png",
		"ColorR": 100,
		"ColorG": 100,
		"ColorB": 100
	},
	{
		"ID": 233,
		"Name": "Poison Smoke",
		"MovePointRide": 10,
		"MovePointWalk": 10,
		"MovePointWater": 10,
		"MovePointFly": 10,
		"MovePointFieldArmy": 10,
		"BattleBonus": 0,
		"Damage": 0,
		"Fx": "FX/Common_ABS/CommonFX/Common_DeadlyPoison/Common_DeadlyPoison.prefab",
		"InfoImage": "UI/TerrainImage_ABS/Icon_Terrain_Indoor.png",
		"MapTileImage": "UI/TerrainImage_ABS/Overview_WoodenFloor.png",
		"Background": "Background_ABS/BattleBackground_007.png",
		"ColorR": 100,
		"ColorG": 100,
		"ColorB": 100
	},
	{
		"ID": 234,
		"Name": "Rift",
		"MovePointRide": 1,
		"MovePointWalk": 1,
		"MovePointWater": 1,
		"MovePointFly": 1,
		"MovePointFieldArmy": 1,
		"BattleBonus": 0,
		"Damage": 0,
		"Fx": "BattleMap/BattleMapExploreItem_ABS/Fissure/FissureUIPrefab.prefab",
		"InfoImage": "UI/TerrainImage_ABS/Icon_Terrain_Indoor.png",
		"MapTileImage": "UI/TerrainImage_ABS/Overview_WoodenFloor.png",
		"Background": "Background_ABS/BattleBackground_007.png",
		"ColorR": 100,
		"ColorG": 100,
		"ColorB": 100
	},
	{
		"ID": 235,
		"Name": "Black Fog",
		"MovePointRide": 1,
		"MovePointWalk": 1,
		"MovePointWater": 1,
		"MovePointFly": 1,
		"MovePointFieldArmy": 1,
		"BattleBonus": 0,
		"Damage": 0,
		"Fx": "FX/Common_ABS/CommonFX/common_burnning_5.prefab",
		"InfoImage": "UI/TerrainImage_ABS/Icon_Terrain_Indoor.png",
		"MapTileImage": "UI/TerrainImage_ABS/Overview_WoodenFloor.png",
		"Background": "Background_ABS/BattleBackground_007.png",
		"ColorR": 200,
		"ColorG": 200,
		"ColorB": 200
	},
	{
		"ID": 236,
		"Name": "City Gates",
		"MovePointRide": 0,
		"MovePointWalk": 0,
		"MovePointWater": 0,
		"MovePointFly": 0,
		"MovePointFieldArmy": 0,
		"BattleBonus": 0,
		"Damage": 0,
		"Fx": "BattleMap/BattleMapVillage008_ABS/Village008_gatePrefab.prefab",
		"InfoImage": "UI/TerrainImage_ABS/Icon_Terrain_Wall.png",
		"MapTileImage": "UI/TerrainImage_ABS/Overview_NotWalk.png",
		"Background": "Background_ABS/BattleBackground_008.png",
		"ColorR": 0,
		"ColorG": 0,
		"ColorB": 0
	},
	{
		"ID": 237,
		"Name": "Flames",
		"MovePointRide": 2,
		"MovePointWalk": 1,
		"MovePointWater": 2,
		"MovePointFly": 1,
		"MovePointFieldArmy": 1,
		"BattleBonus": 0,
		"Damage": 35,
		"Fx": "FX/Common_ABS/CommonFX/common_burnning_4.prefab",
		"InfoImage": "UI/TerrainImage_ABS/Icon_Terrain_Desert.png",
		"MapTileImage": "UI/TerrainImage_ABS/Overview_Road.png",
		"Background": "Background_ABS/BattleBackground_014.png",
		"ColorR": 100,
		"ColorG": 100,
		"ColorB": 100
	},
	{
		"ID": 238,
		"Name": "Flames",
		"MovePointRide": 3,
		"MovePointWalk": 2,
		"MovePointWater": 3,
		"MovePointFly": 1,
		"MovePointFieldArmy": 1,
		"BattleBonus": 10,
		"Damage": 35,
		"Fx": "FX/Common_ABS/CommonFX/common_burnning_4.prefab",
		"InfoImage": "UI/TerrainImage_ABS/Icon_Terrain_SandDune.png",
		"MapTileImage": "UI/TerrainImage_ABS/Overview_MountainLand.png",
		"Background": "Background_ABS/BattleBackground_014.png",
		"ColorR": 100,
		"ColorG": 100,
		"ColorB": 0
	},
	{
		"ID": 239,
		"Name": "Opening Point",
		"MovePointRide": 1,
		"MovePointWalk": 1,
		"MovePointWater": 1,
		"MovePointFly": 1,
		"MovePointFieldArmy": 1,
		"BattleBonus": 0,
		"Damage": 0,
		"Fx": "FX/Common_ABS/CommonFX/Common_GreenMark/Common_GreenMark.prefab",
		"InfoImage": "UI/TerrainImage_ABS/Icon_Terrain_Grassland.png",
		"MapTileImage": "UI/TerrainImage_ABS/Overview_Road.png",
		"Background": "Background_ABS/BattleBackground_002.png",
		"ColorR": 200,
		"ColorG": 200,
		"ColorB": 200
	},
	{
		"ID": 240,
		"Name": "Rift",
		"MovePointRide": 1,
		"MovePointWalk": 1,
		"MovePointWater": 1,
		"MovePointFly": 1,
		"MovePointFieldArmy": 1,
		"BattleBonus": 0,
		"Damage": 0,
		"Fx": "FX/Common_ABS/CommonFX/Common_Portal/Common_Portal.prefab",
		"InfoImage": "UI/TerrainImage_ABS/Icon_Terrain_Indoor.png",
		"MapTileImage": "UI/TerrainImage_ABS/Overview_DeepWater.png",
		"Background": "Background_ABS/BattleBackground_009.png",
		"ColorR": 200,
		"ColorG": 200,
		"ColorB": 200
	},
	{
		"ID": 241,
		"Name": "Formation - Purple",
		"MovePointRide": 1,
		"MovePointWalk": 1,
		"MovePointWater": 1,
		"MovePointFly": 1,
		"MovePointFieldArmy": 1,
		"BattleBonus": 0,
		"Damage": 0,
		"Fx": "FX/Common_ABS/CommonFX/Common_TimeRift/Common_TimeRift.prefab",
		"InfoImage": "UI/TerrainImage_ABS/Icon_Terrain_Grotto.png",
		"MapTileImage": "UI/TerrainImage_ABS/Overview_MountainLand.png",
		"Background": "Background_ABS/BattleBackground_006.png",
		"ColorR": 150,
		"ColorG": 100,
		"ColorB": 0
	},
	{
		"ID": 242,
		"Name": "Formation - Blue",
		"MovePointRide": 1,
		"MovePointWalk": 1,
		"MovePointWater": 1,
		"MovePointFly": 1,
		"MovePointFieldArmy": 1,
		"BattleBonus": 0,
		"Damage": 0,
		"Fx": "FX/Common_ABS/CommonFX/Common_TimeRift/Common_TimeRift_blue.prefab",
		"InfoImage": "UI/TerrainImage_ABS/Icon_Terrain_Grotto.png",
		"MapTileImage": "UI/TerrainImage_ABS/Overview_MountainLand.png",
		"Background": "Background_ABS/BattleBackground_006.png",
		"ColorR": 150,
		"ColorG": 100,
		"ColorB": 0
	},
	{
		"ID": 243,
		"Name": "Red Magic Array",
		"MovePointRide": 1,
		"MovePointWalk": 1,
		"MovePointWater": 1,
		"MovePointFly": 1,
		"MovePointFieldArmy": 1,
		"BattleBonus": 0,
		"Damage": 0,
		"Fx": "FX/Common_ABS/CommonFX/common_BloodMark.prefab",
		"InfoImage": "UI/TerrainImage_ABS/Icon_Terrain_Grotto.png",
		"MapTileImage": "UI/TerrainImage_ABS/Overview_MountainLand.png",
		"Background": "Background_ABS/BattleBackground_006.png",
		"ColorR": 150,
		"ColorG": 100,
		"ColorB": 0
	},
	{
		"ID": 244,
		"Name": "Poison Smoke",
		"MovePointRide": 0,
		"MovePointWalk": 0,
		"MovePointWater": 0,
		"MovePointFly": 0,
		"MovePointFieldArmy": 0,
		"BattleBonus": 0,
		"Damage": 0,
		"Fx": "FX/Common_ABS/CommonFX/Common_DeadlyPoison/Common_DeadlyPoison.prefab",
		"InfoImage": "UI/TerrainImage_ABS/Icon_Terrain_Indoor.png",
		"MapTileImage": "UI/TerrainImage_ABS/Overview_WoodenFloor.png",
		"Background": "Background_ABS/BattleBackground_007.png",
		"ColorR": 100,
		"ColorG": 100,
		"ColorB": 100
	},
	{
		"ID": 245,
		"Name": "Poison Smoke",
		"MovePointRide": 10,
		"MovePointWalk": 10,
		"MovePointWater": 10,
		"MovePointFly": 10,
		"MovePointFieldArmy": 10,
		"BattleBonus": 0,
		"Damage": 0,
		"Fx": "FX/Common_ABS/CommonFX/Common_DeadlyPoison/Common_DeadlyPoison.prefab",
		"InfoImage": "UI/TerrainImage_ABS/Icon_Terrain_Indoor.png",
		"MapTileImage": "UI/TerrainImage_ABS/Overview_WoodenFloor.png",
		"Background": "Background_ABS/BattleBackground_007.png",
		"ColorR": 100,
		"ColorG": 100,
		"ColorB": 100
	},
	{
		"ID": 246,
		"Name": "Black Fog",
		"MovePointRide": 0,
		"MovePointWalk": 0,
		"MovePointWater": 0,
		"MovePointFly": 0,
		"MovePointFieldArmy": 0,
		"BattleBonus": 0,
		"Damage": 0,
		"Fx": "FX/Common_ABS/CommonFX/common_burnning_5.prefab",
		"InfoImage": "UI/TerrainImage_ABS/Icon_Terrain_Indoor.png",
		"MapTileImage": "UI/TerrainImage_ABS/Overview_WoodenFloor.png",
		"Background": "Background_ABS/BattleBackground_007.png",
		"ColorR": 200,
		"ColorG": 200,
		"ColorB": 200
	},
	{
		"ID": 247,
		"Name": "Rift",
		"MovePointRide": 1,
		"MovePointWalk": 1,
		"MovePointWater": 1,
		"MovePointFly": 1,
		"MovePointFieldArmy": 1,
		"BattleBonus": 0,
		"Damage": 0,
		"Fx": "BattleMap/BattleMapExploreItem_ABS/Fissure/FissureUIPrefab.prefab",
		"InfoImage": "UI/TerrainImage_ABS/Icon_Terrain_Grassland.png",
		"MapTileImage": "UI/TerrainImage_ABS/Overview_Road.png",
		"Background": "Background_ABS/BattleBackground_007.png",
		"ColorR": 100,
		"ColorG": 100,
		"ColorB": 100
	},
	{
		"ID": 248,
		"Name": "Crack",
		"MovePointRide": 1,
		"MovePointWalk": 1,
		"MovePointWater": 1,
		"MovePointFly": 1,
		"MovePointFieldArmy": 1,
		"BattleBonus": 0,
		"Damage": 0,
		"Fx": "BattleMap/BattleMapExploreItem_ABS/Floor/FloorUIPrefab.prefab",
		"InfoImage": "UI/TerrainImage_ABS/Icon_Terrain_Indoor.png",
		"MapTileImage": "UI/TerrainImage_ABS/Overview_WoodenFloor.png",
		"Background": "Background_ABS/BattleBackground_007.png",
		"ColorR": 100,
		"ColorG": 100,
		"ColorB": 100
	},
	{
		"ID": 249,
		"Name": "Formation",
		"MovePointRide": 1,
		"MovePointWalk": 1,
		"MovePointWater": 1,
		"MovePointFly": 1,
		"MovePointFieldArmy": 1,
		"BattleBonus": 0,
		"Damage": 0,
		"Fx": "FX/Common_ABS/CommonFX/Common_TimeRift/Common_TimeRift_blue.prefab",
		"InfoImage": "UI/TerrainImage_ABS/Icon_Terrain_Grotto.png",
		"MapTileImage": "UI/TerrainImage_ABS/Overview_MountainLand.png",
		"Background": "Background_ABS/BattleBackground_006.png",
		"ColorR": 150,
		"ColorG": 100,
		"ColorB": 0
	},
	{
		"ID": 250,
		"Name": "Team Skill Zone",
		"MovePointRide": 1,
		"MovePointWalk": 1,
		"MovePointWater": 1,
		"MovePointFly": 1,
		"MovePointFieldArmy": 1,
		"BattleBonus": 0,
		"Damage": 0,
		"Fx": "FX/Common_ABS/CommonFX/Common_TimeRift/Common_TimeRift_blue.prefab",
		"InfoImage": "UI/TerrainImage_ABS/Icon_Terrain_Indoor.png",
		"MapTileImage": "UI/TerrainImage_ABS/Overview_WoodenFloor.png",
		"Background": "Background_ABS/BattleBackground_007.png",
		"ColorR": 200,
		"ColorG": 200,
		"ColorB": 200
	},
	{
		"ID": 251,
		"Name": "Summoning Formation",
		"MovePointRide": 1,
		"MovePointWalk": 1,
		"MovePointWater": 1,
		"MovePointFly": 1,
		"MovePointFieldArmy": 1,
		"BattleBonus": 0,
		"Damage": 0,
		"Fx": "FX/Common_ABS/CommonFX/common_BloodMark.prefab",
		"InfoImage": "UI/TerrainImage_ABS/Icon_Terrain_Indoor.png",
		"MapTileImage": "UI/TerrainImage_ABS/Overview_WoodenFloor.png",
		"Background": "Background_ABS/BattleBackground_007.png",
		"ColorR": 200,
		"ColorG": 200,
		"ColorB": 200
	},
	{
		"ID": 252,
		"Name": "Summoning Formation",
		"MovePointRide": 1,
		"MovePointWalk": 1,
		"MovePointWater": 1,
		"MovePointFly": 1,
		"MovePointFieldArmy": 1,
		"BattleBonus": 0,
		"Damage": 0,
		"Fx": "FX/Common_ABS/CommonFX/Common_TimeRift/Common_TimeRift.prefab",
		"InfoImage": "UI/TerrainImage_ABS/Icon_Terrain_Indoor.png",
		"MapTileImage": "UI/TerrainImage_ABS/Overview_WoodenFloor.png",
		"Background": "Background_ABS/BattleBackground_007.png",
		"ColorR": 200,
		"ColorG": 200,
		"ColorB": 200
	},
	{
		"ID": 253,
		"Name": "Flames",
		"MovePointRide": 1,
		"MovePointWalk": 1,
		"MovePointWater": 1,
		"MovePointFly": 1,
		"MovePointFieldArmy": 1,
		"BattleBonus": 0,
		"Damage": 20,
		"Fx": "FX/Common_ABS/CommonFX/common_burnning_4.prefab",
		"InfoImage": "UI/TerrainImage_ABS/Icon_Terrain_Bonfire.png",
		"MapTileImage": "UI/TerrainImage_ABS/Overview_Magma.png",
		"Background": "Background_ABS/BattleBackground_006.png",
		"ColorR": 100,
		"ColorG": 100,
		"ColorB": 100
	},
	{
		"ID": 219,
		"Name": "Summoning Array",
		"MovePointRide": 1,
		"MovePointWalk": 1,
		"MovePointWater": 1,
		"MovePointFly": 1,
		"MovePointFieldArmy": 1,
		"BattleBonus": 0,
		"Damage": 50,
		"Fx": "FX/Common_ABS/CommonFX/Common_TimeRift/Common_TimeRift.prefab",
		"InfoImage": "UI/TerrainImage_ABS/Icon_Terrain_Bonfire.png",
		"MapTileImage": "UI/TerrainImage_ABS/Overview_Magma.png",
		"Background": "Background_ABS/BattleBackground_006.png",
		"ColorR": 100,
		"ColorG": 100,
		"ColorB": 100
	}
]