[
	{
		"ID": 1,
		"GroupId": 1,
		"Score": 100,
		"Name": "Phase 1",
		"RewardList": [
			{
				"GoodsType": "GoodsType_Item",
				"Id": 1012,
				"Count": 15
			},
			{
				"GoodsType": "GoodsType_Item",
				"Id": 3003,
				"Count": 1
			},
			{
				"GoodsType": "GoodsType_Item",
				"Id": 3100,
				"Count": 1
			},
			{
				"GoodsType": "GoodsType_Item",
				"Id": 3002,
				"Count": 2
			}
		],
		"RewardDisplayCount": 3
	},
	{
		"ID": 2,
		"GroupId": 1,
		"Score": 200,
		"Name": "Phase 2",
		"RewardList": [
			{
				"GoodsType": "GoodsType_Item",
				"Id": 1012,
				"Count": 20
			},
			{
				"GoodsType": "GoodsType_Item",
				"Id": 3003,
				"Count": 2
			},
			{
				"GoodsType": "GoodsType_Item",
				"Id": 3101,
				"Count": 1
			},
			{
				"GoodsType": "GoodsType_Item",
				"Id": 3002,
				"Count": 5
			}
		],
		"RewardDisplayCount": 3
	},
	{
		"ID": 3,
		"GroupId": 1,
		"Score": 500,
		"Name": "Phase 3",
		"RewardList": [
			{
				"GoodsType": "GoodsType_Item",
				"Id": 1012,
				"Count": 20
			},
			{
				"GoodsType": "GoodsType_Item",
				"Id": 3003,
				"Count": 3
			},
			{
				"GoodsType": "GoodsType_Item",
				"Id": 3101,
				"Count": 2
			},
			{
				"GoodsType": "GoodsType_Item",
				"Id": 3003,
				"Count": 1
			}
		],
		"RewardDisplayCount": 3
	},
	{
		"ID": 4,
		"GroupId": 1,
		"Score": 1000,
		"Name": "Phase 4",
		"RewardList": [
			{
				"GoodsType": "GoodsType_Item",
				"Id": 1012,
				"Count": 20
			},
			{
				"GoodsType": "GoodsType_Item",
				"Id": 3003,
				"Count": 4
			},
			{
				"GoodsType": "GoodsType_Item",
				"Id": 3101,
				"Count": 3
			},
			{
				"GoodsType": "GoodsType_Item",
				"Id": 3003,
				"Count": 2
			}
		],
		"RewardDisplayCount": 3
	},
	{
		"ID": 5,
		"GroupId": 1,
		"Score": 2000,
		"Name": "Phase 5",
		"RewardList": [
			{
				"GoodsType": "GoodsType_Item",
				"Id": 1025,
				"Count": 15
			},
			{
				"GoodsType": "GoodsType_Item",
				"Id": 3003,
				"Count": 1
			},
			{
				"GoodsType": "GoodsType_Item",
				"Id": 3100,
				"Count": 1
			},
			{
				"GoodsType": "GoodsType_Item",
				"Id": 3002,
				"Count": 2
			}
		],
		"RewardDisplayCount": 3
	},
	{
		"ID": 6,
		"GroupId": 2,
		"Score": 100,
		"Name": "Phase 1",
		"RewardList": [
			{
				"GoodsType": "GoodsType_Item",
				"Id": 1020,
				"Count": 15
			},
			{
				"GoodsType": "GoodsType_Item",
				"Id": 3002,
				"Count": 3
			},
			{
				"GoodsType": "GoodsType_Item",
				"Id": 3100,
				"Count": 1
			},
			{
				"GoodsType": "GoodsType_Item",
				"Id": 3002,
				"Count": 1
			}
		],
		"RewardDisplayCount": 3
	},
	{
		"ID": 7,
		"GroupId": 2,
		"Score": 200,
		"Name": "Phase 2",
		"RewardList": [
			{
				"GoodsType": "GoodsType_Item",
				"Id": 1020,
				"Count": 15
			},
			{
				"GoodsType": "GoodsType_Item",
				"Id": 3003,
				"Count": 1
			},
			{
				"GoodsType": "GoodsType_Item",
				"Id": 3100,
				"Count": 1
			},
			{
				"GoodsType": "GoodsType_Item",
				"Id": 3002,
				"Count": 2
			}
		],
		"RewardDisplayCount": 3
	},
	{
		"ID": 8,
		"GroupId": 2,
		"Score": 500,
		"Name": "Phase 3",
		"RewardList": [
			{
				"GoodsType": "GoodsType_Item",
				"Id": 1020,
				"Count": 20
			},
			{
				"GoodsType": "GoodsType_Item",
				"Id": 3003,
				"Count": 2
			},
			{
				"GoodsType": "GoodsType_Item",
				"Id": 3101,
				"Count": 1
			},
			{
				"GoodsType": "GoodsType_Item",
				"Id": 3002,
				"Count": 5
			}
		],
		"RewardDisplayCount": 3
	},
	{
		"ID": 9,
		"GroupId": 2,
		"Score": 1000,
		"Name": "Phase 4",
		"RewardList": [
			{
				"GoodsType": "GoodsType_Item",
				"Id": 1020,
				"Count": 20
			},
			{
				"GoodsType": "GoodsType_Item",
				"Id": 3003,
				"Count": 3
			},
			{
				"GoodsType": "GoodsType_Item",
				"Id": 3101,
				"Count": 2
			},
			{
				"GoodsType": "GoodsType_Item",
				"Id": 3003,
				"Count": 1
			}
		],
		"RewardDisplayCount": 3
	},
	{
		"ID": 10,
		"GroupId": 2,
		"Score": 2000,
		"Name": "Phase 5",
		"RewardList": [
			{
				"GoodsType": "GoodsType_Item",
				"Id": 1009,
				"Count": 15
			},
			{
				"GoodsType": "GoodsType_Item",
				"Id": 3003,
				"Count": 1
			},
			{
				"GoodsType": "GoodsType_Item",
				"Id": 3100,
				"Count": 1
			},
			{
				"GoodsType": "GoodsType_Item",
				"Id": 3002,
				"Count": 2
			}
		],
		"RewardDisplayCount": 3
	},
	{
		"ID": 11,
		"GroupId": 3,
		"Score": 70000,
		"Name": "Phase 47",
		"RewardList": [
			{
				"GoodsType": "GoodsType_Crystal",
				"Id": 0,
				"Count": 50
			}
		],
		"RewardDisplayCount": 3
	},
	{
		"ID": 12,
		"GroupId": 3,
		"Score": 67500,
		"Name": "Phase 46",
		"RewardList": [
			{
				"GoodsType": "GoodsType_Gold",
				"Id": 0,
				"Count": 100000
			}
		],
		"RewardDisplayCount": 3
	},
	{
		"ID": 13,
		"GroupId": 3,
		"Score": 65000,
		"Name": "Phase 45",
		"RewardList": [
			{
				"GoodsType": "GoodsType_Crystal",
				"Id": 0,
				"Count": 50
			}
		],
		"RewardDisplayCount": 3
	},
	{
		"ID": 14,
		"GroupId": 3,
		"Score": 62500,
		"Name": "Phase 44",
		"RewardList": [
			{
				"GoodsType": "GoodsType_Item",
				"Id": 4026,
				"Count": 1
			}
		],
		"RewardDisplayCount": 3
	},
	{
		"ID": 15,
		"GroupId": 3,
		"Score": 60000,
		"Name": "Phase 43",
		"RewardList": [
			{
				"GoodsType": "GoodsType_BrillianceMithralStone",
				"Id": 0,
				"Count": 100
			}
		],
		"RewardDisplayCount": 3
	},
	{
		"ID": 16,
		"GroupId": 3,
		"Score": 57500,
		"Name": "Phase 42",
		"RewardList": [
			{
				"GoodsType": "GoodsType_Item",
				"Id": 3203,
				"Count": 5
			}
		],
		"RewardDisplayCount": 3
	},
	{
		"ID": 17,
		"GroupId": 3,
		"Score": 55000,
		"Name": "Phase 41",
		"RewardList": [
			{
				"GoodsType": "GoodsType_Crystal",
				"Id": 0,
				"Count": 50
			}
		],
		"RewardDisplayCount": 3
	},
	{
		"ID": 18,
		"GroupId": 3,
		"Score": 52500,
		"Name": "Phase 40",
		"RewardList": [
			{
				"GoodsType": "GoodsType_Item",
				"Id": 4001,
				"Count": 1
			}
		],
		"RewardDisplayCount": 3
	},
	{
		"ID": 19,
		"GroupId": 3,
		"Score": 50000,
		"Name": "Phase 39",
		"RewardList": [
			{
				"GoodsType": "GoodsType_Gold",
				"Id": 0,
				"Count": 100000
			}
		],
		"RewardDisplayCount": 3
	},
	{
		"ID": 20,
		"GroupId": 3,
		"Score": 47500,
		"Name": "Phase 38",
		"RewardList": [
			{
				"GoodsType": "GoodsType_Item",
				"Id": 4013,
				"Count": 1
			}
		],
		"RewardDisplayCount": 3
	},
	{
		"ID": 21,
		"GroupId": 3,
		"Score": 45000,
		"Name": "Phase 37",
		"RewardList": [
			{
				"GoodsType": "GoodsType_Crystal",
				"Id": 0,
				"Count": 30
			}
		],
		"RewardDisplayCount": 3
	},
	{
		"ID": 22,
		"GroupId": 3,
		"Score": 42500,
		"Name": "Phase 36",
		"RewardList": [
			{
				"GoodsType": "GoodsType_Item",
				"Id": 3005,
				"Count": 5
			}
		],
		"RewardDisplayCount": 3
	},
	{
		"ID": 23,
		"GroupId": 3,
		"Score": 40000,
		"Name": "Phase 35",
		"RewardList": [
			{
				"GoodsType": "GoodsType_BrillianceMithralStone",
				"Id": 0,
				"Count": 100
			}
		],
		"RewardDisplayCount": 3
	},
	{
		"ID": 24,
		"GroupId": 3,
		"Score": 37500,
		"Name": "Phase 34",
		"RewardList": [
			{
				"GoodsType": "GoodsType_Item",
				"Id": 4012,
				"Count": 1
			}
		],
		"RewardDisplayCount": 3
	},
	{
		"ID": 25,
		"GroupId": 3,
		"Score": 35000,
		"Name": "Phase 33",
		"RewardList": [
			{
				"GoodsType": "GoodsType_Crystal",
				"Id": 0,
				"Count": 30
			}
		],
		"RewardDisplayCount": 3
	},
	{
		"ID": 26,
		"GroupId": 3,
		"Score": 32500,
		"Name": "Phase 32",
		"RewardList": [
			{
				"GoodsType": "GoodsType_Item",
				"Id": 4026,
				"Count": 1
			}
		],
		"RewardDisplayCount": 3
	},
	{
		"ID": 27,
		"GroupId": 3,
		"Score": 30000,
		"Name": "Phase 31",
		"RewardList": [
			{
				"GoodsType": "GoodsType_Item",
				"Id": 3202,
				"Count": 8
			}
		],
		"RewardDisplayCount": 3
	},
	{
		"ID": 28,
		"GroupId": 3,
		"Score": 27500,
		"Name": "Phase 30",
		"RewardList": [
			{
				"GoodsType": "GoodsType_Gold",
				"Id": 0,
				"Count": 50000
			}
		],
		"RewardDisplayCount": 3
	},
	{
		"ID": 29,
		"GroupId": 3,
		"Score": 25000,
		"Name": "Phase 29",
		"RewardList": [
			{
				"GoodsType": "GoodsType_Crystal",
				"Id": 0,
				"Count": 30
			}
		],
		"RewardDisplayCount": 3
	},
	{
		"ID": 30,
		"GroupId": 3,
		"Score": 22500,
		"Name": "Phase 28",
		"RewardList": [
			{
				"GoodsType": "GoodsType_Item",
				"Id": 6012,
				"Count": 6
			},
			{
				"GoodsType": "GoodsType_Item",
				"Id": 6015,
				"Count": 6
			},
			{
				"GoodsType": "GoodsType_Item",
				"Id": 6018,
				"Count": 6
			}
		],
		"RewardDisplayCount": 3
	},
	{
		"ID": 31,
		"GroupId": 3,
		"Score": 20000,
		"Name": "Phase 27",
		"RewardList": [
			{
				"GoodsType": "GoodsType_Item",
				"Id": 1009,
				"Count": 20
			}
		],
		"RewardDisplayCount": 3
	},
	{
		"ID": 32,
		"GroupId": 3,
		"Score": 18000,
		"Name": "Phase 26",
		"RewardList": [
			{
				"GoodsType": "GoodsType_Item",
				"Id": 4001,
				"Count": 1
			}
		],
		"RewardDisplayCount": 3
	},
	{
		"ID": 33,
		"GroupId": 3,
		"Score": 16000,
		"Name": "Phase 25",
		"RewardList": [
			{
				"GoodsType": "GoodsType_Crystal",
				"Id": 0,
				"Count": 30
			}
		],
		"RewardDisplayCount": 3
	},
	{
		"ID": 34,
		"GroupId": 3,
		"Score": 14000,
		"Name": "Phase 24",
		"RewardList": [
			{
				"GoodsType": "GoodsType_Item",
				"Id": 6003,
				"Count": 6
			},
			{
				"GoodsType": "GoodsType_Item",
				"Id": 6006,
				"Count": 6
			},
			{
				"GoodsType": "GoodsType_Item",
				"Id": 6009,
				"Count": 6
			}
		],
		"RewardDisplayCount": 3
	},
	{
		"ID": 35,
		"GroupId": 3,
		"Score": 12000,
		"Name": "Phase 23",
		"RewardList": [
			{
				"GoodsType": "GoodsType_Equipment",
				"Id": 304,
				"Count": 2
			}
		],
		"RewardDisplayCount": 3
	},
	{
		"ID": 36,
		"GroupId": 3,
		"Score": 11000,
		"Name": "Phase 22",
		"RewardList": [
			{
				"GoodsType": "GoodsType_Item",
				"Id": 1009,
				"Count": 20
			}
		],
		"RewardDisplayCount": 3
	},
	{
		"ID": 37,
		"GroupId": 3,
		"Score": 10000,
		"Name": "Phase 21",
		"RewardList": [
			{
				"GoodsType": "GoodsType_Crystal",
				"Id": 0,
				"Count": 20
			}
		],
		"RewardDisplayCount": 3
	},
	{
		"ID": 38,
		"GroupId": 3,
		"Score": 9000,
		"Name": "Phase 20",
		"RewardList": [
			{
				"GoodsType": "GoodsType_Gold",
				"Id": 0,
				"Count": 50000
			}
		],
		"RewardDisplayCount": 3
	},
	{
		"ID": 39,
		"GroupId": 3,
		"Score": 8000,
		"Name": "Phase 19",
		"RewardList": [
			{
				"GoodsType": "GoodsType_Item",
				"Id": 4001,
				"Count": 1
			}
		],
		"RewardDisplayCount": 3
	},
	{
		"ID": 40,
		"GroupId": 3,
		"Score": 7000,
		"Name": "Phase 18",
		"RewardList": [
			{
				"GoodsType": "GoodsType_Item",
				"Id": 4012,
				"Count": 1
			}
		],
		"RewardDisplayCount": 3
	},
	{
		"ID": 41,
		"GroupId": 3,
		"Score": 6000,
		"Name": "Phase 17",
		"RewardList": [
			{
				"GoodsType": "GoodsType_Crystal",
				"Id": 0,
				"Count": 20
			}
		],
		"RewardDisplayCount": 3
	},
	{
		"ID": 42,
		"GroupId": 3,
		"Score": 5500,
		"Name": "Phase 16",
		"RewardList": [
			{
				"GoodsType": "GoodsType_Item",
				"Id": 3202,
				"Count": 5
			}
		],
		"RewardDisplayCount": 3
	},
	{
		"ID": 43,
		"GroupId": 3,
		"Score": 5000,
		"Name": "Phase 15",
		"RewardList": [
			{
				"GoodsType": "GoodsType_Item",
				"Id": 6011,
				"Count": 8
			},
			{
				"GoodsType": "GoodsType_Item",
				"Id": 6014,
				"Count": 8
			},
			{
				"GoodsType": "GoodsType_Item",
				"Id": 6017,
				"Count": 8
			}
		],
		"RewardDisplayCount": 3
	},
	{
		"ID": 44,
		"GroupId": 3,
		"Score": 4500,
		"Name": "Phase 14",
		"RewardList": [
			{
				"GoodsType": "GoodsType_Equipment",
				"Id": 303,
				"Count": 5
			}
		],
		"RewardDisplayCount": 3
	},
	{
		"ID": 45,
		"GroupId": 3,
		"Score": 4000,
		"Name": "Phase 13",
		"RewardList": [
			{
				"GoodsType": "GoodsType_Crystal",
				"Id": 0,
				"Count": 20
			}
		],
		"RewardDisplayCount": 3
	},
	{
		"ID": 46,
		"GroupId": 3,
		"Score": 3500,
		"Name": "Phase 12",
		"RewardList": [
			{
				"GoodsType": "GoodsType_Item",
				"Id": 3201,
				"Count": 12
			}
		],
		"RewardDisplayCount": 3
	},
	{
		"ID": 47,
		"GroupId": 3,
		"Score": 3000,
		"Name": "Phase 11",
		"RewardList": [
			{
				"GoodsType": "GoodsType_Gold",
				"Id": 0,
				"Count": 30000
			}
		],
		"RewardDisplayCount": 3
	},
	{
		"ID": 48,
		"GroupId": 3,
		"Score": 2500,
		"Name": "Phase 10",
		"RewardList": [
			{
				"GoodsType": "GoodsType_Item",
				"Id": 4001,
				"Count": 1
			}
		],
		"RewardDisplayCount": 3
	},
	{
		"ID": 49,
		"GroupId": 3,
		"Score": 2000,
		"Name": "Phase 9",
		"RewardList": [
			{
				"GoodsType": "GoodsType_Crystal",
				"Id": 0,
				"Count": 10
			}
		],
		"RewardDisplayCount": 3
	},
	{
		"ID": 50,
		"GroupId": 3,
		"Score": 1500,
		"Name": "Phase 8",
		"RewardList": [
			{
				"GoodsType": "GoodsType_Item",
				"Id": 1009,
				"Count": 20
			}
		],
		"RewardDisplayCount": 3
	},
	{
		"ID": 51,
		"GroupId": 3,
		"Score": 1000,
		"Name": "Phase 7",
		"RewardList": [
			{
				"GoodsType": "GoodsType_Item",
				"Id": 6002,
				"Count": 8
			},
			{
				"GoodsType": "GoodsType_Item",
				"Id": 6005,
				"Count": 8
			},
			{
				"GoodsType": "GoodsType_Item",
				"Id": 6008,
				"Count": 8
			}
		],
		"RewardDisplayCount": 3
	},
	{
		"ID": 52,
		"GroupId": 3,
		"Score": 700,
		"Name": "Phase 6",
		"RewardList": [
			{
				"GoodsType": "GoodsType_Item",
				"Id": 3503,
				"Count": 1
			}
		],
		"RewardDisplayCount": 3
	},
	{
		"ID": 53,
		"GroupId": 3,
		"Score": 500,
		"Name": "Phase 5",
		"RewardList": [
			{
				"GoodsType": "GoodsType_Crystal",
				"Id": 0,
				"Count": 10
			}
		],
		"RewardDisplayCount": 3
	},
	{
		"ID": 54,
		"GroupId": 3,
		"Score": 400,
		"Name": "Phase 4",
		"RewardList": [
			{
				"GoodsType": "GoodsType_Item",
				"Id": 3201,
				"Count": 8
			}
		],
		"RewardDisplayCount": 3
	},
	{
		"ID": 55,
		"GroupId": 3,
		"Score": 300,
		"Name": "Phase 3",
		"RewardList": [
			{
				"GoodsType": "GoodsType_Item",
				"Id": 4001,
				"Count": 1
			}
		],
		"RewardDisplayCount": 3
	},
	{
		"ID": 56,
		"GroupId": 3,
		"Score": 200,
		"Name": "Phase 2",
		"RewardList": [
			{
				"GoodsType": "GoodsType_Gold",
				"Id": 0,
				"Count": 20000
			}
		],
		"RewardDisplayCount": 3
	},
	{
		"ID": 57,
		"GroupId": 3,
		"Score": 100,
		"Name": "Phase 1",
		"RewardList": [
			{
				"GoodsType": "GoodsType_Crystal",
				"Id": 0,
				"Count": 10
			}
		],
		"RewardDisplayCount": 3
	},
	{
		"ID": 58,
		"GroupId": 4,
		"Score": 70000,
		"Name": "Phase 47",
		"RewardList": [
			{
				"GoodsType": "GoodsType_Crystal",
				"Id": 0,
				"Count": 50
			}
		],
		"RewardDisplayCount": 3
	},
	{
		"ID": 59,
		"GroupId": 4,
		"Score": 67500,
		"Name": "Phase 46",
		"RewardList": [
			{
				"GoodsType": "GoodsType_Gold",
				"Id": 0,
				"Count": 100000
			}
		],
		"RewardDisplayCount": 3
	},
	{
		"ID": 60,
		"GroupId": 4,
		"Score": 65000,
		"Name": "Phase 45",
		"RewardList": [
			{
				"GoodsType": "GoodsType_Crystal",
				"Id": 0,
				"Count": 50
			}
		],
		"RewardDisplayCount": 3
	},
	{
		"ID": 61,
		"GroupId": 4,
		"Score": 62500,
		"Name": "Phase 44",
		"RewardList": [
			{
				"GoodsType": "GoodsType_Item",
				"Id": 4026,
				"Count": 1
			}
		],
		"RewardDisplayCount": 3
	},
	{
		"ID": 62,
		"GroupId": 4,
		"Score": 60000,
		"Name": "Phase 43",
		"RewardList": [
			{
				"GoodsType": "GoodsType_BrillianceMithralStone",
				"Id": 0,
				"Count": 100
			}
		],
		"RewardDisplayCount": 3
	},
	{
		"ID": 63,
		"GroupId": 4,
		"Score": 57500,
		"Name": "Phase 42",
		"RewardList": [
			{
				"GoodsType": "GoodsType_Item",
				"Id": 3203,
				"Count": 5
			}
		],
		"RewardDisplayCount": 3
	},
	{
		"ID": 64,
		"GroupId": 4,
		"Score": 55000,
		"Name": "Phase 41",
		"RewardList": [
			{
				"GoodsType": "GoodsType_Crystal",
				"Id": 0,
				"Count": 50
			}
		],
		"RewardDisplayCount": 3
	},
	{
		"ID": 65,
		"GroupId": 4,
		"Score": 52500,
		"Name": "Phase 40",
		"RewardList": [
			{
				"GoodsType": "GoodsType_Item",
				"Id": 4001,
				"Count": 1
			}
		],
		"RewardDisplayCount": 3
	},
	{
		"ID": 66,
		"GroupId": 4,
		"Score": 50000,
		"Name": "Phase 39",
		"RewardList": [
			{
				"GoodsType": "GoodsType_Gold",
				"Id": 0,
				"Count": 100000
			}
		],
		"RewardDisplayCount": 3
	},
	{
		"ID": 67,
		"GroupId": 4,
		"Score": 47500,
		"Name": "Phase 38",
		"RewardList": [
			{
				"GoodsType": "GoodsType_Item",
				"Id": 4013,
				"Count": 1
			}
		],
		"RewardDisplayCount": 3
	},
	{
		"ID": 68,
		"GroupId": 4,
		"Score": 45000,
		"Name": "Phase 37",
		"RewardList": [
			{
				"GoodsType": "GoodsType_Crystal",
				"Id": 0,
				"Count": 30
			}
		],
		"RewardDisplayCount": 3
	},
	{
		"ID": 69,
		"GroupId": 4,
		"Score": 42500,
		"Name": "Phase 36",
		"RewardList": [
			{
				"GoodsType": "GoodsType_Item",
				"Id": 3009,
				"Count": 1
			}
		],
		"RewardDisplayCount": 3
	},
	{
		"ID": 70,
		"GroupId": 4,
		"Score": 40000,
		"Name": "Phase 35",
		"RewardList": [
			{
				"GoodsType": "GoodsType_BrillianceMithralStone",
				"Id": 0,
				"Count": 100
			}
		],
		"RewardDisplayCount": 3
	},
	{
		"ID": 71,
		"GroupId": 4,
		"Score": 37500,
		"Name": "Phase 34",
		"RewardList": [
			{
				"GoodsType": "GoodsType_Item",
				"Id": 4012,
				"Count": 1
			}
		],
		"RewardDisplayCount": 3
	},
	{
		"ID": 72,
		"GroupId": 4,
		"Score": 35000,
		"Name": "Phase 33",
		"RewardList": [
			{
				"GoodsType": "GoodsType_Crystal",
				"Id": 0,
				"Count": 30
			}
		],
		"RewardDisplayCount": 3
	},
	{
		"ID": 73,
		"GroupId": 4,
		"Score": 32500,
		"Name": "Phase 32",
		"RewardList": [
			{
				"GoodsType": "GoodsType_Item",
				"Id": 4026,
				"Count": 1
			}
		],
		"RewardDisplayCount": 3
	},
	{
		"ID": 74,
		"GroupId": 4,
		"Score": 30000,
		"Name": "Phase 31",
		"RewardList": [
			{
				"GoodsType": "GoodsType_HeroSkin",
				"Id": 3301,
				"Count": 1
			}
		],
		"RewardDisplayCount": 3
	},
	{
		"ID": 75,
		"GroupId": 4,
		"Score": 27500,
		"Name": "Phase 30",
		"RewardList": [
			{
				"GoodsType": "GoodsType_Gold",
				"Id": 0,
				"Count": 50000
			}
		],
		"RewardDisplayCount": 3
	},
	{
		"ID": 76,
		"GroupId": 4,
		"Score": 25000,
		"Name": "Phase 29",
		"RewardList": [
			{
				"GoodsType": "GoodsType_Crystal",
				"Id": 0,
				"Count": 30
			}
		],
		"RewardDisplayCount": 3
	},
	{
		"ID": 77,
		"GroupId": 4,
		"Score": 22500,
		"Name": "Phase 28",
		"RewardList": [
			{
				"GoodsType": "GoodsType_Item",
				"Id": 6012,
				"Count": 6
			},
			{
				"GoodsType": "GoodsType_Item",
				"Id": 6015,
				"Count": 6
			},
			{
				"GoodsType": "GoodsType_Item",
				"Id": 6018,
				"Count": 6
			}
		],
		"RewardDisplayCount": 3
	},
	{
		"ID": 78,
		"GroupId": 4,
		"Score": 20000,
		"Name": "Phase 27",
		"RewardList": [
			{
				"GoodsType": "GoodsType_Item",
				"Id": 4001,
				"Count": 1
			}
		],
		"RewardDisplayCount": 3
	},
	{
		"ID": 79,
		"GroupId": 4,
		"Score": 18000,
		"Name": "Phase 26",
		"RewardList": [
			{
				"GoodsType": "GoodsType_Item",
				"Id": 1039,
				"Count": 20
			}
		],
		"RewardDisplayCount": 3
	},
	{
		"ID": 80,
		"GroupId": 4,
		"Score": 16000,
		"Name": "Phase 25",
		"RewardList": [
			{
				"GoodsType": "GoodsType_Crystal",
				"Id": 0,
				"Count": 30
			}
		],
		"RewardDisplayCount": 3
	},
	{
		"ID": 81,
		"GroupId": 4,
		"Score": 14000,
		"Name": "Phase 24",
		"RewardList": [
			{
				"GoodsType": "GoodsType_Item",
				"Id": 6003,
				"Count": 6
			},
			{
				"GoodsType": "GoodsType_Item",
				"Id": 6006,
				"Count": 6
			},
			{
				"GoodsType": "GoodsType_Item",
				"Id": 6009,
				"Count": 6
			}
		],
		"RewardDisplayCount": 3
	},
	{
		"ID": 82,
		"GroupId": 4,
		"Score": 12000,
		"Name": "Phase 23",
		"RewardList": [
			{
				"GoodsType": "GoodsType_Equipment",
				"Id": 304,
				"Count": 2
			}
		],
		"RewardDisplayCount": 3
	},
	{
		"ID": 83,
		"GroupId": 4,
		"Score": 11000,
		"Name": "Phase 22",
		"RewardList": [
			{
				"GoodsType": "GoodsType_Item",
				"Id": 3202,
				"Count": 8
			}
		],
		"RewardDisplayCount": 3
	},
	{
		"ID": 84,
		"GroupId": 4,
		"Score": 10000,
		"Name": "Phase 21",
		"RewardList": [
			{
				"GoodsType": "GoodsType_Crystal",
				"Id": 0,
				"Count": 20
			}
		],
		"RewardDisplayCount": 3
	},
	{
		"ID": 85,
		"GroupId": 4,
		"Score": 9000,
		"Name": "Phase 20",
		"RewardList": [
			{
				"GoodsType": "GoodsType_Gold",
				"Id": 0,
				"Count": 50000
			}
		],
		"RewardDisplayCount": 3
	},
	{
		"ID": 86,
		"GroupId": 4,
		"Score": 8000,
		"Name": "Phase 19",
		"RewardList": [
			{
				"GoodsType": "GoodsType_Item",
				"Id": 4001,
				"Count": 1
			}
		],
		"RewardDisplayCount": 3
	},
	{
		"ID": 87,
		"GroupId": 4,
		"Score": 7000,
		"Name": "Phase 18",
		"RewardList": [
			{
				"GoodsType": "GoodsType_Item",
				"Id": 4012,
				"Count": 1
			}
		],
		"RewardDisplayCount": 3
	},
	{
		"ID": 88,
		"GroupId": 4,
		"Score": 6000,
		"Name": "Phase 17",
		"RewardList": [
			{
				"GoodsType": "GoodsType_Crystal",
				"Id": 0,
				"Count": 20
			}
		],
		"RewardDisplayCount": 3
	},
	{
		"ID": 89,
		"GroupId": 4,
		"Score": 5500,
		"Name": "Phase 16",
		"RewardList": [
			{
				"GoodsType": "GoodsType_Item",
				"Id": 1039,
				"Count": 20
			}
		],
		"RewardDisplayCount": 3
	},
	{
		"ID": 90,
		"GroupId": 4,
		"Score": 5000,
		"Name": "Phase 15",
		"RewardList": [
			{
				"GoodsType": "GoodsType_Item",
				"Id": 6011,
				"Count": 8
			},
			{
				"GoodsType": "GoodsType_Item",
				"Id": 6014,
				"Count": 8
			},
			{
				"GoodsType": "GoodsType_Item",
				"Id": 6017,
				"Count": 8
			}
		],
		"RewardDisplayCount": 3
	},
	{
		"ID": 91,
		"GroupId": 4,
		"Score": 4500,
		"Name": "Phase 14",
		"RewardList": [
			{
				"GoodsType": "GoodsType_Equipment",
				"Id": 303,
				"Count": 5
			}
		],
		"RewardDisplayCount": 3
	},
	{
		"ID": 92,
		"GroupId": 4,
		"Score": 4000,
		"Name": "Phase 13",
		"RewardList": [
			{
				"GoodsType": "GoodsType_Crystal",
				"Id": 0,
				"Count": 20
			}
		],
		"RewardDisplayCount": 3
	},
	{
		"ID": 93,
		"GroupId": 4,
		"Score": 3500,
		"Name": "Phase 12",
		"RewardList": [
			{
				"GoodsType": "GoodsType_Item",
				"Id": 3201,
				"Count": 12
			}
		],
		"RewardDisplayCount": 3
	},
	{
		"ID": 94,
		"GroupId": 4,
		"Score": 3000,
		"Name": "Phase 11",
		"RewardList": [
			{
				"GoodsType": "GoodsType_Gold",
				"Id": 0,
				"Count": 30000
			}
		],
		"RewardDisplayCount": 3
	},
	{
		"ID": 95,
		"GroupId": 4,
		"Score": 2500,
		"Name": "Phase 10",
		"RewardList": [
			{
				"GoodsType": "GoodsType_Item",
				"Id": 4001,
				"Count": 1
			}
		],
		"RewardDisplayCount": 3
	},
	{
		"ID": 96,
		"GroupId": 4,
		"Score": 2000,
		"Name": "Phase 9",
		"RewardList": [
			{
				"GoodsType": "GoodsType_Crystal",
				"Id": 0,
				"Count": 10
			}
		],
		"RewardDisplayCount": 3
	},
	{
		"ID": 97,
		"GroupId": 4,
		"Score": 1500,
		"Name": "Phase 8",
		"RewardList": [
			{
				"GoodsType": "GoodsType_Item",
				"Id": 1039,
				"Count": 10
			}
		],
		"RewardDisplayCount": 3
	},
	{
		"ID": 98,
		"GroupId": 4,
		"Score": 1000,
		"Name": "Phase 7",
		"RewardList": [
			{
				"GoodsType": "GoodsType_Item",
				"Id": 6002,
				"Count": 8
			},
			{
				"GoodsType": "GoodsType_Item",
				"Id": 6005,
				"Count": 8
			},
			{
				"GoodsType": "GoodsType_Item",
				"Id": 6008,
				"Count": 8
			}
		],
		"RewardDisplayCount": 3
	},
	{
		"ID": 99,
		"GroupId": 4,
		"Score": 700,
		"Name": "Phase 6",
		"RewardList": [
			{
				"GoodsType": "GoodsType_Item",
				"Id": 3503,
				"Count": 1
			}
		],
		"RewardDisplayCount": 3
	},
	{
		"ID": 100,
		"GroupId": 4,
		"Score": 500,
		"Name": "Phase 5",
		"RewardList": [
			{
				"GoodsType": "GoodsType_Crystal",
				"Id": 0,
				"Count": 10
			}
		],
		"RewardDisplayCount": 3
	},
	{
		"ID": 101,
		"GroupId": 4,
		"Score": 400,
		"Name": "Phase 4",
		"RewardList": [
			{
				"GoodsType": "GoodsType_Item",
				"Id": 3201,
				"Count": 8
			}
		],
		"RewardDisplayCount": 3
	},
	{
		"ID": 102,
		"GroupId": 4,
		"Score": 300,
		"Name": "Phase 3",
		"RewardList": [
			{
				"GoodsType": "GoodsType_Item",
				"Id": 4001,
				"Count": 1
			}
		],
		"RewardDisplayCount": 3
	},
	{
		"ID": 103,
		"GroupId": 4,
		"Score": 200,
		"Name": "Phase 2",
		"RewardList": [
			{
				"GoodsType": "GoodsType_Gold",
				"Id": 0,
				"Count": 20000
			}
		],
		"RewardDisplayCount": 3
	},
	{
		"ID": 104,
		"GroupId": 4,
		"Score": 100,
		"Name": "Phase 1",
		"RewardList": [
			{
				"GoodsType": "GoodsType_Crystal",
				"Id": 0,
				"Count": 10
			}
		],
		"RewardDisplayCount": 3
	},
	{
		"ID": 105,
		"GroupId": 5,
		"Score": 90000,
		"Name": "Phase 47",
		"RewardList": [
			{
				"GoodsType": "GoodsType_Crystal",
				"Id": 0,
				"Count": 50
			}
		],
		"RewardDisplayCount": 3
	},
	{
		"ID": 106,
		"GroupId": 5,
		"Score": 85000,
		"Name": "Phase 46",
		"RewardList": [
			{
				"GoodsType": "GoodsType_Gold",
				"Id": 0,
				"Count": 200000
			}
		],
		"RewardDisplayCount": 3
	},
	{
		"ID": 107,
		"GroupId": 5,
		"Score": 81000,
		"Name": "Phase 45",
		"RewardList": [
			{
				"GoodsType": "GoodsType_Crystal",
				"Id": 0,
				"Count": 50
			}
		],
		"RewardDisplayCount": 3
	},
	{
		"ID": 108,
		"GroupId": 5,
		"Score": 77000,
		"Name": "Phase 44",
		"RewardList": [
			{
				"GoodsType": "GoodsType_Item",
				"Id": 4026,
				"Count": 1
			}
		],
		"RewardDisplayCount": 3
	},
	{
		"ID": 109,
		"GroupId": 5,
		"Score": 73000,
		"Name": "Phase 43",
		"RewardList": [
			{
				"GoodsType": "GoodsType_BrillianceMithralStone",
				"Id": 0,
				"Count": 100
			}
		],
		"RewardDisplayCount": 3
	},
	{
		"ID": 110,
		"GroupId": 5,
		"Score": 69000,
		"Name": "Phase 42",
		"RewardList": [
			{
				"GoodsType": "GoodsType_Item",
				"Id": 3203,
				"Count": 5
			}
		],
		"RewardDisplayCount": 3
	},
	{
		"ID": 111,
		"GroupId": 5,
		"Score": 65500,
		"Name": "Phase 41",
		"RewardList": [
			{
				"GoodsType": "GoodsType_Crystal",
				"Id": 0,
				"Count": 50
			}
		],
		"RewardDisplayCount": 3
	},
	{
		"ID": 112,
		"GroupId": 5,
		"Score": 62000,
		"Name": "Phase 40",
		"RewardList": [
			{
				"GoodsType": "GoodsType_Item",
				"Id": 4001,
				"Count": 1
			}
		],
		"RewardDisplayCount": 3
	},
	{
		"ID": 113,
		"GroupId": 5,
		"Score": 58500,
		"Name": "Phase 39",
		"RewardList": [
			{
				"GoodsType": "GoodsType_Gold",
				"Id": 0,
				"Count": 100000
			}
		],
		"RewardDisplayCount": 3
	},
	{
		"ID": 114,
		"GroupId": 5,
		"Score": 55000,
		"Name": "Phase 38",
		"RewardList": [
			{
				"GoodsType": "GoodsType_Item",
				"Id": 4013,
				"Count": 1
			}
		],
		"RewardDisplayCount": 3
	},
	{
		"ID": 115,
		"GroupId": 5,
		"Score": 51500,
		"Name": "Phase 37",
		"RewardList": [
			{
				"GoodsType": "GoodsType_Crystal",
				"Id": 0,
				"Count": 30
			}
		],
		"RewardDisplayCount": 3
	},
	{
		"ID": 116,
		"GroupId": 5,
		"Score": 48000,
		"Name": "Phase 36",
		"RewardList": [
			{
				"GoodsType": "GoodsType_Item",
				"Id": 3009,
				"Count": 1
			}
		],
		"RewardDisplayCount": 3
	},
	{
		"ID": 117,
		"GroupId": 5,
		"Score": 45000,
		"Name": "Phase 35",
		"RewardList": [
			{
				"GoodsType": "GoodsType_BrillianceMithralStone",
				"Id": 0,
				"Count": 100
			}
		],
		"RewardDisplayCount": 3
	},
	{
		"ID": 118,
		"GroupId": 5,
		"Score": 42000,
		"Name": "Phase 34",
		"RewardList": [
			{
				"GoodsType": "GoodsType_Item",
				"Id": 4012,
				"Count": 1
			}
		],
		"RewardDisplayCount": 3
	},
	{
		"ID": 119,
		"GroupId": 5,
		"Score": 39000,
		"Name": "Phase 33",
		"RewardList": [
			{
				"GoodsType": "GoodsType_Crystal",
				"Id": 0,
				"Count": 30
			}
		],
		"RewardDisplayCount": 3
	},
	{
		"ID": 120,
		"GroupId": 5,
		"Score": 36000,
		"Name": "Phase 32",
		"RewardList": [
			{
				"GoodsType": "GoodsType_Item",
				"Id": 4026,
				"Count": 1
			}
		],
		"RewardDisplayCount": 3
	},
	{
		"ID": 121,
		"GroupId": 5,
		"Score": 33000,
		"Name": "Phase 31",
		"RewardList": [
			{
				"GoodsType": "GoodsType_HeroSkin",
				"Id": 102,
				"Count": 1
			}
		],
		"RewardDisplayCount": 3
	},
	{
		"ID": 122,
		"GroupId": 5,
		"Score": 30000,
		"Name": "Phase 30",
		"RewardList": [
			{
				"GoodsType": "GoodsType_Gold",
				"Id": 0,
				"Count": 50000
			}
		],
		"RewardDisplayCount": 3
	},
	{
		"ID": 123,
		"GroupId": 5,
		"Score": 27000,
		"Name": "Phase 29",
		"RewardList": [
			{
				"GoodsType": "GoodsType_Crystal",
				"Id": 0,
				"Count": 30
			}
		],
		"RewardDisplayCount": 3
	},
	{
		"ID": 124,
		"GroupId": 5,
		"Score": 24500,
		"Name": "Phase 28",
		"RewardList": [
			{
				"GoodsType": "GoodsType_Item",
				"Id": 6012,
				"Count": 6
			},
			{
				"GoodsType": "GoodsType_Item",
				"Id": 6015,
				"Count": 6
			},
			{
				"GoodsType": "GoodsType_Item",
				"Id": 6018,
				"Count": 6
			}
		],
		"RewardDisplayCount": 3
	},
	{
		"ID": 125,
		"GroupId": 5,
		"Score": 22000,
		"Name": "Phase 27",
		"RewardList": [
			{
				"GoodsType": "GoodsType_Item",
				"Id": 4001,
				"Count": 1
			}
		],
		"RewardDisplayCount": 3
	},
	{
		"ID": 126,
		"GroupId": 5,
		"Score": 19500,
		"Name": "Phase 26",
		"RewardList": [
			{
				"GoodsType": "GoodsType_Item",
				"Id": 1038,
				"Count": 20
			}
		],
		"RewardDisplayCount": 3
	},
	{
		"ID": 127,
		"GroupId": 5,
		"Score": 17000,
		"Name": "Phase 25",
		"RewardList": [
			{
				"GoodsType": "GoodsType_Crystal",
				"Id": 0,
				"Count": 30
			}
		],
		"RewardDisplayCount": 3
	},
	{
		"ID": 128,
		"GroupId": 5,
		"Score": 15000,
		"Name": "Phase 24",
		"RewardList": [
			{
				"GoodsType": "GoodsType_Item",
				"Id": 6003,
				"Count": 6
			},
			{
				"GoodsType": "GoodsType_Item",
				"Id": 6006,
				"Count": 6
			},
			{
				"GoodsType": "GoodsType_Item",
				"Id": 6009,
				"Count": 6
			}
		],
		"RewardDisplayCount": 3
	},
	{
		"ID": 129,
		"GroupId": 5,
		"Score": 13000,
		"Name": "Phase 23",
		"RewardList": [
			{
				"GoodsType": "GoodsType_Equipment",
				"Id": 304,
				"Count": 2
			}
		],
		"RewardDisplayCount": 3
	},
	{
		"ID": 130,
		"GroupId": 5,
		"Score": 11500,
		"Name": "Phase 22",
		"RewardList": [
			{
				"GoodsType": "GoodsType_Item",
				"Id": 3202,
				"Count": 8
			}
		],
		"RewardDisplayCount": 3
	},
	{
		"ID": 131,
		"GroupId": 5,
		"Score": 10000,
		"Name": "Phase 21",
		"RewardList": [
			{
				"GoodsType": "GoodsType_Crystal",
				"Id": 0,
				"Count": 20
			}
		],
		"RewardDisplayCount": 3
	},
	{
		"ID": 132,
		"GroupId": 5,
		"Score": 9000,
		"Name": "Phase 20",
		"RewardList": [
			{
				"GoodsType": "GoodsType_Gold",
				"Id": 0,
				"Count": 50000
			}
		],
		"RewardDisplayCount": 3
	},
	{
		"ID": 133,
		"GroupId": 5,
		"Score": 8000,
		"Name": "Phase 19",
		"RewardList": [
			{
				"GoodsType": "GoodsType_Item",
				"Id": 4001,
				"Count": 1
			}
		],
		"RewardDisplayCount": 3
	},
	{
		"ID": 134,
		"GroupId": 5,
		"Score": 7000,
		"Name": "Phase 18",
		"RewardList": [
			{
				"GoodsType": "GoodsType_Item",
				"Id": 4012,
				"Count": 1
			}
		],
		"RewardDisplayCount": 3
	},
	{
		"ID": 135,
		"GroupId": 5,
		"Score": 6000,
		"Name": "Phase 17",
		"RewardList": [
			{
				"GoodsType": "GoodsType_Crystal",
				"Id": 0,
				"Count": 20
			}
		],
		"RewardDisplayCount": 3
	},
	{
		"ID": 136,
		"GroupId": 5,
		"Score": 5500,
		"Name": "Phase 16",
		"RewardList": [
			{
				"GoodsType": "GoodsType_Item",
				"Id": 1038,
				"Count": 20
			}
		],
		"RewardDisplayCount": 3
	},
	{
		"ID": 137,
		"GroupId": 5,
		"Score": 5000,
		"Name": "Phase 15",
		"RewardList": [
			{
				"GoodsType": "GoodsType_Item",
				"Id": 6011,
				"Count": 8
			},
			{
				"GoodsType": "GoodsType_Item",
				"Id": 6014,
				"Count": 8
			},
			{
				"GoodsType": "GoodsType_Item",
				"Id": 6017,
				"Count": 8
			}
		],
		"RewardDisplayCount": 3
	},
	{
		"ID": 138,
		"GroupId": 5,
		"Score": 4500,
		"Name": "Phase 14",
		"RewardList": [
			{
				"GoodsType": "GoodsType_Equipment",
				"Id": 303,
				"Count": 5
			}
		],
		"RewardDisplayCount": 3
	},
	{
		"ID": 139,
		"GroupId": 5,
		"Score": 4000,
		"Name": "Phase 13",
		"RewardList": [
			{
				"GoodsType": "GoodsType_Crystal",
				"Id": 0,
				"Count": 20
			}
		],
		"RewardDisplayCount": 3
	},
	{
		"ID": 140,
		"GroupId": 5,
		"Score": 3500,
		"Name": "Phase 12",
		"RewardList": [
			{
				"GoodsType": "GoodsType_Item",
				"Id": 3201,
				"Count": 12
			}
		],
		"RewardDisplayCount": 3
	},
	{
		"ID": 141,
		"GroupId": 5,
		"Score": 3000,
		"Name": "Phase 11",
		"RewardList": [
			{
				"GoodsType": "GoodsType_Gold",
				"Id": 0,
				"Count": 30000
			}
		],
		"RewardDisplayCount": 3
	},
	{
		"ID": 142,
		"GroupId": 5,
		"Score": 2500,
		"Name": "Phase 10",
		"RewardList": [
			{
				"GoodsType": "GoodsType_Item",
				"Id": 4001,
				"Count": 1
			}
		],
		"RewardDisplayCount": 3
	},
	{
		"ID": 143,
		"GroupId": 5,
		"Score": 2000,
		"Name": "Phase 9",
		"RewardList": [
			{
				"GoodsType": "GoodsType_Crystal",
				"Id": 0,
				"Count": 10
			}
		],
		"RewardDisplayCount": 3
	},
	{
		"ID": 144,
		"GroupId": 5,
		"Score": 1500,
		"Name": "Phase 8",
		"RewardList": [
			{
				"GoodsType": "GoodsType_Item",
				"Id": 1038,
				"Count": 20
			}
		],
		"RewardDisplayCount": 3
	},
	{
		"ID": 145,
		"GroupId": 5,
		"Score": 1000,
		"Name": "Phase 7",
		"RewardList": [
			{
				"GoodsType": "GoodsType_Item",
				"Id": 6002,
				"Count": 8
			},
			{
				"GoodsType": "GoodsType_Item",
				"Id": 6005,
				"Count": 8
			},
			{
				"GoodsType": "GoodsType_Item",
				"Id": 6008,
				"Count": 8
			}
		],
		"RewardDisplayCount": 3
	},
	{
		"ID": 146,
		"GroupId": 5,
		"Score": 700,
		"Name": "Phase 6",
		"RewardList": [
			{
				"GoodsType": "GoodsType_Item",
				"Id": 3503,
				"Count": 1
			}
		],
		"RewardDisplayCount": 3
	},
	{
		"ID": 147,
		"GroupId": 5,
		"Score": 500,
		"Name": "Phase 5",
		"RewardList": [
			{
				"GoodsType": "GoodsType_Crystal",
				"Id": 0,
				"Count": 10
			}
		],
		"RewardDisplayCount": 3
	},
	{
		"ID": 148,
		"GroupId": 5,
		"Score": 400,
		"Name": "Phase 4",
		"RewardList": [
			{
				"GoodsType": "GoodsType_Item",
				"Id": 3201,
				"Count": 8
			}
		],
		"RewardDisplayCount": 3
	},
	{
		"ID": 149,
		"GroupId": 5,
		"Score": 300,
		"Name": "Phase 3",
		"RewardList": [
			{
				"GoodsType": "GoodsType_Item",
				"Id": 4001,
				"Count": 1
			}
		],
		"RewardDisplayCount": 3
	},
	{
		"ID": 150,
		"GroupId": 5,
		"Score": 200,
		"Name": "Phase 2",
		"RewardList": [
			{
				"GoodsType": "GoodsType_Gold",
				"Id": 0,
				"Count": 20000
			}
		],
		"RewardDisplayCount": 3
	},
	{
		"ID": 151,
		"GroupId": 5,
		"Score": 100,
		"Name": "Phase 1",
		"RewardList": [
			{
				"GoodsType": "GoodsType_Crystal",
				"Id": 0,
				"Count": 10
			}
		],
		"RewardDisplayCount": 3
	},
	{
		"ID": 152,
		"GroupId": 6,
		"Score": 70000,
		"Name": "Phase 47",
		"RewardList": [
			{
				"GoodsType": "GoodsType_Crystal",
				"Id": 0,
				"Count": 50
			}
		],
		"RewardDisplayCount": 3
	},
	{
		"ID": 153,
		"GroupId": 6,
		"Score": 67500,
		"Name": "Phase 46",
		"RewardList": [
			{
				"GoodsType": "GoodsType_Gold",
				"Id": 0,
				"Count": 650000
			}
		],
		"RewardDisplayCount": 3
	},
	{
		"ID": 154,
		"GroupId": 6,
		"Score": 65000,
		"Name": "Phase 45",
		"RewardList": [
			{
				"GoodsType": "GoodsType_Item",
				"Id": 4518,
				"Count": 2
			}
		],
		"RewardDisplayCount": 3
	},
	{
		"ID": 155,
		"GroupId": 6,
		"Score": 62500,
		"Name": "Phase 44",
		"RewardList": [
			{
				"GoodsType": "GoodsType_Item",
				"Id": 4026,
				"Count": 1
			}
		],
		"RewardDisplayCount": 3
	},
	{
		"ID": 156,
		"GroupId": 6,
		"Score": 60000,
		"Name": "Phase 43",
		"RewardList": [
			{
				"GoodsType": "GoodsType_BrillianceMithralStone",
				"Id": 0,
				"Count": 100
			}
		],
		"RewardDisplayCount": 3
	},
	{
		"ID": 157,
		"GroupId": 6,
		"Score": 57500,
		"Name": "Phase 42",
		"RewardList": [
			{
				"GoodsType": "GoodsType_Item",
				"Id": 3203,
				"Count": 8
			}
		],
		"RewardDisplayCount": 3
	},
	{
		"ID": 158,
		"GroupId": 6,
		"Score": 55000,
		"Name": "Phase 41",
		"RewardList": [
			{
				"GoodsType": "GoodsType_Crystal",
				"Id": 0,
				"Count": 30
			}
		],
		"RewardDisplayCount": 3
	},
	{
		"ID": 159,
		"GroupId": 6,
		"Score": 52500,
		"Name": "Phase 40",
		"RewardList": [
			{
				"GoodsType": "GoodsType_Item",
				"Id": 4001,
				"Count": 1
			}
		],
		"RewardDisplayCount": 3
	},
	{
		"ID": 160,
		"GroupId": 6,
		"Score": 50000,
		"Name": "Phase 39",
		"RewardList": [
			{
				"GoodsType": "GoodsType_Gold",
				"Id": 0,
				"Count": 500000
			}
		],
		"RewardDisplayCount": 3
	},
	{
		"ID": 161,
		"GroupId": 6,
		"Score": 47500,
		"Name": "Phase 38",
		"RewardList": [
			{
				"GoodsType": "GoodsType_Item",
				"Id": 4013,
				"Count": 1
			}
		],
		"RewardDisplayCount": 3
	},
	{
		"ID": 162,
		"GroupId": 6,
		"Score": 45000,
		"Name": "Phase 37",
		"RewardList": [
			{
				"GoodsType": "GoodsType_Item",
				"Id": 1009,
				"Count": 20
			}
		],
		"RewardDisplayCount": 3
	},
	{
		"ID": 163,
		"GroupId": 6,
		"Score": 42500,
		"Name": "Phase 36",
		"RewardList": [
			{
				"GoodsType": "GoodsType_Item",
				"Id": 4518,
				"Count": 2
			}
		],
		"RewardDisplayCount": 3
	},
	{
		"ID": 164,
		"GroupId": 6,
		"Score": 40000,
		"Name": "Phase 35",
		"RewardList": [
			{
				"GoodsType": "GoodsType_BrillianceMithralStone",
				"Id": 0,
				"Count": 100
			}
		],
		"RewardDisplayCount": 3
	},
	{
		"ID": 165,
		"GroupId": 6,
		"Score": 37500,
		"Name": "Phase 34",
		"RewardList": [
			{
				"GoodsType": "GoodsType_Item",
				"Id": 4517,
				"Count": 3
			}
		],
		"RewardDisplayCount": 3
	},
	{
		"ID": 166,
		"GroupId": 6,
		"Score": 35000,
		"Name": "Phase 33",
		"RewardList": [
			{
				"GoodsType": "GoodsType_Item",
				"Id": 4026,
				"Count": 1
			}
		],
		"RewardDisplayCount": 3
	},
	{
		"ID": 167,
		"GroupId": 6,
		"Score": 32500,
		"Name": "Phase 32",
		"RewardList": [
			{
				"GoodsType": "GoodsType_Item",
				"Id": 4516,
				"Count": 4
			}
		],
		"RewardDisplayCount": 3
	},
	{
		"ID": 168,
		"GroupId": 6,
		"Score": 30000,
		"Name": "Phase 31",
		"RewardList": [
			{
				"GoodsType": "GoodsType_Item",
				"Id": 4515,
				"Count": 4
			}
		],
		"RewardDisplayCount": 3
	},
	{
		"ID": 169,
		"GroupId": 6,
		"Score": 27500,
		"Name": "Phase 30",
		"RewardList": [
			{
				"GoodsType": "GoodsType_Gold",
				"Id": 0,
				"Count": 350000
			}
		],
		"RewardDisplayCount": 3
	},
	{
		"ID": 170,
		"GroupId": 6,
		"Score": 25000,
		"Name": "Phase 29",
		"RewardList": [
			{
				"GoodsType": "GoodsType_Crystal",
				"Id": 0,
				"Count": 30
			}
		],
		"RewardDisplayCount": 3
	},
	{
		"ID": 171,
		"GroupId": 6,
		"Score": 22500,
		"Name": "Phase 28",
		"RewardList": [
			{
				"GoodsType": "GoodsType_Item",
				"Id": 4517,
				"Count": 2
			}
		],
		"RewardDisplayCount": 3
	},
	{
		"ID": 172,
		"GroupId": 6,
		"Score": 20000,
		"Name": "Phase 27",
		"RewardList": [
			{
				"GoodsType": "GoodsType_Item",
				"Id": 4001,
				"Count": 1
			}
		],
		"RewardDisplayCount": 3
	},
	{
		"ID": 173,
		"GroupId": 6,
		"Score": 18000,
		"Name": "Phase 26",
		"RewardList": [
			{
				"GoodsType": "GoodsType_Item",
				"Id": 4516,
				"Count": 3
			}
		],
		"RewardDisplayCount": 3
	},
	{
		"ID": 174,
		"GroupId": 6,
		"Score": 16000,
		"Name": "Phase 25",
		"RewardList": [
			{
				"GoodsType": "GoodsType_Item",
				"Id": 1009,
				"Count": 20
			}
		],
		"RewardDisplayCount": 3
	},
	{
		"ID": 175,
		"GroupId": 6,
		"Score": 14000,
		"Name": "Phase 24",
		"RewardList": [
			{
				"GoodsType": "GoodsType_Item",
				"Id": 4515,
				"Count": 3
			}
		],
		"RewardDisplayCount": 3
	},
	{
		"ID": 176,
		"GroupId": 6,
		"Score": 12000,
		"Name": "Phase 23",
		"RewardList": [
			{
				"GoodsType": "GoodsType_Item",
				"Id": 3203,
				"Count": 5
			}
		],
		"RewardDisplayCount": 3
	},
	{
		"ID": 177,
		"GroupId": 6,
		"Score": 11000,
		"Name": "Phase 22",
		"RewardList": [
			{
				"GoodsType": "GoodsType_Crystal",
				"Id": 0,
				"Count": 20
			}
		],
		"RewardDisplayCount": 3
	},
	{
		"ID": 178,
		"GroupId": 6,
		"Score": 10000,
		"Name": "Phase 21",
		"RewardList": [
			{
				"GoodsType": "GoodsType_Equipment",
				"Id": 304,
				"Count": 2
			}
		],
		"RewardDisplayCount": 3
	},
	{
		"ID": 179,
		"GroupId": 6,
		"Score": 9000,
		"Name": "Phase 20",
		"RewardList": [
			{
				"GoodsType": "GoodsType_Gold",
				"Id": 0,
				"Count": 250000
			}
		],
		"RewardDisplayCount": 3
	},
	{
		"ID": 180,
		"GroupId": 6,
		"Score": 8000,
		"Name": "Phase 19",
		"RewardList": [
			{
				"GoodsType": "GoodsType_Item",
				"Id": 4001,
				"Count": 1
			}
		],
		"RewardDisplayCount": 3
	},
	{
		"ID": 181,
		"GroupId": 6,
		"Score": 7000,
		"Name": "Phase 18",
		"RewardList": [
			{
				"GoodsType": "GoodsType_Item",
				"Id": 6012,
				"Count": 6
			},
			{
				"GoodsType": "GoodsType_Item",
				"Id": 6015,
				"Count": 6
			},
			{
				"GoodsType": "GoodsType_Item",
				"Id": 6018,
				"Count": 6
			}
		],
		"RewardDisplayCount": 3
	},
	{
		"ID": 182,
		"GroupId": 6,
		"Score": 6000,
		"Name": "Phase 17",
		"RewardList": [
			{
				"GoodsType": "GoodsType_Crystal",
				"Id": 0,
				"Count": 20
			}
		],
		"RewardDisplayCount": 3
	},
	{
		"ID": 183,
		"GroupId": 6,
		"Score": 5500,
		"Name": "Phase 16",
		"RewardList": [
			{
				"GoodsType": "GoodsType_Item",
				"Id": 4012,
				"Count": 1
			}
		],
		"RewardDisplayCount": 3
	},
	{
		"ID": 184,
		"GroupId": 6,
		"Score": 5000,
		"Name": "Phase 15",
		"RewardList": [
			{
				"GoodsType": "GoodsType_Item",
				"Id": 6003,
				"Count": 6
			},
			{
				"GoodsType": "GoodsType_Item",
				"Id": 6006,
				"Count": 6
			},
			{
				"GoodsType": "GoodsType_Item",
				"Id": 6009,
				"Count": 6
			}
		],
		"RewardDisplayCount": 3
	},
	{
		"ID": 185,
		"GroupId": 6,
		"Score": 4500,
		"Name": "Phase 14",
		"RewardList": [
			{
				"GoodsType": "GoodsType_Item",
				"Id": 3202,
				"Count": 8
			}
		],
		"RewardDisplayCount": 3
	},
	{
		"ID": 186,
		"GroupId": 6,
		"Score": 4000,
		"Name": "Phase 13",
		"RewardList": [
			{
				"GoodsType": "GoodsType_Item",
				"Id": 6011,
				"Count": 8
			},
			{
				"GoodsType": "GoodsType_Item",
				"Id": 6014,
				"Count": 8
			},
			{
				"GoodsType": "GoodsType_Item",
				"Id": 6017,
				"Count": 8
			}
		],
		"RewardDisplayCount": 3
	},
	{
		"ID": 187,
		"GroupId": 6,
		"Score": 3500,
		"Name": "Phase 12",
		"RewardList": [
			{
				"GoodsType": "GoodsType_Equipment",
				"Id": 303,
				"Count": 5
			}
		],
		"RewardDisplayCount": 3
	},
	{
		"ID": 188,
		"GroupId": 6,
		"Score": 3000,
		"Name": "Phase 11",
		"RewardList": [
			{
				"GoodsType": "GoodsType_Gold",
				"Id": 0,
				"Count": 150000
			}
		],
		"RewardDisplayCount": 3
	},
	{
		"ID": 189,
		"GroupId": 6,
		"Score": 2500,
		"Name": "Phase 10",
		"RewardList": [
			{
				"GoodsType": "GoodsType_Item",
				"Id": 4001,
				"Count": 1
			}
		],
		"RewardDisplayCount": 3
	},
	{
		"ID": 190,
		"GroupId": 6,
		"Score": 2000,
		"Name": "Phase 9",
		"RewardList": [
			{
				"GoodsType": "GoodsType_Item",
				"Id": 1009,
				"Count": 20
			}
		],
		"RewardDisplayCount": 3
	},
	{
		"ID": 191,
		"GroupId": 6,
		"Score": 1500,
		"Name": "Phase 8",
		"RewardList": [
			{
				"GoodsType": "GoodsType_Item",
				"Id": 3201,
				"Count": 12
			}
		],
		"RewardDisplayCount": 3
	},
	{
		"ID": 192,
		"GroupId": 6,
		"Score": 1000,
		"Name": "Phase 7",
		"RewardList": [
			{
				"GoodsType": "GoodsType_Item",
				"Id": 6002,
				"Count": 8
			},
			{
				"GoodsType": "GoodsType_Item",
				"Id": 6005,
				"Count": 8
			},
			{
				"GoodsType": "GoodsType_Item",
				"Id": 6008,
				"Count": 8
			}
		],
		"RewardDisplayCount": 3
	},
	{
		"ID": 193,
		"GroupId": 6,
		"Score": 700,
		"Name": "Phase 6",
		"RewardList": [
			{
				"GoodsType": "GoodsType_Item",
				"Id": 3503,
				"Count": 1
			}
		],
		"RewardDisplayCount": 3
	},
	{
		"ID": 194,
		"GroupId": 6,
		"Score": 500,
		"Name": "Phase 5",
		"RewardList": [
			{
				"GoodsType": "GoodsType_Crystal",
				"Id": 0,
				"Count": 10
			}
		],
		"RewardDisplayCount": 3
	},
	{
		"ID": 195,
		"GroupId": 6,
		"Score": 400,
		"Name": "Phase 4",
		"RewardList": [
			{
				"GoodsType": "GoodsType_Item",
				"Id": 3201,
				"Count": 8
			}
		],
		"RewardDisplayCount": 3
	},
	{
		"ID": 196,
		"GroupId": 6,
		"Score": 300,
		"Name": "Phase 3",
		"RewardList": [
			{
				"GoodsType": "GoodsType_Item",
				"Id": 4001,
				"Count": 1
			}
		],
		"RewardDisplayCount": 3
	},
	{
		"ID": 197,
		"GroupId": 6,
		"Score": 200,
		"Name": "Phase 2",
		"RewardList": [
			{
				"GoodsType": "GoodsType_Gold",
				"Id": 0,
				"Count": 100000
			}
		],
		"RewardDisplayCount": 3
	},
	{
		"ID": 198,
		"GroupId": 6,
		"Score": 100,
		"Name": "Phase 1",
		"RewardList": [
			{
				"GoodsType": "GoodsType_Crystal",
				"Id": 0,
				"Count": 10
			}
		],
		"RewardDisplayCount": 3
	}
]